ABREST;03200;46.0955766716;3.45052482175
AGONGES;03210;46.6180197037;3.14884278466
AINAY LE CHATEAU;03360;46.7155678491;2.72085613518
ANDELAROCHE;03120;46.2501153137;3.74613192809
ARCHIGNAT;03380;46.3670864602;2.41001210443
ARFEUILLES;03120;46.1431515084;3.74329110559
ARPHEUILLES ST PRIEST;03420;46.2269459869;2.66485932203
ARRONNES;03250;46.0520854633;3.57527535836
AUBIGNY;03460;46.6733055007;3.16204245022
AUDES;03190;46.4607707399;2.55904786289
AUROUER;03460;46.6830651059;3.30496843823
AUTRY ISSARDS;03210;46.5445755503;3.12273629246
AVERMES;03000;46.5983891991;3.3186329397
AVRILLY;03130;46.332137774;3.96662161873
BAGNEUX;03460;46.6455268495;3.20422374955
BARBERIER;03140;46.2199674425;3.24930716448
BARRAIS BUSSOLLES;03120;46.2837408507;3.69766013244
BAYET;03500;46.257529442;3.27682744078
BEAULON;03230;46.5874411926;3.66899984776
BEAUNE D ALLIER;03390;46.272817743;2.8909137183
BEGUES;03800;46.1229614254;3.14273582877
BELLENAVES;03330;46.2055132294;3.06605990143
BELLERIVE SUR ALLIER;03700;46.1214944433;3.39719062136
BERT;03130;46.3276009713;3.70176788462
BESSAY SUR ALLIER;03340;46.4507552937;3.36752338544
BESSON;03210;46.4808588768;3.25477616923
BEZENET;03170;46.3323101362;2.84939307523
BILLEZOIS;03120;46.2094826701;3.57688265252
BILLY;03260;46.2315363963;3.43994128747
BIOZAT;03800;46.0812713782;3.28868518632
BIZENEUILLE;03170;46.4015746011;2.73071658216
BLOMARD;03390;46.2883371774;2.9626756681
BOST;03300;46.1834084633;3.50582300177
BOUCE;03150;46.3203697694;3.49250482471
BOURBON L ARCHAMBAULT;03160;46.5836819113;3.05141625983
BRAIZE;03360;46.658636225;2.65427484498
BRANSAT;03500;46.3291248847;3.21707091921
BRESNAY;03210;46.4335692397;3.24899330539
BRESSOLLES;03000;46.5280643075;3.295748661
BROUT VERNET;03110;46.1961727418;3.28851651471
BRUGHEAS;03700;46.0728347147;3.3660599245
BUSSET;03270;46.0568912652;3.51533127883
BUXIERES LES MINES;03440;46.4698341323;2.95493090181
CERILLY;03350;46.6265101815;2.80901857226
CESSET;03500;46.2993847548;3.19908944342
CHAMBERAT;03370;46.4139665556;2.42552132856
CHAMBLET;03170;46.3283879186;2.71331446339
CHANTELLE;03140;46.2365355832;3.16046709261
CHAPEAU;03340;46.4922208672;3.51548779612
CHAPPES;03390;46.3828961665;2.94412358895
CHAREIL CINTRAT;03140;46.2662583678;3.2297935311
CHARMEIL;03110;46.1598815241;3.39334670689
CHARMES;03800;46.0829571549;3.24639555805
CHARROUX;03140;46.1823286094;3.16415034202
CHASSENARD;03510;46.441587471;3.97329862567
CHATEAU SUR ALLIER;03320;46.7817092789;2.98716115012
CHATEL DE NEUVRE;03500;46.4160449941;3.29822520917
CHATEL MONTAGNE;03250;46.1000720289;3.71657168388
CHATELPERRON;03220;46.3968658739;3.63313760873
CHATELUS;03120;46.1980382828;3.72511111092
CHATILLON;03210;46.4615377644;3.12807465548
CHAVENON;03440;46.4219939323;2.95170741295
CHAVROCHES;03220;46.353495459;3.59684840219
CHAZEMAIS;03370;46.4871767183;2.51910449046
CHEMILLY;03210;46.4783424537;3.31267906143
CHEVAGNES;03230;46.6082038568;3.56403297131
CHEZELLE;03140;46.2129757558;3.11154820906
CHEZY;03230;46.612475752;3.45934804797
CHIRAT L EGLISE;03330;46.2460009301;3.03251610569
CHOUVIGNY;03450;46.1257380444;3.00492464249
CINDRE;03220;46.3230930256;3.55110289744
COGNAT LYONNE;03110;46.1074095478;3.29764762028
COLOMBIER;03600;46.2669829489;2.7937131637
COMMENTRY;03600;46.2787466852;2.74916734673
CONTIGNY;03500;46.3463711102;3.31483781041
COSNE D ALLIER;03430;46.482962805;2.82323006329
COULANDON;03000;46.5546535461;3.24541387326
COULANGES;03470;46.4751096526;3.86330653833
COULEUVRE;03320;46.6740683179;2.89685534446
COURCAIS;03370;46.463962183;2.44909172775
COUTANSOUZE;03330;46.205276583;3.00755651899
COUZON;03160;46.6443750911;3.11347416578
CRECHY;03150;46.2696885601;3.42387984399
CRESSANGES;03240;46.4443092739;3.17072489552
CREUZIER LE NEUF;03300;46.1781234697;3.46274147991
CREUZIER LE VIEUX;03300;46.1605988745;3.43435089726
CUSSET;03300;46.1377738304;3.48296708451
DENEUILLE LES CHANTELLE;03140;46.252932184;3.1458559831
DENEUILLE LES MINES;03170;46.3782924502;2.77557506066
DESERTINES;03630;46.3569236858;2.62735601895
DEUX CHAISES;03240;46.3749069193;3.04059198306
DIOU;03290;46.5226236257;3.7367345302
DOMERAT;03410;46.3681510176;2.54346219645
DOMPIERRE SUR BESBRE;03290;46.5305895294;3.67644076991
DOYET;03170;46.3433946285;2.79161075003
DROITURIER;03120;46.2267468451;3.70488868966
DURDAT LAREQUILLE;03310;46.2540040648;2.69686439225
EBREUIL;03450;46.1176543632;3.07363121151
ECHASSIERES;03330;46.1956641038;2.94596916837
ESCUROLLES;03110;46.1418285128;3.26795917971
ESPINASSE VOZELLE;03110;46.1292798016;3.33501762138
ESTIVAREILLES;03190;46.4250969781;2.62477435556
ETROUSSAT;03140;46.2202976466;3.22102195142
FERRIERES SUR SICHON;03250;46.0200050808;3.64850064576
FLEURIEL;03140;46.2870292399;3.16169451004
FOURILLES;03140;46.2438583922;3.19784046802
FRANCHESSE;03160;46.6436566411;3.03662004358
GANNAT;03800;46.0984192073;3.17790823629
GANNAY SUR LOIRE;03230;46.7179070524;3.59634650725
GARNAT SUR ENGIEVRE;03230;46.6348166525;3.66797467464
GENNETINES;03400;46.6296398798;3.40498318638
GIPCY;03210;46.5110673404;3.05138939193
GOUISE;03340;46.4107128153;3.43846428318
HAUT BOCAGE;03190;46.4928636302;2.65852361334
HAUTERIVE;03270;46.0773045238;3.43868453629
HERISSON;03190;46.5199077449;2.71052889853
HURIEL;03380;46.3770986154;2.48198364823
HYDS;03600;46.273205648;2.8280145759
ISLE ET BARDAIS;03360;46.6820455059;2.77701869373
ISSERPENT;03120;46.1542955213;3.61825876933
JALIGNY SUR BESBRE;03220;46.3770497759;3.59029838546
JENZAT;03800;46.1601157879;3.19738809001
LA CELLE;03600;46.2278844579;2.77894118647
LA CHABANNE;03250;46.0244474804;3.75155529865
LA CHAPELAUDE;03380;46.4276365849;2.50433585569
LA CHAPELLE;03300;46.0889341496;3.5877712092
LA CHAPELLE AUX CHASSES;03230;46.6598285232;3.53021703178
LA FERTE HAUTERIVE;03340;46.396159353;3.3355449517
LA GUILLERMIE;03250;45.9813228114;3.64529174052
LA PETITE MARCHE;03420;46.1898756857;2.56142616231
LAFELINE;03500;46.3446298238;3.17548675407
LALIZOLLE;03450;46.1646303512;3.00825559496
LAMAIDS;03380;46.3040091673;2.43816762566
LANGY;03150;46.2728774328;3.46181153336
LAPALISSE;03120;46.264846808;3.63838425184
LAPRUGNE;03250;45.9937136705;3.76308018051
LAVAULT STE ANNE;03100;46.3086016059;2.60160340266
LAVOINE;03250;45.9741706627;3.68733506061
LE BOUCHAUD;03130;46.3073055814;3.90705346696
LE BRETHON;03350;46.5841457281;2.71525662654
LE BREUIL;03120;46.1767784559;3.66869091002
LE DONJON;03130;46.3449718057;3.7999456795
LE MAYET D ECOLE;03800;46.1649554035;3.24084567902
LE MAYET DE MONTAGNE;03250;46.0602181682;3.65546570851
LE MONTET;03240;46.4062028922;3.0541000253
LE PIN;03130;46.4222179747;3.88958660139
LE THEIL;03240;46.3563893296;3.12547357039
LE VERNET;03200;46.1067527363;3.47492140254
LE VEURDRE;03320;46.7427276777;3.04259770031
LE VILHAIN;03350;46.5619095522;2.79303077979
LENAX;03130;46.3039709752;3.83067027438
LETELON;03360;46.6563542672;2.59495618457
LIERNOLLES;03130;46.3986289465;3.76799783799
LIGNEROLLES;03410;46.2822531749;2.56690530803
LIMOISE;03320;46.6841966516;3.05488887781
LODDES;03130;46.2946168116;3.76081551954
LORIGES;03500;46.2659177615;3.34188086413
LOUCHY MONTFAND;03500;46.3075829687;3.24491928356
LOUROUX BOURBONNAIS;03350;46.5340787528;2.8385482758
LOUROUX DE BEAUNE;03600;46.2996042062;2.85942062102
LOUROUX DE BOUBLE;03330;46.2297197928;2.97309854454
LUNEAU;03130;46.3662876048;3.95278636616
LURCY LEVIS;03320;46.7350922642;2.91800325447
LUSIGNY;03230;46.5717045071;3.48949898102
MAGNET;03260;46.2172906901;3.5106036727
MALICORNE;03600;46.3072678602;2.77027684739
MARCENAT;03260;46.237174267;3.39703242692
MARCILLAT EN COMBRAILLE;03420;46.1701624404;2.63441118376
MARIGNY;03210;46.579557675;3.20989648546
MARIOL;03270;46.0252722149;3.48652009889
MAZERIER;03800;46.1325144393;3.18170482903
MAZIRAT;03420;46.2185045574;2.55398563
MEAULNE VITRAY;03360;46.5959256579;2.62022117679
MEILLARD;03500;46.3881490513;3.23168900799
MEILLERS;03210;46.5132615599;3.10267194059
MERCY;03340;46.4511354301;3.52416501976
MESPLES;03370;46.4272621161;2.36441867083
MOLINET;03510;46.464220041;3.9262713854
MOLLES;03300;46.1150413617;3.55648495184
MONESTIER;03140;46.2628525623;3.10440007037
MONETAY SUR ALLIER;03500;46.3810175167;3.28932554471
MONETAY SUR LOIRE;03470;46.4350468294;3.82462613047
MONTAIGU LE BLIN;03150;46.2907437255;3.51623839378
MONTAIGUET EN FOREZ;03130;46.267429173;3.8221356053
MONTBEUGNY;03340;46.5282061849;3.47422921423
MONTCOMBROUX LES MINES;03130;46.3606934499;3.72808957144
MONTEIGNET SUR L ANDELOT;03800;46.1150007655;3.24811283769
MONTILLY;03000;46.610528559;3.24005745558
MONTLUCON;03100;46.3385883496;2.60390499777
MONTMARAULT;03390;46.3201872756;2.95237432039
MONTOLDRE;03150;46.3375770064;3.45102443628
MONTORD;03500;46.2897924844;3.23962321645
MONTVICQ;03170;46.315678912;2.82223124184
MOULINS;03000;46.5624641056;3.32662040221
MURAT;03390;46.410976289;2.90417805262
NADES;03450;46.1542506646;2.96861834904
NASSIGNY;03190;46.4978434905;2.59440652102
NAVES;03330;46.1760532799;3.11644371952
NERIS LES BAINS;03310;46.2994420207;2.67574785449
NEUILLY EN DONJON;03130;46.3427363495;3.88528963495
NEUILLY LE REAL;03340;46.466710676;3.43721508538
NEURE;03320;46.7448146276;2.97978880995
NEUVY;03000;46.5712518334;3.28275338591
NIZEROLLES;03250;46.1072966632;3.64408039597
NOYANT D ALLIER;03210;46.4796760503;3.11878325467
PARAY LE FRESIL;03230;46.6598970323;3.60383070741
PARAY SOUS BRIAILLES;03500;46.2903733952;3.36980984118
PERIGNY;03120;46.2466695762;3.56039743926
PIERREFITTE SUR LOIRE;03470;46.5040402992;3.81007064731
POEZAT;03800;46.0755325422;3.22701379423
POUZY MESANGY;03320;46.7049856575;3.00718039936
PREMILHAT;03410;46.3099309772;2.54719729208
QUINSSAINES;03380;46.3092023874;2.49444625529
REUGNY;03190;46.458404964;2.61328894387
ROCLES;03240;46.4445146062;3.03677199137
RONGERES;03150;46.2976179231;3.4520098944
RONNET;03420;46.2015478227;2.70087446856
SALIGNY SUR ROUDON;03470;46.4629712549;3.75125723141
SANSSAT;03150;46.2504085675;3.46770686659
SAULCET;03500;46.3294310458;3.26694921793
SAULZET;03800;46.1377242918;3.22134877309
SAUVAGNY;03430;46.4345448666;2.79955608965
SAZERET;03390;46.3468702581;2.96976112683
SERBANNES;03700;46.098919682;3.35245745606
SERVILLY;03120;46.2802589797;3.58979684003
SEUILLET;03260;46.2045684264;3.46787844535
SORBIER;03220;46.3613185647;3.65747930664
SOUVIGNY;03210;46.5243440423;3.18992960249
ST ANGEL;03170;46.3558498078;2.68461176543
ST AUBIN LE MONIAL;03160;46.535765709;3.00144398409
ST BONNET DE FOUR;03390;46.314979417;2.90455342628
ST BONNET DE ROCHEFORT;03800;46.1505309834;3.14079379444
ST BONNET TRONCAIS;03360;46.6697641721;2.69613341169
ST CAPRAIS;03190;46.5449333532;2.73980095211
ST CHRISTOPHE;03120;46.1663162062;3.57800809692
ST CLEMENT;03250;46.0577534847;3.7219179861
ST DESIRE;03370;46.5074397829;2.44986211954
ST DIDIER EN DONJON;03130;46.3830807017;3.86098077845
ST DIDIER LA FORET;03110;46.2294445001;3.33625437059
ST ELOY D ALLIER;03370;46.4967909945;2.36296544008
ST ENNEMOND;03400;46.6808991637;3.40446807688
ST ETIENNE DE VICQ;03300;46.1731804107;3.53616252147
ST FARGEOL;03420;46.1343424286;2.63071732014
ST FELIX;03260;46.229193409;3.47524603973
ST GENEST;03310;46.2634149323;2.60320533651
ST GERAND DE VAUX;03340;46.3838249809;3.40743256191
ST GERAND LE PUY;03150;46.2637640044;3.51175451596
ST GERMAIN DE SALLES;03140;46.1871001813;3.22053975584
ST GERMAIN DES FOSSES;03260;46.1959477042;3.42997700831
ST HILAIRE;03440;46.4866887035;3.01543389624
ST LEGER SUR VOUZANCE;03130;46.4092021906;3.93725507717
ST LEON;03220;46.410638894;3.68775721106
ST LEOPARDIN D AUGY;03160;46.6979502806;3.10551355591
ST LOUP;03150;46.3549641882;3.37601860081
ST MARCEL EN MARCILLAT;03420;46.1532804539;2.58075381141
ST MARCEL EN MURAT;03390;46.3216708939;3.00484402977
ST MARTIN DES LAIS;03230;46.6742609191;3.65661845694
ST MARTINIEN;03380;46.3329189292;2.44287081295
ST MENOUX;03210;46.5823923172;3.14494082801
ST NICOLAS DES BIEFS;03250;46.0632245634;3.79460612214
ST PALAIS;03370;46.4403223251;2.30568571701
ST PLAISIR;03160;46.6243818392;2.95587034653
ST PONT;03110;46.1588138012;3.29855532517
ST POURCAIN SUR BESBRE;03290;46.4817772858;3.64933142149
ST POURCAIN SUR SIOULE;03500;46.3045094327;3.30537827054
ST PRIEST D ANDELOT;03800;46.0765718864;3.15433929793
ST PRIEST EN MURAT;03390;46.3556892534;2.90261837567
ST PRIX;03120;46.2252273378;3.64894031518
ST REMY EN ROLLAT;03110;46.1924635321;3.38335990994
ST SAUVIER;03370;46.396594391;2.33154584912
ST SORNIN;03240;46.4116980303;3.00356131793
ST VICTOR;03410;46.3882767935;2.60941319336
ST VOIR;03220;46.410067;3.5060612523
ST YORRE;03270;46.0642575713;3.46749665689
STE THERENCE;03420;46.2433906142;2.57271161868
SUSSAT;03450;46.1523532024;3.05584411459
TARGET;03140;46.2848407144;3.04794632227
TAXAT SENAT;03140;46.207728501;3.14578508085
TEILLET ARGENTY;03410;46.262769167;2.51658003922
TERJAT;03420;46.2144621437;2.61879197582
THENEUILLE;03350;46.587490556;2.87994545903
THIEL SUR ACOLIN;03230;46.5311020411;3.57823760672
THIONNE;03220;46.4118104465;3.57326147664
TORTEZAIS;03430;46.4456252579;2.87340721419
TOULON SUR ALLIER;03400;46.51061605;3.37706265767
TREBAN;03240;46.3993644498;3.1654172286
TREIGNAT;03380;46.3483905337;2.3521991874
TRETEAU;03220;46.3677104422;3.51996970707
TREVOL;03460;46.6370512909;3.31589139326
TREZELLES;03220;46.3195324708;3.59671419361
TRONGET;03240;46.418633391;3.08862365583
URCAY;03360;46.6340748365;2.61371570998
USSEL D ALLIER;03140;46.2103626484;3.18945634007
VALIGNAT;03330;46.1744050814;3.07839354321
VALIGNY;03360;46.7156221865;2.82039123195
VALLON EN SULLY;03190;46.5401383727;2.61674884517
VARENNES SUR ALLIER;03150;46.3170256578;3.40012828582
VARENNES SUR TECHE;03220;46.3177738358;3.6374417286
VAUMAS;03220;46.4484082735;3.6241176484
VAUX;03190;46.4214002132;2.57435492547
VEAUCE;03450;46.1700928934;3.05432607962
VENAS;03190;46.4727802173;2.76726504
VENDAT;03110;46.1618116569;3.34727094186
VERNEIX;03190;46.4080547115;2.6746212521
VERNEUIL EN BOURBONNAIS;03500;46.3540600283;3.25057881171
VERNUSSE;03390;46.2602732838;2.97167741847
VICHY;03200;46.1300051383;3.42442081174
VICQ;03450;46.1471274068;3.09596954152
VIEURE;03430;46.5001110432;2.88222237454
VILLEBRET;03310;46.277798684;2.63276519171
VILLEFRANCHE D ALLIER;03430;46.3963110357;2.84126895926
VILLENEUVE SUR ALLIER;03460;46.6741150218;3.25033675035
VIPLAIX;03370;46.461810965;2.36975422763
VOUSSAC;03140;46.3256833709;3.07336455653
YGRANDE;03160;46.5497137895;2.94199693043
YZEURE;03400;46.5636456232;3.37978160133
