AILLEVILLE;10200;48.2549995704;4.69449329268
AIX VILLEMAUR PALIS;10160;48.1975745771;3.73632794113
AIX VILLEMAUR PALIS;10190;48.1975745771;3.73632794113
ALLIBAUDIERES;10700;48.5863997964;4.12292771236
AMANCE;10140;48.2918540736;4.4870489216
ARCIS SUR AUBE;10700;48.5278271069;4.14197110248
ARCONVILLE;10200;48.156151635;4.72890746398
ARGANCON;10140;48.2503053567;4.59608826027
ARRELLES;10340;48.0462178704;4.27438158257
ARREMBECOURT;10330;48.5432958598;4.60648952219
ARRENTIERES;10200;48.2679922026;4.73910370169
ARSONVAL;10200;48.2796312677;4.65067065173
ASSENAY;10320;48.178622926;4.06510904999
ASSENCIERES;10220;48.3556065426;4.20154600861
AUBETERRE;10150;48.4223977311;4.10677615502
AULNAY;10240;48.4783453651;4.41533916578
AUXON;10130;48.0923181622;3.92346188322
AVANT LES MARCILLY;10400;48.432335175;3.56013369363
AVANT LES RAMERUPT;10240;48.4485130831;4.25845008745
AVIREY LINGEY;10340;48.028003129;4.29702645691
AVON LA PEZE;10290;48.3874423014;3.65147515296
AVREUIL;10130;48.0531394763;3.99802844236
BAGNEUX LA FOSSE;10340;47.9987642556;4.291107685
BAILLY LE FRANC;10330;48.5224912363;4.65913360168
BALIGNICOURT;10330;48.5295826019;4.45448981807
BALNOT LA GRANGE;10210;47.9884933352;4.19819242962
BALNOT SUR LAIGNES;10110;48.0369726727;4.35269608813
BAR SUR AUBE;10200;48.2339751025;4.71595700167
BAR SUR SEINE;10110;48.1127221863;4.37880982139
BARBEREY ST SULPICE;10600;48.3271986159;4.01643187202
BARBUISE;10400;48.5509217232;3.562035391
BAROVILLE;10200;48.1827443847;4.74092531324
BAYEL;10310;48.1924942272;4.79087455896
BERCENAY EN OTHE;10190;48.1931400495;3.89760036901
BERCENAY LE HAYER;10290;48.3318095412;3.58999948378
BERGERES;10200;48.1844237719;4.66943083986
BERNON;10130;47.9870798337;3.99246812197
BERTIGNOLLES;10110;48.1367453807;4.51279936147
BERULLE;10160;48.1707680299;3.6716310036
BESSY;10170;48.5413728268;4.02489066641
BETIGNICOURT;10500;48.4499267207;4.45503670756
BEUREY;10140;48.1758848753;4.47296130877
BLAINCOURT SUR AUBE;10500;48.3814393214;4.45229884656
BLIGNICOURT;10500;48.453428637;4.54117489655
BLIGNY;10200;48.1737009624;4.6045187109
BOSSANCOURT;10140;48.2832853612;4.61146739237
BOUILLY;10320;48.1864006342;3.99123563409
BOULAGES;10380;48.5873035501;3.92269900337
BOURANTON;10270;48.3149302747;4.1804938417
BOURDENAY;10290;48.36105163;3.59076650047
BOURGUIGNONS;10110;48.1412628808;4.3624282849
BOUY LUXEMBOURG;10220;48.3750872651;4.24288832976
BOUY SUR ORVIN;10400;48.4230447097;3.49742400527
BRAGELOGNE BEAUVOIR;10340;47.9698706523;4.26657498666
BRAUX;10500;48.4830951533;4.45819017109
BREVIANDES;10450;48.2562259501;4.10756293028
BREVONNES;10220;48.3493701075;4.40891289591
BRIEL SUR BARSE;10140;48.2131293074;4.35408912876
BRIENNE LA VIEILLE;10500;48.3730744162;4.54688493664
BRIENNE LE CHATEAU;10500;48.3974195288;4.53928532253
BRILLECOURT;10240;48.4771455797;4.37072298984
BUCEY EN OTHE;10190;48.2547509425;3.86739826398
BUCHERES;10800;48.2364830009;4.11414103262
BUXEUIL;10110;48.0540843697;4.40552369519
BUXIERES SUR ARCE;10110;48.1371746662;4.45605728723
CELLES SUR OURCE;10110;48.0738193958;4.42247353986
CHACENAY;10110;48.1073040053;4.53224056056
CHALETTE SUR VOIRE;10500;48.4518666815;4.42460080275
CHAMOY;10130;48.1141180012;3.96559597097
CHAMP SUR BARSE;10140;48.2389704336;4.41368768098
CHAMPFLEURY;10700;48.6142848196;4.0310704592
CHAMPIGNOL LEZ MONDEVILLE;10200;48.1252290684;4.67939293455
CHAMPIGNY SUR AUBE;10700;48.5677006703;4.07229528495
CHANNES;10340;47.9409115952;4.26640819878
CHAOURCE;10210;48.0548103736;4.14007416764
CHAPELLE VALLON;10700;48.4345746566;4.04213440275
CHAPPES;10260;48.1659482698;4.25688351486
CHARMONT SOUS BARBUISE;10150;48.4150600401;4.18047013925
CHARMOY;10290;48.3932867782;3.58043109373
CHARNY LE BACHOT;10380;48.5389297252;3.95231242172
CHASEREY;10210;47.9530607748;4.07447909576
CHATRES;10510;48.4931286007;3.83670871212
CHAUCHIGNY;10170;48.4261431924;3.98046866414
CHAUDREY;10240;48.4851020119;4.24517454348
CHAUFFOUR LES BAILLY;10110;48.1856806779;4.30967778622
CHAUMESNIL;10500;48.3578609264;4.61254890669
CHAVANGES;10330;48.5158465508;4.56655874954
CHENNEGY;10190;48.2170539239;3.84917512614
CHERVEY;10110;48.1347612309;4.49011321758
CHESLEY;10210;47.9769865279;4.11159585943
CHESSY LES PRES;10130;48.0137819738;3.93361482434
CLEREY;10390;48.208429876;4.1939087968
COCLOIS;10240;48.4708420035;4.33090572683
COLOMBE LA FOSSE;10200;48.2710119286;4.79010684615
COLOMBE LE SEC;10200;48.2556375156;4.80343883572
CORMOST;10800;48.1565309093;4.13264501348
COURCELLES SUR VOIRE;10500;48.4822201574;4.52921510366
COURCEROY;10400;48.4683742502;3.40826279907
COURSAN EN OTHE;10130;48.0778186819;3.82587613771
COURTAOULT;10130;48.0248110791;3.87198564953
COURTENOT;10260;48.1546612208;4.31372014435
COURTERANGES;10270;48.2683513867;4.22551791779
COURTERON;10250;48.0158955868;4.46256663692
COUSSEGREY;10210;47.95007971;4.03054692613
COUVIGNON;10200;48.204390818;4.66976546789
CRANCEY;10100;48.5188432879;3.63661201802
CRENEY PRES TROYES;10150;48.342847974;4.13898615195
CRESANTIGNES;10320;48.1427730557;4.02038435351
CRESPY LE NEUF;10500;48.3984963901;4.60980302355
CUNFIN;10360;48.0441976568;4.66975092005
CUSSANGY;10210;48.0230498915;4.09099167975
DAMPIERRE;10240;48.5651902607;4.36459312482
DAVREY;10130;48.0459988862;3.96029506309
DIENVILLE;10500;48.3297297619;4.5139323628
DIERREY ST JULIEN;10190;48.3050645625;3.83470708192
DIERREY ST PIERRE;10190;48.3325291626;3.83136359134
DOLANCOURT;10200;48.2661527498;4.60812858632
DOMMARTIN LE COQ;10240;48.4976185098;4.35585501464
DONNEMENT;10330;48.519771783;4.42815499728
DOSCHES;10220;48.3146008777;4.26804909725
DOSNON;10700;48.6149582778;4.24653182563
DROUPT ST BASLE;10170;48.4804439943;3.95701676
DROUPT STE MARIE;10170;48.5020825173;3.93946313114
EAUX PUISEAUX;10130;48.1167185548;3.88681885834
ECHEMINES;10350;48.3904941746;3.83580680573
ECLANCE;10200;48.3074667085;4.64323131646
EGUILLY SOUS BOIS;10110;48.1388297838;4.53815136871
ENGENTE;10200;48.2800809608;4.76374569172
EPAGNE;10500;48.3975318023;4.4698095219
EPOTHEMONT;10500;48.4152756334;4.66162028772
ERVY LE CHATEL;10130;48.0557945163;3.90532960286
ESSOYES;10360;48.0494900211;4.53941791707
ESTISSAC;10190;48.2557294277;3.81076673969
ETOURVY;10210;47.9506558304;4.12736391483
ETRELLES SUR AUBE;10170;48.5592832077;3.8771042148
FAUX VILLECERF;10290;48.3298226873;3.7399683031
FAY LES MARCILLY;10290;48.401359163;3.60590310441
FAYS LA CHAPELLE;10320;48.1311314696;4.0199211207
FERREUX QUINCEY;10400;48.4624429856;3.60107070347
FEUGES;10150;48.396564153;4.1086742347
FONTAINE;10200;48.2092891642;4.71805068623
FONTAINE LES GRES;10280;48.4128351962;3.88910514408
FONTAINE MACON;10400;48.4575603934;3.5070361262
FONTENAY DE BOSSERY;10400;48.4502901876;3.4644594068
FONTETTE;10360;48.0762843513;4.61637603965
FONTVANNES;10190;48.2823364218;3.87111996216
FOUCHERES;10260;48.1485731236;4.27075945691
FRALIGNES;10110;48.1641131783;4.37961204554
FRAVAUX;10200;48.2361442581;4.64187603164
FRESNAY;10200;48.3091765405;4.75726662976
FRESNOY LE CHATEAU;10270;48.2201181209;4.23354437753
FULIGNY;10200;48.3403541519;4.69850669182
GELANNES;10100;48.4754200511;3.6678407267
GERAUDOT;10220;48.3065900914;4.32289147943
GRANDVILLE;10700;48.5941600232;4.23537333825
GUMERY;10400;48.4396051909;3.42197876151
GYE SUR SEINE;10250;48.0123873198;4.4395162779
HAMPIGNY;10500;48.4605262856;4.60136674938
HERBISSE;10700;48.6151829352;4.12161191885
ISLE AUBIGNY;10240;48.5438287791;4.28206755992
ISLE AUMONT;10800;48.2054661706;4.12228896976
JASSEINES;10330;48.5090150718;4.39400392389
JAUCOURT;10200;48.2539202754;4.64112952114
JAVERNANT;10320;48.1590647301;3.99847725785
JESSAINS;10140;48.2848174581;4.56960734893
JEUGNY;10320;48.1156606446;4.05456641907
JONCREUIL;10330;48.5270359202;4.62391326662
JULLY SUR SARCE;10260;48.1093784032;4.27896296747
JUVANCOURT;10310;48.1165186849;4.81270579284
JUVANZE;10140;48.3237109111;4.58905857262
JUZANVIGNY;10500;48.4164316249;4.60987981766
LA CHAISE;10500;48.358428601;4.67140610567
LA CHAPELLE ST LUC;10600;48.3161316832;4.03517553523
LA FOSSE CORDUAN;10100;48.4404732902;3.6537864039
LA LOGE AUX CHEVRES;10140;48.2694215855;4.40750585645
LA LOGE POMBLIN;10210;48.0675064407;4.04451121185
LA LOUPTIERE THENARD;10400;48.3848337142;3.43747423179
LA MOTTE TILLY;10400;48.4758552545;3.44037577469
LA RIVIERE DE CORPS;10440;48.2801548843;4.0140574686
LA ROTHIERE;10500;48.3381400722;4.58555287029
LA SAULSOTTE;10400;48.5502087528;3.50552882992
LA VENDUE MIGNOT;10800;48.1456208933;4.10314764777
LA VILLE AUX BOIS;10500;48.4038925077;4.68731356148
LA VILLENEUVE AU CHATELOT;10400;48.5495270783;3.60717347149
LA VILLENEUVE AU CHENE;10140;48.2487579972;4.39081684128
LAGESSE;10210;48.01607316;4.13301378601
LAINES AUX BOIS;10120;48.2286422657;3.97898834535
LANDREVILLE;10110;48.0711739648;4.46588961717
LANTAGES;10210;48.0769887467;4.20669407653
LASSICOURT;10500;48.4357415556;4.50042412067
LAUBRESSEL;10270;48.3004850515;4.22586095829
LAVAU;10150;48.3334867186;4.09283972542
LE CHENE;10700;48.5628565037;4.17589544005
LE MERIOT;10400;48.5105625489;3.44198941975
LE PAVILLON STE JULIE;10350;48.3665011556;3.9015348936
LENTILLES;10330;48.4879545588;4.62902346103
LES BORDES AUMONT;10800;48.1880650067;4.11899705959
LES CROUTES;10130;47.9934515972;3.86370610292
LES GRANDES CHAPELLES;10170;48.4684641557;4.02789249999
LES GRANGES;10210;48.0567039113;4.06179024934
LES LOGES MARGUERON;10210;48.0989054968;4.11142843878
LES NOES PRES TROYES;10420;48.3033387671;4.04203482801
LES RICEYS;10340;47.9874878792;4.36950096332
LESMONT;10500;48.4302411801;4.42438844514
LEVIGNY;10200;48.2978727553;4.70743033255
LHUITRE;10700;48.5811831935;4.27395119742
LIGNIERES;10130;47.9569372916;3.96407269438
LIGNOL LE CHATEAU;10200;48.2134404984;4.81180296521
LIREY;10320;48.1605014296;4.03885762812
LOCHES SUR OURCE;10110;48.0701287498;4.50451246943
LONGCHAMP SUR AUJON;10310;48.1525191193;4.81837981298
LONGEVILLE SUR MOGNE;10320;48.1468654256;4.06439073239
LONGPRE LE SEC;10140;48.1876628751;4.52819150084
LONGSOLS;10240;48.4258761682;4.28517563382
LONGUEVILLE SUR AUBE;10170;48.5509934474;3.91289272795
LUSIGNY SUR BARSE;10270;48.2629805812;4.27634825277
LUYERES;10150;48.3801080696;4.19418132479
MACEY;10300;48.3057699165;3.91365964088
MACHY;10320;48.1456167821;4.03573129763
MAGNANT;10110;48.1677499424;4.4209760731
MAGNICOURT;10240;48.4585859701;4.38223049773
MAGNY FOUCHARD;10140;48.2350365053;4.54539283369
MAILLY LE CAMP;10230;48.6742219512;4.18559230801
MAISON DES CHAMPS;10140;48.2437981025;4.57090591016
MAISONS LES CHAOURCE;10210;48.0086838705;4.16340357951
MAISONS LES SOULAINES;10200;48.2950290982;4.78298618577
MAIZIERES LA GRANDE PAROISSE;10510;48.5043607411;3.78940830122
MAIZIERES LES BRIENNE;10500;48.4303148659;4.6007889307
MARAYE EN OTHE;10160;48.1523036289;3.86532738324
MARCILLY LE HAYER;10290;48.3312815098;3.64419365693
MARIGNY LE CHATEL;10350;48.4016409293;3.72139203898
MARNAY SUR SEINE;10400;48.5151408738;3.55397183293
MAROLLES LES BAILLY;10110;48.1841528588;4.34621650756
MAROLLES SOUS LIGNIERES;10130;47.9606826185;3.91959636064
MATHAUX;10500;48.3555193873;4.46117528248
MAUPAS;10320;48.137803272;4.07882418849
MERGEY;10600;48.395565383;4.03305791455
MERREY SUR ARCE;10110;48.0958413373;4.40492577623
MERY SUR SEINE;10170;48.5090415373;3.89883069261
MESGRIGNY;10170;48.479960001;3.86431513011
MESNIL LA COMTESSE;10700;48.4981106187;4.19774579416
MESNIL LETTRE;10240;48.4610108497;4.25893438516
MESNIL SELLIERES;10220;48.3358644177;4.20667057813
MESNIL ST LOUP;10190;48.3083238587;3.77156922851
MESNIL ST PERE;10140;48.2511690464;4.34558452983
MESSON;10190;48.2636235898;3.91533250888
METZ ROBERT;10210;48.0694714886;4.09978778841
MEURVILLE;10200;48.2042902297;4.60493225781
MOLINS SUR AUBE;10500;48.4332955789;4.38844568734
MONTAULIN;10270;48.2479487774;4.1973065201
MONTCEAUX LES VAUDES;10260;48.148825142;4.1578812358
MONTFEY;10130;48.0665324378;3.87246147303
MONTGUEUX;10300;48.2976863348;3.95463268701
MONTIER EN L ISLE;10200;48.2695334218;4.68288952065
MONTIERAMEY;10270;48.2350578158;4.31390448767
MONTIGNY LES MONTS;10130;48.0917650744;3.9649860818
MONTMARTIN LE HAUT;10140;48.2094879831;4.54987689229
MONTMORENCY BEAUFORT;10330;48.4860560595;4.55616218734
MONTPOTHIER;10400;48.5762344915;3.51599225081
MONTREUIL SUR BARSE;10270;48.2169516287;4.28658363089
MONTSUZAIN;10150;48.4457957709;4.14056971998
MOREMBERT;10240;48.5033982569;4.33076650572
MORVILLIERS;10500;48.3786765454;4.63547205459
MOUSSEY;10800;48.2189146741;4.09309786071
MUSSY SUR SEINE;10250;47.9845203158;4.50679375168
NEUVILLE SUR SEINE;10250;48.0346867571;4.40826042704
NEUVILLE SUR VANNE;10190;48.2525559272;3.77471634627
NOE LES MALLETS;10360;48.0984070868;4.56182185285
NOGENT EN OTHE;10160;48.1307541602;3.79686914903
NOGENT SUR AUBE;10240;48.4846626534;4.29910667758
NOGENT SUR SEINE;10400;48.4962576328;3.49983013092
NOZAY;10700;48.5002763071;4.08266438587
ONJON;10220;48.3987860925;4.27579822531
ORIGNY LE SEC;10510;48.4630378717;3.77926165141
ORMES;10700;48.555534468;4.1130717526
ORTILLON;10700;48.4923353048;4.23005258544
ORVILLIERS ST JULIEN;10170;48.4387695312;3.82249131327
OSSEY LES TROIS MAISONS;10100;48.4386027369;3.74395562708
PAISY COSDON;10160;48.2147753548;3.69896514252
PARGUES;10210;48.0183119376;4.20486733483
PARS LES CHAVANGES;10330;48.5173117634;4.50334630462
PARS LES ROMILLY;10100;48.4812645725;3.72853000882
PAYNS;10600;48.3754453406;3.95779312203
PEL ET DER;10500;48.3952042908;4.41036179152
PERIGNY LA ROSE;10400;48.55364742;3.62433153025
PERTHES LES BRIENNE;10500;48.4340121047;4.54181585962
PETIT MESNIL;10500;48.3405305907;4.62293165674
PINEY;10220;48.3314574257;4.35909414684
PLAINES ST LANGE;10250;47.9974095194;4.47394656864
PLANCY L ABBAYE;10380;48.5851575322;3.98528853809
PLANTY;10160;48.2679798119;3.65050759721
PLESSIS BARBUISE;10400;48.5730831109;3.58602602539
POIVRES;10700;48.6829849086;4.27703317765
POLIGNY;10110;48.1751501958;4.34626027201
POLISOT;10110;48.0731308574;4.35467201881
POLISY;10110;48.0575849334;4.36193308689
PONT STE MARIE;10150;48.3193392667;4.09949303348
PONT SUR SEINE;10400;48.509386823;3.59718207099
POUAN LES VALLEES;10700;48.5339280475;4.06177485223
POUGY;10240;48.4368741428;4.3487522917
POUY SUR VANNES;10290;48.2978458721;3.59984902807
PRASLIN;10210;48.0459143506;4.20718637657
PRECY NOTRE DAME;10500;48.4023333581;4.43620676129
PRECY ST MARTIN;10500;48.4166599572;4.45638796255
PREMIERFAIT;10170;48.5029794134;4.02255796125
PROVERVILLE;10200;48.2326139251;4.67236770859
PRUGNY;10190;48.2473913847;3.94199151664
PRUNAY BELLEVILLE;10350;48.3664762511;3.7828232388
PRUSY;10210;47.9739129756;4.05129486893
PUITS ET NUISEMENT;10140;48.215021538;4.51130773229
RACINES;10130;48.0483905715;3.84645827817
RADONVILLIERS;10500;48.3337407635;4.47438100931
RAMERUPT;10240;48.5223260562;4.30433768781
RANCES;10500;48.4620840236;4.55442425435
RHEGES;10170;48.5320121391;3.99460836996
RIGNY LA NONNEUSE;10290;48.4140043943;3.64891002916
RIGNY LE FERRON;10160;48.2023856771;3.62729053332
RILLY STE SYRE;10280;48.4502459762;3.96773143034
ROMILLY SUR SEINE;10100;48.5185939749;3.72154151549
RONCENAY;10320;48.1967315175;4.04486518985
ROSIERES PRES TROYES;10430;48.2626897407;4.06345677209
ROSNAY L HOPITAL;10500;48.4577724478;4.50578895388
ROUILLY SACEY;10220;48.3472856402;4.27393742571
ROUILLY ST LOUP;10800;48.2647207301;4.1494550348
ROUVRES LES VIGNES;10200;48.2383642107;4.82708902094
RUMILLY LES VAUDES;10260;48.1254003173;4.19515234884
RUVIGNY;10410;48.272139831;4.18869827764
SALON;10700;48.6427112307;4.01781744354
SAULCY;10200;48.2775769597;4.83542439731
SAVIERES;10600;48.4057771573;3.935288338
SEMOINE;10700;48.6735130864;4.09378069924
SOLIGNY LES ETANGS;10400;48.4021938714;3.51624678712
SOMMEVAL;10320;48.159126703;3.95489771109
SOULAINES DHUYS;10200;48.3784420023;4.71797387888
SOULIGNY;10320;48.2082516391;3.99414213688
SPOY;10200;48.2276371502;4.61406016756
ST ANDRE LES VERGERS;10120;48.2782659904;4.04840305057
ST AUBIN;10400;48.4828875357;3.55326963748
ST BENOIST SUR VANNE;10160;48.2352398291;3.66828750117
ST BENOIT SUR SEINE;10180;48.3800523103;4.05187885884
ST CHRISTOPHE DODINICOURT;10500;48.4331543584;4.47362272662
ST ETIENNE SOUS BARBUISE;10700;48.4925522857;4.11536192405
ST FLAVY;10350;48.4064559956;3.77621221951
ST GERMAIN;10120;48.2535079309;4.01065245328
ST HILAIRE SOUS ROMILLY;10100;48.4978643652;3.65717692243
ST JEAN DE BONNEVAL;10320;48.1719801314;4.05020732222
ST JULIEN LES VILLAS;10800;48.2745172927;4.10297688057
ST LEGER PRES TROYES;10800;48.2395381009;4.07306377461
ST LEGER SOUS BRIENNE;10500;48.4113235789;4.50613488827
ST LEGER SOUS MARGERIE;10330;48.530849094;4.48665807166
ST LOUP DE BUFFIGNY;10100;48.4446677907;3.63034199913
ST LUPIEN;10350;48.3644950452;3.69973385805
ST LYE;10180;48.3442113534;3.9810222993
ST MARDS EN OTHE;10160;48.1634046099;3.78937817149
ST MARTIN DE BOSSENAY;10100;48.4444963623;3.68962305417
ST MESMIN;10280;48.4369664082;3.89872863616
ST NABORD SUR AUBE;10700;48.5128918959;4.20166023679
ST NICOLAS LA CHAPELLE;10400;48.5229300856;3.47856484513
ST OULPH;10170;48.5266441925;3.87406836475
ST PARRES AUX TERTRES;10410;48.2913084954;4.13302448391
ST PARRES LES VAUDES;10260;48.1734919803;4.21620941399
ST PHAL;10130;48.1142637321;4.00171688367
ST POUANGE;10120;48.224064228;4.04074318461
ST REMY SOUS BARBUISE;10700;48.4777025802;4.13036926093
ST THIBAULT;10800;48.2010515888;4.14696728723
ST USAGE;10360;48.0990942326;4.63420644531
STE MAURE;10150;48.3566905258;4.07198737935
STE SAVINE;10300;48.2963408998;4.02333022061
THENNELIERES;10410;48.2893448693;4.18526592573
THIEFFRAIN;10140;48.2003070687;4.43842199513
THIL;10200;48.3409418137;4.78858247296
THORS;10200;48.3080677394;4.80493827415
TORCY LE GRAND;10700;48.5234326195;4.16799145735
TORCY LE PETIT;10700;48.5222887571;4.18694712376
TORVILLIERS;10440;48.2754934679;3.97217127639
TRAINEL;10400;48.4140944853;3.45656011239
TRANCAULT;10290;48.3711938779;3.53292444285
TRANNES;10140;48.3069705851;4.5990873423
TROUANS;10700;48.6388005085;4.24987699201
TROYES;10000;48.2967099637;4.07827967525
TURGY;10210;48.0300363367;4.05312999836
UNIENVILLE;10140;48.3173788807;4.54850083928
URVILLE;10200;48.1668057798;4.66928684991
VAILLY;10150;48.3723387031;4.12583904396
VAL D AUZON;10220;48.4004769736;4.35930739825
VALLANT ST GEORGES;10170;48.4606930046;3.88605241357
VALLENTIGNY;10500;48.442454066;4.61489587199
VALLIERES;10210;47.9992814172;4.06184063227
VANLAY;10210;48.0188179751;4.01889408699
VAUCHASSIS;10190;48.2092064967;3.92631536187
VAUCHONVILLIERS;10140;48.266444897;4.53268851278
VAUCOGNE;10240;48.5333241035;4.34483013658
VAUDES;10260;48.1755264671;4.1822235389
VAUPOISSON;10700;48.5007015249;4.216312839
VENDEUVRE SUR BARSE;10140;48.2461425886;4.46090923858
VERNONVILLIERS;10200;48.3146477146;4.67938075644
VERPILLIERES SUR OURCE;10360;48.0406701366;4.5860718335
VERRICOURT;10240;48.4529660787;4.33421102008
VERRIERES;10390;48.2345711401;4.15425792921
VIAPRES LE PETIT;10380;48.5822319187;4.05387093659
VILLACERF;10600;48.407677761;4.00228117316
VILLADIN;10290;48.316863996;3.69033893209
VILLE SOUS LA FERTE;10310;48.1358669154;4.77205760299
VILLE SUR ARCE;10110;48.1090387806;4.4449720869
VILLE SUR TERRE;10200;48.3359047589;4.7348362857
VILLECHETIF;10410;48.3182253913;4.14937893854
VILLELOUP;10350;48.3546192059;3.86858896275
VILLEMEREUIL;10800;48.2017413737;4.08326296474
VILLEMOIRON EN OTHE;10160;48.1996782401;3.79189787326
VILLEMORIEN;10110;48.0798060719;4.2947230418
VILLEMOYENNE;10260;48.1878192236;4.24708790908
VILLENAUXE LA GRANDE;10370;48.5945779935;3.5477753332
VILLENEUVE AU CHEMIN;10130;48.089137016;3.83985245464
VILLERET;10330;48.481503616;4.58651626543
VILLERY;10320;48.1734982781;4.01734084562
VILLETTE SUR AUBE;10700;48.5289053559;4.10868142527
VILLIERS HERBISSE;10700;48.6429563975;4.122661962
VILLIERS LE BOIS;10210;47.9552225736;4.19042875753
VILLIERS SOUS PRASLIN;10210;48.0606648453;4.25215912758
VILLY EN TRODES;10140;48.1969362165;4.38937663411
VILLY LE BOIS;10800;48.1675453288;4.08980540279
VILLY LE MARECHAL;10800;48.1889486496;4.07411625371
VINETS;10700;48.5452188766;4.22519162033
VIREY SOUS BAR;10260;48.1344044788;4.30578605656
VITRY LE CROISE;10110;48.1434911643;4.57858150099
VIVIERS SUR ARTAUT;10110;48.097855701;4.49784658697
VOIGNY;10200;48.2360883713;4.76532474234
VOSNON;10130;48.1085969671;3.83539152599
VOUE;10150;48.459643518;4.12408661799
VOUGREY;10210;48.0875972332;4.23598090063
VULAINES;10160;48.2404690972;3.62649011278
YEVRES LE PETIT;10500;48.4793934797;4.49202256762
