ABZAC;16500;46.0995520567;0.715822844014
AGRIS;16110;45.7764888287;0.328082067918
AIGRE;16140;45.8891702634;-0.000376399361894
ALLOUE;16490;46.0204552645;0.5258351895
AMBERAC;16140;45.8562404894;0.0591293874218
AMBERNAC;16490;45.9747688433;0.556409302245
AMBLEVILLE;16300;45.5581634832;-0.224518438236
ANAIS;16560;45.7689915038;0.206024179916
ANGEAC CHAMPAGNE;16130;45.6137559506;-0.289585740498
ANGEAC CHARENTE;16120;45.6230428074;-0.0817275722505
ANGEDUC;16300;45.4783133378;-0.0552960913383
ANGOULEME;16000;45.6472585146;0.14514490683
ANSAC SUR VIENNE;16500;45.9943029714;0.619730334325
ARS;16130;45.6370134609;-0.402334253854
ASNIERES SUR NOUERE;16290;45.7078415562;0.0487826997236
AUBETERRE SUR DRONNE;16390;45.2609347512;0.16792049879
AUNAC SUR CHARENTE;16460;45.9151202066;0.255788080504
AUSSAC VADALLE;16560;45.8215780288;0.215598559823
BAIGNES STE RADEGONDE;16360;45.374443862;-0.254082617191
BALZAC;16430;45.7127837956;0.134124616081
BARBEZIERES;16140;45.9119778347;-0.0882569539887
BARBEZIEUX ST HILAIRE;16300;45.4780382344;-0.157746079718
BARDENAC;16210;45.3005902681;-0.0148493213262
BARRET;16300;45.4891582999;-0.206308254385
BARRO;16700;46.0050083194;0.235825640846
BASSAC;16120;45.6649796502;-0.0991802061474
BAZAC;16210;45.2211222947;0.0368876406088
BEAULIEU SUR SONNETTE;16450;45.9272378764;0.372798156825
BECHERESSE;16250;45.5015198955;0.0786797939692
BELLEVIGNE;16120;45.5525236965;-0.103272182432
BELLON;16210;45.3129742539;0.116774132043
BENEST;16350;46.0386820793;0.452609537625
BERNAC;16700;46.0522061088;0.170991094252
BERNEUIL;16480;45.3908685702;-0.0668741248054
BESSAC;16250;45.4311590741;-0.0136973551346
BESSE;16140;45.9581333221;0.0818571588343
BIOUSSAC;16700;46.0307876172;0.270410745983
BIRAC;16120;45.5635790633;-0.0550695799339
BLANZAGUET ST CYBARD;16320;45.4732165365;0.313168592903
BOISBRETEAU;16480;45.3299592266;-0.159147291583
BOISNE LA TUDE;16320;45.4838960103;0.177074136817
BONNES;16390;45.2363248091;0.143594569626
BONNEUIL;16120;45.5758801915;-0.135149328713
BORS DE BAIGNES;16360;45.3263203716;-0.199610560993
BORS DE MONTMOREAU;16190;45.3401040524;0.147879846098
BOUEX;16410;45.6246508567;0.318204980739
BOURG CHARENTE;16200;45.6659937822;-0.222233070692
BOUTEVILLE;16120;45.6069622968;-0.127003754682
BOUTIERS ST TROJAN;16100;45.711028287;-0.296886698875
BRETTES;16240;45.9974723832;0.029182060624
BREVILLE;16370;45.7891537145;-0.274845145483
BRIE;16590;45.7345393339;0.266852612131
BRIE SOUS BARBEZIEUX;16300;45.4238677604;-0.0407675127777
BRIE SOUS CHALAIS;16210;45.3203360527;0.0123563993642
BRIGUEUIL;16420;45.9509773487;0.869163472197
BRILLAC;16500;46.067503903;0.776760494264
BROSSAC;16480;45.3238579692;-0.0465934055861
BUNZAC;16110;45.6993800816;0.344082378962
CELLEFROUIN;16260;45.8877573804;0.391851835711
CELLETTES;16230;45.8643336097;0.145594673488
CHABANAIS;16150;45.8638291864;0.711713773005
CHABRAC;16150;45.926486151;0.746752143002
CHADURIE;16250;45.4963678637;0.142555563027
CHALAIS;16210;45.2739548684;0.0385508867289
CHALLIGNAC;16300;45.4236400106;-0.0845558170102
CHAMPAGNE MOUTON;16350;45.993087674;0.412273153255
CHAMPAGNE VIGNY;16250;45.507125249;0.0414709267054
CHAMPMILLON;16290;45.6471775425;0.00523666300318
CHAMPNIERS;16430;45.7166708711;0.196450542402
CHANTILLAC;16360;45.3264411162;-0.255453791343
CHARME;16140;45.9500924838;0.120032287303
CHARRAS;16380;45.5444379086;0.428737132242
CHASSENEUIL SUR BONNIEURE;16260;45.8243471539;0.441043431658
CHASSENON;16150;45.8513916699;0.773197167344
CHASSIECQ;16350;45.9509527297;0.368543478454
CHASSORS;16200;45.7102602984;-0.206803437363
CHATEAUBERNARD;16100;45.6720237128;-0.316074717824
CHATEAUNEUF SUR CHARENTE;16120;45.5961486354;-0.0514205671468
CHATIGNAC;16480;45.3484001611;-0.00433406647489
CHAZELLES;16380;45.6453528845;0.364874391871
CHENON;16460;45.9440915736;0.222439257515
CHERVES CHATELARS;16310;45.8106961072;0.554054470604
CHERVES RICHEMONT;16370;45.7450738873;-0.337808012724
CHILLAC;16480;45.3611763101;-0.0902994967861
CHIRAC;16150;45.9131739872;0.685106701432
CLAIX;16440;45.54965487;0.050592133605
COGNAC;16100;45.6962326551;-0.33507941815
COMBIERS;16320;45.5110545763;0.408984921414
CONDAC;16700;46.028495802;0.227925503689
CONDEON;16360;45.4011643618;-0.134853631146
CONFOLENS;16500;46.0191386034;0.658522279035
COTEAUX DU BLANZACAIS;16250;45.4714654807;0.0236302142689
COULGENS;16560;45.8134827231;0.277167790315
COULONGES;16330;45.8376302744;0.0898755953494
COURBILLAC;16200;45.7730344217;-0.180841133968
COURCOME;16240;45.9857430952;0.133351057987
COURCOME;16700;45.9857430952;0.133351057987
COURGEAC;16190;45.3944594925;0.0818231361752
COURLAC;16210;45.3012384064;0.0880679365563
COUTURE;16460;45.9318430742;0.288257076109
CRITEUIL LA MAGDELEINE;16300;45.5364679101;-0.2103850238
CURAC;16210;45.2960921096;0.0212788949535
DEVIAT;16190;45.4087322108;0.0148313347537
DIGNAC;16410;45.5542534164;0.283491007595
DIRAC;16410;45.5986667875;0.241731538574
DOUZAT;16290;45.7009983146;-0.00261844248273
EBREON;16140;45.9419566214;0.0300094172426
ECHALLAT;16170;45.7224468632;-0.04347825715
ECURAS;16220;45.6822174766;0.569930576994
EDON;16320;45.4885657865;0.351381025393
EMPURE;16240;46.0245064509;0.0495912731396
EPENEDE;16490;46.069351116;0.537822207003
ESSE;16500;46.0262718319;0.720395594442
ETAGNAC;16150;45.8907561281;0.783276589997
ETRIAC;16250;45.527140208;-0.00959232022065
EXIDEUIL SUR VIENNE;16150;45.8801902004;0.663734809553
EYMOUTHIERS;16220;45.6469383568;0.549961973717
FEUILLADE;16380;45.5930624108;0.467173536421
FLEAC;16730;45.6757321488;0.0883493158258
FLEURAC;16200;45.7181471826;-0.0857758671202
FONTCLAIREAU;16230;45.8918936624;0.196980841137
FONTENILLE;16230;45.9129011037;0.174854978046
FOUQUEBRUNE;16410;45.5273705176;0.196901956839
FOUQUEURE;16140;45.8847149549;0.0756577865437
FOUSSIGNAC;16200;45.7127451252;-0.125082004293
GARAT;16410;45.6261876475;0.267214788148
GARDES LE PONTAROUX;16320;45.5102605309;0.309516332026
GENAC BIGNAC;16170;45.8009500924;0.021470943172
GENSAC LA PALLUE;16130;45.6572262883;-0.268790187481
GENTE;16130;45.636977239;-0.306975028365
GIMEUX;16130;45.6414379624;-0.36669079786
GOND PONTOUVRE;16160;45.6797580078;0.165506204221
GRASSAC;16380;45.5812707814;0.399196198105
GRAVES ST AMANT;16120;45.6383664934;-0.104970620109
GUIMPS;16300;45.465898134;-0.254673070491
GUIZENGEARD;16480;45.3106179642;-0.123211363753
GURAT;16320;45.4358693402;0.265230281525
HIERSAC;16290;45.6755505146;0.00754154202178
HIESSE;16490;46.0498472746;0.581727816732
HOULETTE;16200;45.7564757122;-0.210601025302
JARNAC;16200;45.6865355311;-0.164780604405
JAULDES;16560;45.7808261202;0.250693934038
JAVREZAC;16100;45.7029983448;-0.363647705405
JUIGNAC;16190;45.3679418137;0.158358681368
JUILLAC LE COQ;16130;45.5891696148;-0.256462985988
JUILLE;16230;45.9263168412;0.141585678419
JULIENNE;16200;45.6903888196;-0.228857639974
L ISLE D ESPAGNAC;16340;45.6638640977;0.199231746573
LA CHAPELLE;16140;45.8307508643;0.0517878633867
LA CHEVRERIE;16240;46.0444193002;0.136305747393
LA COURONNE;16400;45.6096373338;0.109121178707
LA FAYE;16700;46.0198359959;0.159355852391
LA FORET DE TESSE;16240;46.0765352941;0.0784986933953
LA MAGDELEINE;16240;46.0486518125;0.0781578029437
LA ROCHEFOUCAULD EN ANGOUMOIS;16110;45.7334327476;0.3937027955
LA ROCHETTE;16110;45.7979119983;0.310269933524
LA TACHE;16260;45.8701965185;0.362525662176
LACHAISE;16300;45.5169284894;-0.24205405202
LADIVILLE;16120;45.5127200885;-0.0639782676163
LAGARDE SUR LE NE;16300;45.5153360206;-0.205805463982
LAPRADE;16390;45.2795486363;0.186050460414
LE BOUCHAGE;16350;46.0493103798;0.376687406962
LE GRAND MADIEU;16450;45.9414000516;0.44751280825
LE LINDOIS;16310;45.7508746711;0.590773518888
LE TATRE;16360;45.3977502437;-0.200743802609
LE VIEUX CERIER;16350;45.9701910018;0.447706258418
LES ADJOTS;16700;46.0787550512;0.203143435799
LES ESSARDS;16210;45.237352605;0.111052044267
LES GOURS;16140;45.9598718891;-0.0720164666624
LES METAIRIES;16200;45.7072352152;-0.175701106278
LES PINS;16260;45.8124888516;0.36998318063
LESIGNAC DURAND;16310;45.8150582723;0.6446900761
LESSAC;16500;46.0698879321;0.6490709569
LESTERPS;16420;46.012245179;0.791766541587
LICHERES;16460;45.9042961914;0.215718804907
LIGNE;16140;45.9156691196;0.10397491034
LIGNIERES SONNEVILLE;16130;45.5660291672;-0.185136397799
LINARS;16730;45.6535202094;0.0737335176195
LONDIGNY;16700;46.0846035892;0.140380117543
LONGRE;16240;45.9956136861;-0.0236778823819
LONNES;16230;45.9391793197;0.181439974512
LOUZAC ST ANDRE;16100;45.7237365822;-0.39737034952
LUPSAULT;16140;45.9351371201;-0.0650569575239
LUSSAC;16450;45.8580701828;0.466519460774
LUXE;16230;45.8951621262;0.124490429132
MAGNAC LAVALETTE VILLARS;16320;45.5088381667;0.2552082811
MAGNAC SUR TOUVRE;16600;45.6559132577;0.236141821195
MAINE DE BOIXE;16230;45.8484283573;0.17815797308
MAINXE GONDEVILLE;16200;45.6684412124;-0.155937890008
MAINZAC;16380;45.5538600835;0.476645844368
MANOT;16500;45.9343000992;0.621390097085
MANSLE;16230;45.8790882664;0.173859970412
MARCILLAC LANVILLE;16140;45.8574304005;0.0183289081135
MAREUIL;16170;45.7724089753;-0.135920647839
MARILLAC LE FRANC;16110;45.7307516041;0.432572221643
MARSAC;16570;45.7432168829;0.075225440865
MARTHON;16380;45.6171874581;0.445486850648
MASSIGNAC;16310;45.77722919;0.656859261312
MAZEROLLES;16310;45.740251316;0.520413334007
MEDILLAC;16210;45.2160430243;0.0140572392305
MERIGNAC;16200;45.6959537144;-0.0708885459324
MERPINS;16100;45.6698268314;-0.371814331652
MESNAC;16370;45.7758612161;-0.342140667062
MONS;16140;45.874585555;-0.0332855724322
MONTBOYER;16620;45.3315158314;0.0690097423513
MONTBRON;16220;45.667656871;0.504316384558
MONTEMBOEUF;16310;45.7738787675;0.551136998408
MONTIGNAC CHARENTE;16330;45.7802147183;0.10266574824
MONTIGNAC LE COQ;16390;45.3419148325;0.214682193579
MONTJEAN;16240;46.0796805588;0.109828994536
MONTMERAC;16300;45.4462725205;-0.208192784801
MONTMOREAU;16190;45.4225777872;0.127349505692
MONTROLLET;16420;45.9911418674;0.899879118608
MORNAC;16600;45.6847658101;0.292715578408
MOSNAC;16120;45.615285295;-0.0132218881439
MOULIDARS;16290;45.6676169254;-0.0379131392099
MOULINS SUR TARDOIRE;16110;45.6749371405;0.413690557733
MOULINS SUR TARDOIRE;16220;45.6749371405;0.413690557733
MOUTHIERS SUR BOEME;16440;45.5576008503;0.122197442928
MOUTON;16460;45.8874435614;0.236451070535
MOUTONNEAU;16460;45.9131671826;0.22543914525
MOUZON;16310;45.7954811744;0.611080409863
NABINAUD;16390;45.2933421272;0.210125540377
NANCLARS;16230;45.8437586253;0.223555807961
NANTEUIL EN VALLEE;16700;46.0061029111;0.32369225522
NERCILLAC;16200;45.7234512916;-0.270638222071
NERSAC;16440;45.6253691605;0.0621903047823
NIEUIL;16270;45.882845738;0.524200213781
NONAC;16190;45.4216451203;0.0552810681358
ORADOUR;16140;45.9118627713;-0.0373971324151
ORADOUR FANAIS;16500;46.1149553879;0.782507477296
ORGEDEUIL;16220;45.698367411;0.486392578455
ORIOLLES;16480;45.3564714888;-0.1368388888
ORIVAL;16210;45.2829609263;0.0692144911966
PAIZAY NAUDOUIN EMBOURIE;16240;46.0339157698;0.00154860718916
PALLUAUD;16390;45.348051923;0.242588912427
PARZAC;16450;45.9244427035;0.420746139781
PASSIRAC;16480;45.3475668313;-0.0619236639057
PERIGNAC;16250;45.4667323949;0.0826496107901
PILLAC;16390;45.3189822009;0.18101331727
PLASSAC ROUFFIAC;16250;45.5245837373;0.0763918850702
PLEUVILLE;16490;46.0971776924;0.492356946293
POULLIGNAC;16190;45.3965100536;-0.010889797481
POURSAC;16700;45.9617677073;0.265403568791
PRANZAC;16110;45.67389958;0.346548387034
PRESSIGNAC;16150;45.8193617706;0.739906904422
PUYMOYEN;16400;45.6160185943;0.172580597742
PUYREAUX;16230;45.86360531;0.210617195274
RAIX;16240;46.0041231051;0.11629336996
RANVILLE BREUILLAUD;16140;45.9094260001;-0.123952304555
REIGNAC;16360;45.4250019229;-0.174457411531
REPARSAC;16200;45.7367542144;-0.249443713353
RIOUX MARTIN;16210;45.2431688439;-0.00417605640764
RIVIERES;16110;45.7608747272;0.359373568678
RONSENAC;16320;45.4565998165;0.238466664692
ROUFFIAC;16210;45.2653712748;0.0982630036478
ROUGNAC;16320;45.5371194351;0.354245072318
ROUILLAC;16170;45.781947293;-0.074390136916
ROULLET ST ESTEPHE;16440;45.5803788491;0.0313550273594
ROUSSINES;16310;45.7228708787;0.617688422221
ROUZEDE;16220;45.7200534944;0.562265132073
RUELLE SUR TOUVRE;16600;45.6836924747;0.231195852301
RUFFEC;16700;46.039455304;0.199192104707
SALLES D ANGLES;16130;45.6192884058;-0.344548280548
SALLES DE BARBEZIEUX;16300;45.4517011196;-0.121693762991
SALLES DE VILLEFAGNAN;16700;45.9599094427;0.17124025939
SALLES LAVALETTE;16190;45.3880236045;0.23183888353
SAULGOND;16420;45.9563701497;0.786714506522
SAUVAGNAC;16310;45.7495247956;0.647983960034
SAUVIGNAC;16480;45.2586469785;-0.0772578283204
SEGONZAC;16130;45.6180187853;-0.215554491203
SERS;16410;45.5853962792;0.318693870271
SIGOGNE;16200;45.7376347381;-0.165302283456
SIREUIL;16440;45.6203072664;0.0196009850937
SOUFFRIGNAC;16380;45.5866525328;0.498091026273
SOUVIGNE;16240;45.9708257553;0.0505294709471
SOYAUX;16800;45.6397669318;0.206625703571
ST ADJUTORY;16310;45.7687840494;0.478102533662
ST AMANT DE BOIXE;16330;45.8023519655;0.139724725099
ST AMANT DE NOUERE;16170;45.7363123323;-0.00546098740035
ST AULAIS LA CHAPELLE;16300;45.4479230686;-0.0520828628972
ST AVIT;16210;45.2438261772;0.0442847703212
ST BONNET;16300;45.4739641055;-0.0892788794153
ST BRICE;16100;45.6902103203;-0.264553424103
ST CHRISTOPHE;16420;46.0040190503;0.849752490764
ST CIERS SUR BONNIEURE;16230;45.8648580415;0.247717734132
ST CLAUD;16450;45.8982985604;0.471600426637
ST COUTANT;16350;45.9946101351;0.465813321452
ST CYBARDEAUX;16170;45.7726989644;-0.0255477893935
ST FELIX;16480;45.3707836082;0.0116218652853
ST FORT SUR LE NE;16130;45.5831748847;-0.303510624665
ST FRAIGNE;16140;45.9572719379;-0.0153853235153
ST FRONT;16460;45.8962473577;0.281694716965
ST GENIS D HIERSAC;16570;45.7541273266;0.0365172036644
ST GEORGES;16700;45.9760746261;0.269280643049
ST GERMAIN DE MONTBRON;16380;45.6336571325;0.413391881443
ST GOURSON;16700;45.9521446438;0.312520807637
ST GROUX;16230;45.8908643906;0.158281898668
ST LAURENT DE CERIS;16450;45.9432646636;0.49869730659
ST LAURENT DE COGNAC;16100;45.6950500912;-0.394353792222
ST LAURENT DES COMBES;16480;45.3532898017;0.0345106941668
ST MARTIAL;16190;45.3713184572;0.0580275903451
ST MARTIN DU CLOCHER;16700;46.0649581339;0.149662855292
ST MARY;16260;45.8452386598;0.362015823
ST MAURICE DES LIONS;16500;45.9687818149;0.700155863505
ST MEDARD;16300;45.5085263849;-0.134402702237
ST MEME LES CARRIERES;16720;45.6446845538;-0.142912340299
ST MICHEL;16470;45.6398574836;0.110389548668
ST PALAIS DU NE;16300;45.5408910376;-0.28660127584
ST PREUIL;16130;45.6007267045;-0.172169004384
ST QUENTIN DE CHALAIS;16210;45.2429849506;0.0733899615391
ST QUENTIN SUR CHARENTE;16150;45.838055704;0.675525418032
ST ROMAIN;16210;45.2834371664;0.137230100319
ST SATURNIN;16290;45.6676447323;0.0400326832597
ST SEVERIN;16390;45.3109814226;0.245248838194
ST SIMEUX;16120;45.6340380938;-0.0343232416979
ST SIMON;16120;45.6553833109;-0.0748911541972
ST SORNIN;16220;45.6950797067;0.443014259379
ST SULPICE DE COGNAC;16370;45.7590478369;-0.409801090827
ST SULPICE DE RUFFEC;16460;45.9372570852;0.318948540786
ST VALLIER;16480;45.2881730966;-0.0840666739743
ST YRIEIX SUR CHARENTE;16710;45.6818416961;0.128271343194
STE SEVERE;16200;45.7641596067;-0.250325475008
STE SOULINE;16480;45.3774799244;-0.0211237715554
SUAUX;16260;45.8479006288;0.513524239877
TAIZE AIZIE;16700;46.0636731179;0.247464724639
TAPONNAT FLEURIGNAC;16110;45.7739607246;0.417726239972
TERRES DE HAUTE CHARENTE;16270;45.9100102437;0.573121657498
THEIL RABIER;16240;46.0558979641;0.044130741302
TORSAC;16410;45.5690420588;0.208774743637
TOURRIERS;16560;45.7929702195;0.1939985026
TOUVERAC;16360;45.3740871149;-0.201503841604
TOUVRE;16600;45.658185613;0.267862440841
TRIAC LAUTRAIT;16200;45.6828749184;-0.115750657737
TROIS PALIS;16730;45.6399613297;0.0464434707725
TURGON;16350;45.9523992009;0.410917379931
TUSSON;16140;45.931556365;0.0704135702766
VAL D AUGE;16170;45.8511416602;-0.0872262855566
VAL DE BONNIEURE;16230;45.8371884276;0.272464077721
VAL DES VIGNES;16250;45.5351688008;-0.0353997702364
VALENCE;16460;45.8823772883;0.317842370883
VARS;16330;45.7564469034;0.136239937646
VAUX LAVALETTE;16320;45.4166039956;0.240652397324
VAUX ROUILLAC;16170;45.7417093777;-0.0897179678272
VENTOUSE;16460;45.9125661232;0.324665203428
VERDILLE;16140;45.8810519501;-0.095445379465
VERNEUIL;16310;45.7826832991;0.698625263391
VERRIERES;16130;45.5635438011;-0.262225205266
VERTEUIL SUR CHARENTE;16510;45.9780560567;0.226069473062
VERVANT;16330;45.8353596714;0.129842160718
VIBRAC;16120;45.6431019638;-0.0593033677252
VIEUX RUFFEC;16350;46.0162630355;0.379086474568
VIGNOLLES;16300;45.5067551698;-0.0973753032134
VILLEBOIS LAVALETTE;16320;45.4787469231;0.282759824793
VILLEFAGNAN;16240;46.0118055338;0.0886198122699
VILLEJOUBERT;16560;45.8074616252;0.173120462313
VILLIERS LE ROUX;16240;46.0512318303;0.109503463372
VILLOGNON;16230;45.8607875247;0.108513069794
VINDELLE;16430;45.7209359116;0.107728857643
VITRAC ST VINCENT;16310;45.7977956824;0.494903805374
VOEUIL ET GIGET;16400;45.5931085464;0.158699054904
VOUHARTE;16330;45.807659891;0.0797642978998
VOULGEZAC;16250;45.5124136386;0.125737784928
VOUTHON;16220;45.660500114;0.447401075403
VOUZAN;16410;45.6000909965;0.359871662145
XAMBES;16330;45.8237702139;0.106210551409
YVIERS;16210;45.2735939808;-0.0246156679485
YVRAC ET MALLEYRAND;16110;45.7349799572;0.466227721983
