ABEILHAN;34290;43.4575019905;3.29923508306
ADISSAN;34230;43.535473519;3.42608475989
AGDE;34300;43.309129116;3.48447903133
AGEL;34210;43.3482634234;2.85354795637
AGONES;34190;43.9010523591;3.72652630409
AIGNE;34210;43.3255517298;2.79308395136
AIGUES VIVES;34210;43.3476601284;2.82493400005
ALIGNAN DU VENT;34290;43.4688122746;3.33925724714
ANIANE;34150;43.6835011433;3.59259437611
ARBORAS;34150;43.7212717776;3.47409312363
ARGELLIERS;34380;43.7249523063;3.67420720253
ASPIRAN;34800;43.5672233099;3.4481611939
ASSAS;34820;43.7104129973;3.89790490064
ASSIGNAN;34360;43.3998665892;2.8868499773
AUMELAS;34230;43.5777908844;3.61727878859
AUMES;34530;43.4638784757;3.46993966613
AUTIGNAC;34480;43.4997194171;3.16767512449
AVENE;34260;43.7483953944;3.10467542388
AZILLANET;34210;43.3236122497;2.74504101895
BABEAU BOULDOUX;34360;43.4382106135;2.89298078323
BAILLARGUES;34670;43.6581051757;4.01030491176
BALARUC LE VIEUX;34540;43.4659799669;3.69713367505
BALARUC LES BAINS;34540;43.4469007065;3.69072086799
BASSAN;34290;43.4084026514;3.2545400418
BEAUFORT;34210;43.3040872042;2.76829342504
BEAULIEU;34160;43.7298984427;4.02118900985
BEDARIEUX;34600;43.6125569074;3.16680787195
BELARGA;34230;43.5541458971;3.50006172125
BERLOU;34360;43.4985990248;2.94998951427
BESSAN;34550;43.3569862701;3.41660408543
BEZIERS;34500;43.3475883319;3.23076754164
BOISSERON;34160;43.7523646952;4.07621075324
BOISSET;34220;43.4017637442;2.69024605331
BOUJAN SUR LIBRON;34760;43.3803202017;3.26313194789
BOUZIGUES;34140;43.4453207742;3.65707555068
BRENAS;34650;43.6412617949;3.25359817589
BRIGNAC;34800;43.6219841604;3.47081573374
BRISSAC;34190;43.8680305219;3.70509691756
BUZIGNARGUES;34160;43.771599327;3.99491070508
CABREROLLES;34480;43.5347800126;3.12207083233
CABRIERES;34800;43.5777973112;3.34800607563
CAMBON ET SALVERGUES;34330;43.625504452;2.89047084983
CAMPAGNAN;34230;43.5407744121;3.49239234848
CAMPAGNE;34160;43.7858302535;4.03449984137
CAMPLONG;34260;43.6898005202;3.11179486832
CANDILLARGUES;34130;43.6184336518;4.06397943606
CANET;34800;43.5983184879;3.48279950593
CAPESTANG;34310;43.3217608814;3.04813542922
CARLENCAS ET LEVAS;34600;43.6298590815;3.22034291707
CASSAGNOLES;34210;43.3973278254;2.60178289175
CASTANET LE HAUT;34610;43.6738023402;2.95490649454
CASTELNAU DE GUERS;34120;43.4352029154;3.47130498268
CASTELNAU LE LEZ;34170;43.6380218809;3.91265416028
CASTRIES;34160;43.6886913473;3.97909849679
CAUSSE DE LA SELLE;34380;43.793318405;3.62922803202
CAUSSES ET VEYRAN;34490;43.4679658506;3.09140817523
CAUSSINIOJOULS;34600;43.5484030335;3.15563201931
CAUX;34720;43.5044671037;3.36827222924
CAZEDARNES;34460;43.4234094585;3.0282977991
CAZEVIEILLE;34270;43.7640929334;3.79487938999
CAZILHAC;34190;43.9181503248;3.69073251307
CAZOULS D HERAULT;34120;43.5018486169;3.45727466019
CAZOULS LES BEZIERS;34370;43.3976310061;3.09968408339
CEBAZAN;34360;43.4057714323;2.98753544728
CEILHES ET ROCOZELS;34260;43.809322318;3.09184232431
CELLES;34700;43.6663640232;3.35967873955
CERS;34420;43.3302709569;3.31729573152
CESSENON SUR ORB;34460;43.454255953;3.04105685842
CESSERAS;34210;43.3311589874;2.70406695025
CEYRAS;34800;43.6499208195;3.45967930935
CLAPIERS;34830;43.6620192267;3.88689748204
CLARET;34270;43.8572510508;3.87648647293
CLERMONT L HERAULT;34800;43.6338885209;3.41317415682
COLOMBIERES SUR ORB;34390;43.5853145564;3.01084654208
COLOMBIERS;34440;43.3154427074;3.14408489609
COMBAILLAUX;34980;43.6724651023;3.77949432527
COMBES;34240;43.602411245;3.0476220061
CORNEILHAN;34490;43.4019158731;3.19646909988
COULOBRES;34290;43.4507697404;3.27495989155
COURNIOU;34220;43.489357501;2.69325210308
COURNONSEC;34660;43.5404276115;3.70276147936
COURNONTERRAL;34660;43.5694241257;3.70642853592
CREISSAN;34370;43.3771624265;2.99976062143
CRUZY;34310;43.3518501139;2.93451082669
DIO ET VALQUIERES;34650;43.6690497036;3.22101697098
ENTRE VIGNES;34400;43.7236376937;4.07222709677
ESPONDEILHAN;34290;43.4372418767;3.25795790915
FABREGUES;34690;43.5344767016;3.77192951891
FAUGERES;34600;43.5687652177;3.18349121003
FELINES MINERVOIS;34210;43.354036783;2.58187245659
FERRALS LES MONTAGNES;34210;43.4188135877;2.6417753577
FERRIERES LES VERRERIES;34190;43.8675537207;3.80028962389
FERRIERES POUSSAROU;34360;43.4833450309;2.903540512
FLORENSAC;34510;43.3858472782;3.4638416795
FONTANES;34270;43.7944026303;3.91839771103
FONTES;34320;43.5419967541;3.39026556007
FOS;34320;43.5681193831;3.24200444843
FOUZILHON;34480;43.5057316875;3.23717233184
FOZIERES;34700;43.7508754164;3.35595982822
FRAISSE SUR AGOUT;34330;43.5926354982;2.79705531131
FRONTIGNAN;34110;43.4482458873;3.74923522416
GABIAN;34320;43.5181480219;3.26449755932
GALARGUES;34160;43.7823313364;4.00782608796
GANGES;34190;43.9457300618;3.70523816055
GARRIGUES;34160;43.7983239512;4.01049087518
GIGEAN;34770;43.4940932526;3.72353998798
GIGNAC;34150;43.6393937216;3.57384628868
GORNIES;34190;43.8843569278;3.62462795605
GRABELS;34790;43.6507076799;3.79423262021
GRAISSESSAC;34260;43.6862996463;3.08522636762
GUZARGUES;34820;43.7292469184;3.9239639392
HEREPIAN;34600;43.591789169;3.11770187761
JACOU;34830;43.6629846943;3.9119610777
JONCELS;34650;43.7662193916;3.18310096799
JONQUIERES;34725;43.673901625;3.47813467686
JUVIGNAC;34990;43.6237646402;3.79579375182
LA BOISSIERE;34150;43.6543984294;3.64428863872
LA CAUNETTE;34210;43.3674487312;2.78721523132
LA GRANDE MOTTE;34280;43.5685394142;4.0758328467
LA LIVINIERE;34210;43.3372267899;2.63272340257
LA SALVETAT SUR AGOUT;34330;43.6021759228;2.68705591152
LA TOUR SUR ORB;34260;43.6555250797;3.15144431615
LA VACQUERIE ET ST MARTIN DE CASTRIES;34520;43.7940763777;3.481075382
LACOSTE;34800;43.6572095085;3.42316601881
LAGAMAS;34150;43.6745844077;3.5321562547
LAMALOU LES BAINS;34240;43.5964619142;3.08445405222
LANSARGUES;34130;43.6364436854;4.08270443666
LAROQUE;34190;43.9256514661;3.73343293055
LATTES;34970;43.5638594056;3.90226222861
LAURENS;34480;43.5218394157;3.1996305574
LAURET;34270;43.8313701737;3.88187587
LAUROUX;34700;43.7915234446;3.27831492551
LAVALETTE;34700;43.6926559892;3.27139234301
LAVERUNE;34880;43.5848099789;3.80168949969
LE BOSC;34700;43.6957752498;3.38710687452
LE BOUSQUET D ORB;34260;43.7025373477;3.15150280873
LE CAYLAR;34520;43.8716890931;3.31157473989
LE CRES;34920;43.6540978695;3.93608851243
LE CROS;34520;43.8802736977;3.36304927943
LE POUGET;34230;43.5925476738;3.51727150563
LE POUJOL SUR ORB;34600;43.5830682965;3.05437993033
LE PRADAL;34600;43.6331733126;3.09603125078
LE PUECH;34700;43.6831429742;3.32501216649
LE SOULIE;34330;43.5430961388;2.68991254335
LE TRIADOU;34270;43.7367810666;3.85739515015
LES AIRES;34600;43.5695523361;3.07138973209
LES MATELLES;34270;43.7279155498;3.8068218202
LES PLANS;34700;43.7561210421;3.26564672986
LES RIVES;34520;43.8557506126;3.26405102266
LESPIGNAN;34710;43.2737109255;3.16982256617
LEZIGNAN LA CEBE;34120;43.4922078632;3.43960981956
LIAUSSON;34800;43.6402749752;3.36044063892
LIEURAN CABRIERES;34800;43.5916311464;3.40878385733
LIEURAN LES BEZIERS;34290;43.4122997013;3.23066232037
LIGNAN SUR ORB;34490;43.382486634;3.17270457784
LODEVE;34700;43.7307354901;3.30567667879
LOUPIAN;34140;43.4494192218;3.62638267982
LUNAS;34650;43.7089785299;3.20607492455
LUNEL;34400;43.6820481757;4.13566472301
LUNEL VIEL;34400;43.6826642395;4.08422296335
MAGALAS;34480;43.4808688877;3.21744589266
MARAUSSAN;34370;43.370567073;3.1537894615
MARGON;34320;43.4864901755;3.30406918161
MARSEILLAN;34340;43.3605776007;3.54718963761
MARSILLARGUES;34590;43.6268280772;4.14781957357
MAS DE LONDRES;34380;43.7875830947;3.77381385903
MAUGUIO;34130;43.5928279472;4.00425693337
MAUREILHAN;34370;43.3515394407;3.10170846517
MERIFONS;34800;43.6355182849;3.28015799164
MEZE;34140;43.4292981138;3.57774572973
MINERVE;34210;43.3629052396;2.72160547585
MIREVAL;34110;43.5170572388;3.80306531824
MONS;34390;43.5698246812;2.96307448549
MONTADY;34310;43.3285047609;3.11398724899
MONTAGNAC;34530;43.4745284586;3.51074216978
MONTARNAUD;34570;43.6470278582;3.69970280024
MONTAUD;34160;43.7478625345;3.96019972895
MONTBAZIN;34560;43.5327997823;3.67193055324
MONTBLANC;34290;43.3707718036;3.35755094036
MONTELS;34310;43.2896268975;3.02567631465
MONTESQUIEU;34320;43.5621026684;3.27145529278
MONTFERRIER SUR LEZ;34980;43.6690783518;3.86408542938
MONTOULIERS;34310;43.3353694214;2.90623639932
MONTOULIEU;34190;43.919242211;3.80187206005
MONTPELLIER;34000;43.6134409138;3.86851657896
MONTPELLIER;34070;43.6134409138;3.86851657896
MONTPELLIER;34080;43.6134409138;3.86851657896
MONTPELLIER;34090;43.6134409138;3.86851657896
MONTPEYROUX;34150;43.711158125;3.50240555203
MOULES ET BAUCELS;34190;43.9497259922;3.75555165229
MOUREZE;34800;43.6156849322;3.35101426907
MUDAISON;34130;43.6402176481;4.03634822151
MURLES;34980;43.7017303603;3.75723604182
MURVIEL LES BEZIERS;34490;43.4576685107;3.13592247665
MURVIEL LES MONTPELLIER;34570;43.6095675101;3.73935842429
NEBIAN;34800;43.5995432245;3.43678111885
NEFFIES;34320;43.5393423873;3.33354409395
NEZIGNAN L EVEQUE;34120;43.4214743639;3.4038201049
NISSAN LEZ ENSERUNE;34440;43.2811833354;3.11227016
NIZAS;34320;43.5137142122;3.41956425429
NOTRE DAME DE LONDRES;34380;43.8324773443;3.75718423369
OCTON;34800;43.6574397146;3.29580652136
OLARGUES;34390;43.540135455;2.91772316116
OLMET ET VILLECUN;34700;43.7080042614;3.29790307096
OLONZAC;34210;43.2811329903;2.73729224863
OUPIA;34210;43.2886870933;2.77613204437
PAILHES;34490;43.4371324494;3.18478770413
PALAVAS LES FLOTS;34250;43.533536456;3.92620839566
PARDAILHAN;34360;43.4450155578;2.83724812939
PAULHAN;34230;43.5382461437;3.45878001705
PEGAIROLLES DE BUEGES;34380;43.8051515536;3.57590546556
PEGAIROLLES DE L ESCALETTE;34700;43.8129638311;3.33457368813
PERET;34800;43.5749250914;3.39831770364
PEROLS;34470;43.5606642689;3.95175708518
PEZENAS;34120;43.462990168;3.41651652125
PEZENES LES MINES;34600;43.5990802709;3.24486558872
PIERRERUE;34360;43.4408898427;2.96353265776
PIGNAN;34570;43.5855297709;3.74922617626
PINET;34850;43.4090371213;3.51249503942
PLAISSAN;34230;43.5590614886;3.52978704961
POILHES;34310;43.3045807211;3.08955688711
POMEROLS;34810;43.3966621859;3.51470119674
POPIAN;34230;43.6241428585;3.53329416559
PORTIRAGNES;34420;43.301736727;3.3476310741
POUJOLS;34700;43.7720254249;3.3186584195
POUSSAN;34560;43.4938682747;3.66060526328
POUZOLLES;34480;43.4790289284;3.27343526543
POUZOLS;34230;43.6204813753;3.50913792041
PRADES LE LEZ;34730;43.7072541597;3.86489213915
PRADES SUR VERNAZOBRE;34360;43.4587254561;2.97637908047
PREMIAN;34390;43.5395150426;2.82265477
PUECHABON;34150;43.7250949806;3.60615436685
PUILACHER;34230;43.5667592874;3.50438177235
PUIMISSON;34480;43.4378848969;3.20792607822
PUISSALICON;34480;43.4539009157;3.23775688397
PUISSERGUIER;34620;43.3772339365;3.04590546447
QUARANTE;34310;43.3507961482;2.980712669
RESTINCLIERES;34160;43.7241060431;4.04113886056
RIEUSSEC;34220;43.4221214711;2.73234133546
RIOLS;34220;43.5020076583;2.7978815483
ROMIGUIERES;34650;43.8174606939;3.23863631035
ROQUEBRUN;34460;43.5055301367;3.01020767963
ROQUEREDONDE;34650;43.7962962251;3.20797377545
ROQUESSELS;34320;43.5504361002;3.22634826627
ROSIS;34610;43.6281696619;2.99215452371
ROUET;34380;43.8258792958;3.81594115677
ROUJAN;34320;43.5109460252;3.30936586252
SALASC;34800;43.6220930985;3.31240348008
SATURARGUES;34400;43.7142810482;4.11714344824
SAUSSAN;34570;43.569013259;3.78095911379
SAUSSINES;34160;43.758954777;4.05038800559
SAUTEYRARGUES;34270;43.830914793;3.91858398089
SAUVIAN;34410;43.2910373806;3.25406479284
SERIGNAN;34410;43.2733185307;3.29725083254
SERVIAN;34290;43.4143351267;3.30645261407
SETE;34200;43.3917705831;3.64705148296
SIRAN;34210;43.3302941258;2.66325916558
SORBS;34520;43.8909610556;3.40642995016
SOUBES;34700;43.7796056987;3.35201368511
SOUMONT;34700;43.7254656283;3.34970945877
ST ANDRE DE BUEGES;34190;43.8538870813;3.64957493521
ST ANDRE DE SANGONIS;34725;43.6502281651;3.50287642429
ST AUNES;34130;43.6349513822;3.96578818387
ST BAUZILLE DE LA SYLVE;34230;43.6102378186;3.55875643759
ST BAUZILLE DE MONTMEL;34160;43.776222742;3.95036124695
ST BAUZILLE DE PUTOIS;34190;43.9007200249;3.75901045062
ST BRES;34670;43.6665945893;4.03794071375
ST CHINIAN;34360;43.4211029335;2.93138227583
ST CLEMENT DE RIVIERE;34980;43.6860686936;3.84318936676
ST DREZERY;34160;43.7284558791;3.97774419373
ST ETIENNE D ALBAGNAN;34390;43.5283591648;2.86528483537
ST ETIENNE DE GOURGAS;34700;43.7836963728;3.38499935958
ST ETIENNE ESTRECHOUX;34260;43.6605180139;3.10431751286
ST FELIX DE L HERAS;34520;43.8393766952;3.31453583361
ST FELIX DE LODEZ;34725;43.6608409227;3.46889642638
ST GELY DU FESC;34980;43.6896523672;3.80969577473
ST GENIES DE FONTEDIT;34480;43.4689118509;3.17497763189
ST GENIES DE VARENSAL;34610;43.6879655757;3.00291654936
ST GENIES DES MOURGUES;34160;43.6972031545;4.03751252164
ST GEORGES D ORQUES;34680;43.6168353652;3.77376629814
ST GERVAIS SUR MARE;34610;43.6671393403;3.0497555288
ST GUILHEM LE DESERT;34150;43.756664412;3.54505481445
ST GUIRAUD;34725;43.6784032786;3.45134218605
ST HILAIRE DE BEAUVOIR;34160;43.7530311064;4.01945192332
ST JEAN DE BUEGES;34380;43.8341627793;3.60534795017
ST JEAN DE CORNIES;34160;43.744776404;4.00334009324
ST JEAN DE CUCULLES;34270;43.7516512162;3.83370653974
ST JEAN DE FOS;34150;43.6938600875;3.5464221395
ST JEAN DE LA BLAQUIERE;34700;43.7101712397;3.42987273184
ST JEAN DE MINERVOIS;34360;43.3998259676;2.8186318647
ST JEAN DE VEDAS;34430;43.5716282319;3.83221847952
ST JULIEN;34390;43.5848869061;2.9022163453
ST JUST;34400;43.6561845666;4.1118455055
ST MARTIN DE L ARCON;34390;43.5800016675;2.98506078379
ST MARTIN DE LONDRES;34380;43.7926372953;3.70749671559
ST MATHIEU DE TREVIERS;34270;43.7692073898;3.87002027505
ST MAURICE NAVACELLES;34190;43.8448734239;3.5062650669
ST MAURICE NAVACELLES;34520;43.8448734239;3.5062650669
ST MICHEL;34520;43.8408209485;3.40636511329
ST NAZAIRE DE LADAREZ;34490;43.5174613218;3.08019366504
ST NAZAIRE DE PEZAN;34400;43.6351201941;4.11706198292
ST PARGOIRE;34230;43.5312864116;3.54356674694
ST PAUL ET VALMALLE;34570;43.6147377182;3.67925764242
ST PIERRE DE LA FAGE;34520;43.7942818756;3.42249252339
ST PONS DE MAUCHIENS;34230;43.5093525294;3.51237930309
ST PONS DE THOMIERES;34220;43.4788345407;2.74852691953
ST PRIVAT;34700;43.7510304618;3.43193440263
ST SATURNIN DE LUCIAN;34725;43.7020641243;3.46562017139
ST SERIES;34400;43.7355275594;4.1049570212
ST THIBERY;34630;43.3927611076;3.4008093198
ST VINCENT D OLARGUES;34390;43.5598159229;2.8730344645
ST VINCENT DE BARBEYRARGUES;34730;43.7107487308;3.87689704795
STE CROIX DE QUINTILLARGUES;34270;43.7680759693;3.91047320364
SUSSARGUES;34160;43.7090174126;3.99451003779
TAUSSAC LA BILLIERE;34600;43.6330025046;3.07651674533
TEYRAN;34820;43.6849602174;3.92844546049
THEZAN LES BEZIERS;34490;43.4132925116;3.15810877475
TOURBES;34120;43.4426128717;3.37325063166
TRESSAN;34230;43.5728727057;3.48660359956
USCLAS D HERAULT;34230;43.5218019107;3.46731273264
USCLAS DU BOSC;34700;43.7281811066;3.39872803324
VACQUIERES;34270;43.828951354;3.95059092593
VAILHAN;34320;43.5542014743;3.29989404644
VAILHAUQUES;34570;43.6641779009;3.72842619012
VALERGUES;34130;43.67240395;4.05870783975
VALFLAUNES;34270;43.8020094105;3.86188285063
VALMASCLE;34800;43.6001846206;3.2999967216
VALRAS PLAGE;34350;43.2476112282;3.28929431362
VALROS;34290;43.419189427;3.36141259687
VELIEUX;34220;43.3902090063;2.74495377415
VENDARGUES;34740;43.6610457488;3.96283033113
VENDEMIAN;34230;43.5790567885;3.56253401848
VENDRES;34350;43.2581519414;3.22720260244
VERRERIES DE MOUSSANS;34220;43.4493841395;2.67914780973
VIAS;34450;43.3131142636;3.39889710362
VIC LA GARDIOLE;34110;43.4862693496;3.80342869911
VIEUSSAN;34390;43.5401854893;3.00065269263
VILLEMAGNE L ARGENTIERE;34600;43.6189067153;3.12143240976
VILLENEUVE LES BEZIERS;34420;43.3172489997;3.28958494349
VILLENEUVE LES BEZIERS;34500;43.3172489997;3.28958494349
VILLENEUVE LES MAGUELONE;34750;43.5249723481;3.85846205367
VILLENEUVETTE;34800;43.6102089011;3.40077488317
VILLESPASSANS;34360;43.3817686884;2.91141941594
VILLETELLE;34400;43.7241089039;4.1368883121
VILLEVEYRAC;34560;43.5001280333;3.59372946669
VIOLS EN LAVAL;34380;43.7448968901;3.74026730313
VIOLS LE FORT;34380;43.7367573026;3.69220324597
