ABERGEMENT LA RONCE;39500;47.0649669593;5.37826421743
ABERGEMENT LE GRAND;39600;46.9142864988;5.67853452364
ABERGEMENT LE PETIT;39800;46.906561832;5.69663602324
ABERGEMENT LES THESY;39110;46.9134980199;5.94569839295
AIGLEPIERRE;39110;46.9553944509;5.80953794446
ALIEZE;39270;46.5850122581;5.58578294146
AMANGE;39700;47.1669744984;5.5649107588
ANDELOT EN MONTAGNE;39110;46.8591094265;5.9289781242
ANDELOT MORVAL;39320;46.4237585921;5.42679898961
ANNOIRE;39120;46.9585671932;5.27702969888
ARBOIS;39600;46.8941749828;5.77318253275
ARCHELANGE;39290;47.1484873028;5.52058392702
ARDON;39300;46.7729485271;5.87754754837
ARESCHES;39110;46.8933326292;5.91985610861
ARINTHOD;39240;46.4000913267;5.58894022336
ARLAY;39140;46.7695260312;5.52939356263
ARLAY;39210;46.7695260312;5.52939356263
AROMAS;39240;46.2931394653;5.4882078411
ARSURE ARSURETTE;39250;46.7150975555;6.08022545368
ASNANS BEAUVOISIN;39120;46.9370009894;5.39677070986
AUDELANGE;39700;47.14070332;5.58399367432
AUGEA;39190;46.5620792374;5.38938272802
AUGERANS;39380;47.026326647;5.5838585111
AUGISEY;39270;46.5548389482;5.49566271046
AUMONT;39800;46.9161293357;5.63272592575
AUMUR;39410;47.060981505;5.33712188503
AUTHUME;39100;47.1250671722;5.50826789113
AUXANGE;39700;47.1778341766;5.65519498249
AVIGNON LES ST CLAUDE;39200;46.4011757711;5.84079043463
BALAISEAUX;39120;46.9676282435;5.46210050966
BALANOD;39160;46.4554239007;5.35090483871
BANS;39380;46.9829169242;5.58184356707
BARESIA SUR L AIN;39130;46.5423863314;5.70324307586
BARRETAINE;39800;46.810217532;5.71788289074
BAUME LES MESSIEURS;39210;46.7048674382;5.64562570074
BAUME LES MESSIEURS;39570;46.7048674382;5.64562570074
BAVERANS;39100;47.1054660171;5.53628421421
BEAUFORT ORBAGNA;39190;46.5858090332;5.43052572582
BEFFIA;39270;46.5315651436;5.54829278779
BELLECOMBE;39310;46.3093062436;5.90889687152
BELLEFONTAINE;39400;46.5565262236;6.08239156513
BELMONT;39380;47.0281412034;5.60483401256
BERSAILLIN;39800;46.8571794518;5.59533422537
BESAIN;39800;46.7859315795;5.79619936745
BIARNE;39290;47.1454413505;5.45151056819
BIEF DES MAISONS;39150;46.7038559187;6.04967687137
BIEF DU FOURG;39250;46.8204461045;6.11715675755
BIEFMORIN;39800;46.9030690106;5.52936210858
BILLECUL;39250;46.7464177883;6.05640813471
BLETTERANS;39140;46.7316211339;5.42781411933
BLOIS SUR SEILLE;39210;46.7464228951;5.67040219514
BLYE;39130;46.6284281077;5.69599874066
BOIS D AMONT;39220;46.5361950227;6.1273377518
BOIS DE GAND;39230;46.8265028242;5.50052163033
BOISSIA;39130;46.5806605913;5.7211528831
BONLIEU;39130;46.5968045882;5.8566003581
BONNEFONTAINE;39800;46.731940278;5.74703212327
BORNAY;39570;46.6118982818;5.55324402199
BOURG DE SIROD;39300;46.7297500419;5.95586980597
BRACON;39110;46.9256272441;5.86757188108
BRAINANS;39800;46.8746666632;5.6278782462
BRANS;39290;47.2238411039;5.57358869303
BRETENIERES;39120;46.9199425339;5.53800376406
BREVANS;39100;47.1007698445;5.52282272719
BRIOD;39570;46.6633058683;5.62550336964
BROISSIA;39320;46.3562943901;5.43285662397
BUVILLY;39800;46.8704853827;5.72629217171
CENSEAU;39250;46.8165867767;6.07767180739
CERNANS;39110;46.9343211214;5.9394436656
CERNIEBAUD;39250;46.7365821804;6.1257959511
CERNON;39240;46.4121311574;5.64360732811
CESANCEY;39570;46.6227403643;5.4919593002
CHAINEE DES COUPIS;39120;46.9220207447;5.43463248879
CHAMBERIA;39270;46.4694472775;5.5703149623
CHAMBLAY;39380;46.9910483853;5.70335674232
CHAMOLE;39800;46.8443055833;5.73874767152
CHAMPAGNE SUR LOUE;39600;47.0328816629;5.80653382089
CHAMPAGNEY;39290;47.2596370063;5.50446475584
CHAMPAGNOLE;39300;46.7445389751;5.8988102947
CHAMPDIVERS;39500;47.0078921172;5.39015295804
CHAMPROUGIER;39230;46.8785635805;5.51298451513
CHAMPVANS;39100;47.1021842612;5.42048711833
CHAPELLE VOLAND;39140;46.8008280334;5.38064900951
CHAPOIS;39300;46.8335678801;5.96598394958
CHARCHILLA;39260;46.4688109023;5.71546918875
CHARCIER;39130;46.6290312371;5.7635543146
CHARENCY;39250;46.7665615855;5.99264951737
CHAREZIER;39130;46.6145121643;5.72720293776
CHARNOD;39240;46.3372486157;5.49365223765
CHASSAL MOLINGES;39360;46.35182997;5.76359169948
CHATEAU CHALON;39210;46.7594016188;5.64816991256
CHATEL DE JOUX;39130;46.5296472131;5.80925298746
CHATELAY;39380;47.0581445417;5.69769809053
CHATELNEUF;39300;46.6660130297;5.91229926593
CHATENOIS;39700;47.1503115201;5.54630681574
CHATILLON;39130;46.6626648157;5.7273967644
CHAUMERGY;39230;46.8433857304;5.47463338737
CHAUSSENANS;39800;46.8246686639;5.74543213223
CHAUSSIN;39120;46.973824579;5.40270953105
CHAUX CHAMPAGNY;39110;46.8831143398;5.87949383777
CHAUX DES CROTENAY;39150;46.6627966943;5.95679629516
CHAVERIA;39270;46.4989504543;5.55730499833
CHEMENOT;39230;46.8599600621;5.52969682759
CHEMIN;39120;46.9769333115;5.31259454731
CHENE BERNARD;39120;46.917901439;5.46969645181
CHENE SEC;39230;46.8480769432;5.44386002073
CHEVIGNY;39290;47.1765613583;5.47410569211
CHEVREAUX;39190;46.5015228257;5.41955916196
CHEVROTAINE;39130;46.6528649109;5.86000659207
CHILLE;39570;46.6933516322;5.57237754147
CHILLY LE VIGNOBLE;39570;46.6596723262;5.49690965689
CHILLY SUR SALINS;39110;46.8697346286;5.85796704483
CHISSEY SUR LOUE;39380;47.0603931252;5.74043299364
CHOISEY;39100;47.0588384803;5.45057837104
CHOUX;39370;46.301599898;5.77007174218
CIZE;39300;46.7198972063;5.91999404872
CLAIRVAUX LES LACS;39130;46.5646560659;5.75476433887
CLUCY;39110;46.9461704055;5.91685452628
COGNA;39130;46.5867008206;5.77312051776
COISERETTE;39200;46.3381325786;5.8257562121
COLONNE;39800;46.8790834868;5.57100296371
COMMENAILLES;39140;46.8055925733;5.43718044801
CONDAMINE;39570;46.649905188;5.43493044694
CONDES;39240;46.3305432517;5.61760194459
CONLIEGE;39570;46.6513724979;5.61109105926
CONTE;39300;46.7496326396;6.00775677762
CORNOD;39240;46.3075990777;5.54745998941
COSGES;39140;46.7469594031;5.39199282971
COTEAUX DU LIZON;39170;46.4096809138;5.7860900246
COURBETTE;39570;46.597757049;5.56912637088
COURBOUZON;39570;46.6530259011;5.52879804743
COURLANS;39570;46.6757012909;5.48680231929
COURLAOUX;39570;46.6694520389;5.44937543437
COURTEFONTAINE;39700;47.132605121;5.79331394408
COUSANCE;39190;46.5333527445;5.37741644744
COYRIERE;39200;46.3404621083;5.84504322935
COYRON;39260;46.5124158536;5.69815405752
CRAMANS;39600;47.0073865371;5.78702671901
CRANS;39300;46.6951339522;5.98129931286
CRENANS;39260;46.4662863715;5.74165034768
CRESSIA;39270;46.5268687403;5.48381777144
CRISSEY;39100;47.0503243045;5.47819873684
CROTENAY;39300;46.7546647764;5.81374887948
CUISIA;39190;46.5467474362;5.40533542507
CUVIER;39250;46.8392780314;6.06612873386
DAMMARTIN MARPAIN;39290;47.2530677926;5.55397181022
DAMPARIS;39500;47.0709486148;5.40719104716
DAMPIERRE;39350;47.1650509305;5.74228998802
DAMPIERRE;39700;47.1650509305;5.74228998802
DARBONNAY;39230;46.8253223066;5.60755327893
DENEZIERES;39130;46.6244113677;5.80050355357
DESNES;39140;46.7681304523;5.46790509865
DIGNA;39190;46.5182419302;5.38565811964
DOLE;39100;47.0755452538;5.50062446099
DOMBLANS;39210;46.7623690449;5.59000211082
DOMBLANS;39230;46.7623690449;5.59000211082
DOMPIERRE SUR MONT;39270;46.5627677979;5.61274460974
DOUCIER;39130;46.6499567029;5.77799951166
DOURNON;39110;46.9321643123;5.97063569174
DOYE;39250;46.7678938966;6.01401382033
DRAMELAY;39240;46.4042095252;5.53007674794
ECLANS NENON;39700;47.1038743929;5.61210284808
ECLEUX;39600;46.9949161228;5.73686979775
ECRILLE;39270;46.5022298608;5.63385105141
ENTRE DEUX MONTS;39150;46.6418277764;5.96335061438
EQUEVILLON;39300;46.7607810101;5.94097617099
ESSERVAL TARTRE;39250;46.8306327742;6.03218629416
ETIVAL;39130;46.4917221843;5.79388173937
ETREPIGNEY;39700;47.1104911888;5.6819169156
EVANS;39700;47.1795880085;5.76480868684
FALLETANS;39700;47.0819186526;5.56688411224
FAY EN MONTAGNE;39800;46.7536361498;5.717409823
FONCINE LE BAS;39520;46.6323096573;6.0304724219
FONCINE LE HAUT;39460;46.6590550612;6.06154968382
FONTAINEBRUX;39140;46.6967309951;5.43737795518
FONTENU;39130;46.6719633574;5.81528631175
FORT DU PLASNE;39150;46.6232367708;5.98199426982
FOUCHERANS;39100;47.0856433661;5.44430100511
FOULENAY;39230;46.8608876918;5.48627803896
FRAISANS;39700;47.1244743587;5.75661818843
FRANCHEVILLE;39230;46.8366646501;5.50234541581
FRAROZ;39250;46.7287692147;6.09880430783
FRASNE LES MEULIERES;39290;47.1966162247;5.50343047257
FREBUANS;39570;46.6495243028;5.48468530029
FRONTENAY;39210;46.7884051607;5.63215279855
GATEY;39120;46.9455665112;5.45611135598
GENDREY;39350;47.1963062843;5.68474768742
GENOD;39240;46.3574309784;5.52980105214
GERAISE;39110;46.9582339732;5.95511287439
GERMIGNEY;39380;47.0384440113;5.68614106484
GERUGE;39570;46.625057705;5.53075865537
GEVINGEY;39570;46.6375986496;5.50938673759
GEVRY;39100;47.0322816848;5.44484425486
GIGNY;39320;46.4543990771;5.4715682164
GILLOIS;39250;46.7301116843;6.03133695605
GIZIA;39190;46.5271746657;5.42480617606
GRANDE RIVIERE CHATEAU;39150;46.5345269468;5.90836886735
GRANGE DE VAIVRE;39600;46.9978542167;5.84207258909
GRAYE ET CHARNAY;39320;46.4731744736;5.44898680296
GREDISANS;39290;47.1627557383;5.51775930119
GROZON;39800;46.8897857608;5.69024153964
HAUTECOUR;39130;46.5618581979;5.78248121784
HAUTEROCHE;39210;46.6884401125;5.66906572619
HAUTEROCHE;39570;46.6884401125;5.66906572619
HAUTS DE BIENNE;39400;46.5258425381;6.03328656487
IVORY;39110;46.8986920683;5.84966493712
IVREY;39110;46.9896694656;5.89705874388
JEURRE;39360;46.3689937737;5.70478472529
JOUHE;39100;47.1398982403;5.48513402798
L ETOILE;39570;46.7160513036;5.53394517039
LA BARRE;39700;47.1570835686;5.6930067743
LA BOISSIERE;39240;46.4205726757;5.52149312243
LA BRETENIERE;39700;47.1293532558;5.66464601093
LA CHAILLEUSE;39270;46.5722801296;5.52869424012
LA CHAILLEUSE;39570;46.5722801296;5.52869424012
LA CHAPELLE SUR FURIEUSE;39110;46.9888982082;5.85798769424
LA CHARME;39230;46.8485608193;5.54676526867
LA CHASSAGNE;39230;46.8673225647;5.45469725641
LA CHATELAINE;39600;46.8586081976;5.8248269042
LA CHAUMUSSE;39150;46.6006202227;5.94399129597
LA CHAUX DU DOMBIEF;39150;46.607697996;5.90655686239
LA CHAUX EN BRESSE;39230;46.8259443938;5.47657963096
LA FAVIERE;39250;46.7481190667;6.03667883413
LA FERTE;39600;46.9403261024;5.65073456317
LA FRASNEE;39130;46.5611032871;5.80120457498
LA LATETTE;39250;46.7518875591;6.09572549131
LA LOYE;39380;47.0305064268;5.55264274121
LA MARRE;39210;46.7337108015;5.70313863162
LA PESSE;39370;46.286468541;5.85238812673
LA RIXOUSE;39200;46.4680659486;5.87063416847
LA TOUR DU MEIX;39270;46.5234739504;5.66329877831
LA VIEILLE LOYE;39380;47.05632725;5.63130626887
LAC DES ROUGES TRUITES;39150;46.6006239723;6.01003067778
LADOYE SUR SEILLE;39210;46.7668743064;5.68304960571
LAJOUX;39310;46.3914322554;6.00896074386
LAMOURA;39310;46.4081181986;5.98341720791
LARGILLAY MARSONNAY;39130;46.5560198028;5.66558400939
LARNAUD;39140;46.7068129495;5.45782797835
LARRIVOIRE;39360;46.338478336;5.78818524543
LAVANGEOT;39700;47.1511519623;5.60803139614
LAVANS LES DOLE;39700;47.1556350974;5.63422877694
LAVANS LES ST CLAUDE;39170;46.3901726307;5.77719970471
LAVIGNY;39210;46.717011316;5.60517764784
LE CHATELEY;39230;46.8795560182;5.54443854939
LE DESCHAUX;39120;46.9505140483;5.49877819906
LE FIED;39800;46.7740955741;5.71637200568
LE FRASNOIS;39130;46.6361110907;5.89061826384
LE LARDERET;39300;46.8187727556;5.94601155483
LE LATET;39300;46.8031363333;5.94173064599
LE LOUVEROT;39210;46.7328180633;5.58174416388
LE PASQUIER;39300;46.7980920446;5.89702204167
LE PIN;39210;46.7080786364;5.56997582613
LE VAUDIOUX;39300;46.6887181066;5.92823875732
LE VERNOIS;39210;46.7320324635;5.59406809872
LE VILLEY;39230;46.8482451972;5.507416249
LECT;39260;46.3941077641;5.67259916552
LEMUY;39110;46.889073622;5.98241424914
LENT;39300;46.7512558093;5.97544232672
LES ARSURES;39600;46.953105661;5.78430690832
LES BOUCHOUX;39370;46.2946998262;5.80456188916
LES CHALESMES;39150;46.6920276055;6.02602567308
LES CROZETS;39260;46.4635033757;5.80467882912
LES DEUX FAYS;39230;46.8854345992;5.48750372118
LES ESSARDS TAIGNEVAUX;39120;46.9035384189;5.41523803268
LES HAYS;39120;46.9085311513;5.39082220543
LES MOUSSIERES;39310;46.326906853;5.87285556861
LES NANS;39300;46.7942578925;5.97354217641
LES PLANCHES EN MONTAGNE;39150;46.6636417264;6.00067607182
LES PLANCHES PRES ARBOIS;39600;46.8806181055;5.80844995624
LES REPOTS;39140;46.6851813053;5.413825352
LES ROUSSES;39220;46.4984696055;6.07006530541
LES ROUSSES;39400;46.4984696055;6.07006530541
LES TROIS CHATEAUX;39160;46.4197619267;5.34914344308
LESCHERES;39170;46.4602324129;5.829681829
LOISIA;39320;46.4942321244;5.46231630746
LOMBARD;39230;46.7840338435;5.50626178194
LONGCHAUMOIS;39400;46.4634160554;5.96337151696
LONGCOCHON;39250;46.7705510024;6.07491619337
LONGWY SUR LE DOUBS;39120;46.965571307;5.35428928661
LONS LE SAUNIER;39000;46.6744796278;5.55733212947
LOULLE;39300;46.7051852388;5.88350516541
LOUVATANGE;39350;47.1895729875;5.72090559448
MACORNAY;39570;46.6419396973;5.54481097353
MAISOD;39260;46.4791457718;5.69233262933
MALANGE;39700;47.1838419032;5.61461645047
MANTRY;39230;46.7949152079;5.55490459828
MARIGNA SUR VALOUSE;39240;46.4465766056;5.52802659429
MARIGNY;39130;46.67956984;5.77875923329
MARNEZIA;39270;46.5759787765;5.63640981929
MARNOZ;39110;46.9538587219;5.83609760607
MARTIGNA;39260;46.3895643174;5.70098725643
MATHENAY;39600;46.9295460326;5.67894165868
MAYNAL;39190;46.5672563014;5.4124890744
MENETRU LE VIGNOBLE;39210;46.7745566014;5.63482619878
MENETRUX EN JOUX;39130;46.6239722837;5.83804866069
MENOTEY;39290;47.1678262318;5.50278789931
MERONA;39270;46.5535338267;5.63571799156
MESNAY;39600;46.8999786113;5.81905626698
MESNOIS;39130;46.5942298159;5.67721332871
MESSIA SUR SORNE;39570;46.6631538185;5.51569429363
MEUSSIA;39260;46.4947553205;5.73946111468
MIEGES;39250;46.7873509128;6.04198451361
MIERY;39800;46.8065984707;5.66613178867
MIGNOVILLARD;39250;46.7758072369;6.14394186083
MOIRANS EN MONTAGNE;39260;46.4388080084;5.73795329823
MOIRON;39570;46.6350035494;5.55979074338
MOISSEY;39290;47.1885329382;5.53230467086
MOLAIN;39800;46.8251611212;5.81711896426
MOLAMBOZ;39600;46.951688723;5.68053538603
MOLAY;39500;47.0155461717;5.42348925826
MONAY;39230;46.838724975;5.59503528853
MONNET LA VILLE;39300;46.7245823636;5.81585271352
MONNETAY;39320;46.4576810006;5.51067177235
MONNIERES;39100;47.1140594899;5.46044213238
MONT SOUS VAUDREY;39380;46.9631076045;5.59448295865
MONT SUR MONNET;39300;46.7035726549;5.84464264755
MONTAGNA LE RECONDUIT;39160;46.4549069839;5.39107165834
MONTAIGU;39570;46.6535706829;5.57330995671
MONTAIN;39210;46.7209461149;5.57753660512
MONTBARREY;39380;47.0202426909;5.63748762259
MONTCUSEL;39260;46.3561612254;5.66451408505
MONTEPLAIN;39700;47.1585531374;5.70976407571
MONTFLEUR;39320;46.333233615;5.44582401435
MONTHOLIER;39800;46.8945272746;5.63902103167
MONTIGNY LES ARSURES;39600;46.9378384103;5.77619784355
MONTIGNY SUR L AIN;39300;46.7050355286;5.79177737951
MONTLAINSIA;39320;46.3895271897;5.48848801863
MONTMARLON;39110;46.87302574;5.96629816097
MONTMIREY LA VILLE;39290;47.2170742688;5.51651426821
MONTMIREY LE CHATEAU;39290;47.2299837949;5.53411913027
MONTMOROT;39570;46.6868843309;5.5196117795
MONTREVEL;39320;46.4260235257;5.49493800211
MONTROND;39300;46.7867874524;5.84385490665
MORBIER;39400;46.55692328;6.01610878304
MOUCHARD;39330;46.9775766117;5.78997395755
MOURNANS CHARBONNY;39250;46.7768224778;5.99039184457
MOUTONNE;39270;46.5305097539;5.56657538643
MOUTOUX;39300;46.790683672;5.94357919942
MUTIGNEY;39290;47.2820712472;5.53021636732
NANCE;39140;46.7487669868;5.42262133247
NANCHEZ;39150;46.4998251911;5.8576069903
NANCHEZ;39200;46.4998251911;5.8576069903
NANCUISE;39270;46.4735098453;5.52975664064
NEUBLANS ABERGEMENT;39120;46.9040741283;5.33914629457
NEUVILLEY;39800;46.8935992116;5.59976240857
NEVY LES DOLE;39380;47.0024558065;5.5159174634
NEVY SUR SEILLE;39210;46.7343478982;5.64536782346
NEY;39300;46.733302634;5.88549194483
NOGNA;39570;46.6029026515;5.64266648514
NOZEROY;39250;46.7701820347;6.03611938375
OFFLANGES;39290;47.2038465796;5.56005963623
ONGLIERES;39250;46.8028448995;6.00043623502
ONOZ;39270;46.4480090992;5.66352512736
ORCHAMPS;39700;47.1540318861;5.66771529859
ORGELET;39270;46.5063359095;5.62225313092
OUGNEY;39350;47.2407071845;5.65989069882
OUNANS;39380;46.9901386128;5.66317598705
OUR;39700;47.1073810087;5.64890585265
OUSSIERES;39800;46.914654871;5.5977384615
PAGNEY;39350;47.250391991;5.69969673686
PAGNOZ;39330;46.9741968646;5.82590898779
PANNESSIERES;39570;46.6983683105;5.59466589018
PARCEY;39100;47.0223001054;5.47952052073
PASSENANS;39230;46.8041484132;5.62414168281
PATORNAY;39130;46.5873552855;5.70873502503
PEINTRE;39290;47.1980003971;5.47297179075
PERRIGNY;39570;46.676681519;5.59933078022
PESEUX;39120;46.9935199025;5.36641787398
PETIT NOIR;39120;46.9324882884;5.33765918128
PICARREAU;39800;46.7547633976;5.7569978699
PILLEMOINE;39300;46.703904732;5.90805136913
PIMORIN;39270;46.4958087462;5.50106506997
PLAINOISEAU;39210;46.7252404633;5.55598412633
PLAISIA;39270;46.5243667153;5.63724392564
PLASNE;39210;46.7948712678;5.69040057232
PLASNE;39800;46.7948712678;5.69040057232
PLENISE;39250;46.8151075065;6.0199524043
PLENISETTE;39250;46.8047324429;6.01569148453
PLEURE;39120;46.9155544802;5.46006716297
PLUMONT;39700;47.1107713275;5.71692693356
POIDS DE FIOLE;39570;46.5944604506;5.62239260294
POINTRE;39290;47.2219181115;5.49075761084
POLIGNY;39800;46.8222386118;5.73292565089
PONT D HERY;39110;46.8762807232;5.89928454106
PONT DE POITTE;39130;46.5717848345;5.68822628964
PONT DU NAVOY;39300;46.7317231278;5.78965012447
PORT LESNEY;39330;46.9984173967;5.81915102369
PORT LESNEY;39600;46.9984173967;5.81915102369
PREMANON;39220;46.4538422377;6.03492977371
PREMANON;39400;46.4538422377;6.03492977371
PRESILLY;39270;46.5577104313;5.58192329042
PRETIN;39110;46.9318790423;5.83502005911
PUBLY;39570;46.6295899553;5.65124745442
PUPILLIN;39600;46.8763553965;5.75235125424
QUINTIGNY;39570;46.7343660477;5.52473105076
RAHON;39120;46.9938029264;5.47383936755
RAINANS;39290;47.1574395405;5.47297750581
RANCHOT;39700;47.1593990404;5.71910019081
RANS;39700;47.1379973135;5.71557221033
RAVILLOLES;39170;46.4339212341;5.80032186037
RECANOZ;39230;46.8075358585;5.50670929892
REITHOUSE;39270;46.5602761319;5.55586322234
RELANS;39140;46.7663121226;5.43804546339
REVIGNY;39570;46.627894009;5.60893861007
RIX;39250;46.7622805418;6.05502144561
ROCHEFORT SUR NENON;39700;47.1226290709;5.55631642318
ROGNA;39360;46.3276553176;5.74438712926
ROMAIN;39350;47.2075786378;5.71828846623
ROMANGE;39700;47.1606289716;5.59427997843
ROSAY;39190;46.5343336422;5.45282636433
ROTALIER;39190;46.5832064756;5.47700815924
ROTHONAY;39270;46.515255602;5.52762290044
ROUFFANGE;39350;47.2263565979;5.70867477091
RUFFEY SUR SEILLE;39140;46.7294818864;5.49587228599
RYE;39230;46.8805291309;5.42595524995
SAFFLOZ;39130;46.6690423566;5.86347690885
SAIZENAY;39110;46.9701806797;5.93379044205
SALANS;39700;47.1599346715;5.79436100645
SALIGNEY;39350;47.2229745913;5.63681673671
SALINS LES BAINS;39110;46.9478351925;5.89762240995
SAMPANS;39100;47.127381536;5.44517926709
SANTANS;39380;47.0417658474;5.66601850009
SAPOIS;39300;46.7473328196;5.94642241824
SARROGNA;39270;46.4739811377;5.61763286818
SAUGEOT;39130;46.6037434659;5.82427975186
SELIGNEY;39120;46.9441078421;5.54072749866
SELLIERES;39230;46.8254197035;5.55675238512
SEPTMONCEL LES MOLUNES;39310;46.3731296175;5.9231555329
SERGENAUX;39230;46.887689456;5.46257846527
SERGENON;39120;46.9021977763;5.46665354041
SERMANGE;39700;47.1972336994;5.64802600593
SERRE LES MOULIERES;39700;47.2058304341;5.61405890901
SIROD;39300;46.7231337184;5.99171836651
SONGESON;39130;46.6469389585;5.83038429289
SOUCIA;39130;46.5406307782;5.75722120552
SOUVANS;39380;46.9790356987;5.55350631285
ST AMOUR;39160;46.4375471402;5.33561825227
ST AUBIN;39410;47.0326920185;5.33365017851
ST BARAING;39120;46.9866522885;5.43420518172
ST CLAUDE;39200;46.408600398;5.87556247635
ST CYR MONTMALIN;39600;46.959233635;5.72305044676
ST DIDIER;39570;46.7082790966;5.51275222992
ST GERMAIN EN MONTAGNE;39300;46.7790941219;5.93796452376
ST HYMETIERE SUR VALOUSE;39240;46.3507935799;5.55838223354
ST LAMAIN;39230;46.8042039085;5.59805956986
ST LAURENT EN GRANDVAUX;39150;46.5694227071;5.96258087921
ST LOTHAIN;39230;46.8280842983;5.63947643961
ST LOUP;39120;46.9965194373;5.30532053825
ST MAUR;39570;46.6068663882;5.5959464108
ST MAURICE CRILLAT;39130;46.5680782643;5.83386083988
ST PIERRE;39150;46.5683636515;5.90301429491
ST THIEBAUD;39110;46.9717927523;5.8808709853
STE AGNES;39190;46.6148301302;5.47488282815
SUPT;39300;46.8540902792;5.9817269733
SYAM;39300;46.6963307591;5.95140796308
TASSENIERES;39120;46.9232742265;5.51257337685
TAVAUX;39500;47.0377459686;5.40319060267
TAXENNE;39350;47.2216655725;5.68668052048
THERVAY;39290;47.2404016854;5.609254394
THESY;39110;46.9050803544;5.92892150176
THOIRETTE COISIA;39240;46.2790299356;5.52403173219
THOIRIA;39130;46.5197602704;5.74628964258
THOISSIA;39160;46.4261882926;5.39554935173
TOULOUSE LE CHATEAU;39230;46.8222128801;5.58308413365
TOURMONT;39800;46.8662991195;5.66636250629
TRENAL;39190;46.6396568445;5.46886995687
TRENAL;39570;46.6396568445;5.46886995687
UXELLES;39130;46.6023318887;5.79058754069
VADANS;39600;46.9374946134;5.70594512087
VAL D EPY;39160;46.3756497717;5.39068206826
VAL D EPY;39320;46.3756497717;5.39068206826
VAL SONNETTE;39190;46.606775751;5.46350720419
VAL SURAN;39320;46.3963208;5.4577858737
VALEMPOULIERES;39300;46.8281892664;5.87420654933
VALZIN EN PETITE MONTAGNE;39240;46.4245328121;5.60694899546
VANNOZ;39300;46.7732781009;5.91191822689
VAUDREY;39380;46.9662782086;5.62672865692
VAUX LES ST CLAUDE;39360;46.354121477;5.73284459773
VAUX SUR POLIGNY;39800;46.8230228356;5.72769447335
VERGES;39570;46.6591469123;5.68477020801
VERIA;39160;46.4578080563;5.42219614387
VERNANTOIS;39570;46.6270087892;5.57793673726
VERS EN MONTAGNE;39300;46.8221705965;5.91238852828
VERS SOUS SELLIERES;39230;46.8243900195;5.52600045116
VERTAMBOZ;39130;46.6012469433;5.7478516954
VESCLES;39240;46.3570164509;5.61102870166
VEVY;39570;46.6664465955;5.66350133684
VILLARD ST SAUVEUR;39200;46.3623029643;5.86316334323
VILLARDS D HERIA;39260;46.405625846;5.73583236127
VILLENEUVE D AVAL;39600;46.9695447398;5.74785928595
VILLENEUVE SOUS PYMONT;39570;46.6949967041;5.55277319697
VILLERS FARLAY;39600;46.9938950841;5.75983191768
VILLERS LES BOIS;39120;46.9258758572;5.56896755251
VILLERS LES BOIS;39800;46.9258758572;5.56896755251
VILLERS ROBERT;39120;46.967058004;5.5201774249
VILLERSERINE;39800;46.8551002036;5.63948186279
VILLETTE LES ARBOIS;39600;46.9336037574;5.74365046163
VILLETTE LES DOLE;39100;47.0447105798;5.49409739566
VILLEVIEUX;39140;46.7279455221;5.44793336275
VINCENT FROIDEVILLE;39230;46.787754383;5.48243275672
VIRY;39360;46.2973592921;5.73090207526
VITREUX;39350;47.2539408578;5.67565099235
VOITEUR;39210;46.743219074;5.60355195147
VOSBLES VALFIN;39240;46.330813164;5.52161214243
VRIANGE;39700;47.1836632309;5.58403876359
VULVOZ;39360;46.321205129;5.78533983995
