AHUILLE;53940;48.0242749675;-0.872848003304
ALEXAIN;53240;48.2320714529;-0.735727853569
AMBRIERES LES VALLEES;53300;48.4227200634;-0.624160085775
ANDOUILLE;53240;48.1771432995;-0.792693064482
ARGENTRE;53210;48.0906663644;-0.632122843282
ARON;53440;48.3036694505;-0.549695026744
ARQUENAY;53170;47.9860121101;-0.588034521359
ASSE LE BERENGER;53600;48.155873836;-0.318587508951
ASTILLE;53230;47.9617911116;-0.846376343167
ATHEE;53400;47.8819468899;-0.93658289517
AVERTON;53700;48.3545540707;-0.210521518054
BAIS;53160;48.253257123;-0.357282017147
BALLOTS;53350;47.9040903892;-1.05880243531
BANNES;53340;47.9849130159;-0.35128628671
BAZOUGERS;53170;48.0261307912;-0.593302561904
BEAULIEU SUR OUDON;53320;47.9922207523;-0.988210034643
BEAUMONT PIED DE BOEUF;53290;47.9084771781;-0.440801679102
BELGEARD;53440;48.2517598167;-0.560135475971
BIERNE LES VILLAGES;53290;47.8071088114;-0.532804034432
BLANDOUET ST JEAN;53270;48.0403224442;-0.38824131993
BONCHAMP LES LAVAL;53960;48.067608658;-0.698304870899
BOUCHAMPS LES CRAON;53800;47.8063086126;-0.984995031745
BOUERE;53290;47.8606333035;-0.484622471494
BOUESSAY;53290;47.8721398411;-0.393398326513
BOULAY LES IFS;53370;48.4262764002;-0.138570341957
BOURGON;53410;48.1603649988;-1.04536225795
BRAINS SUR LES MARCHES;53350;47.8834759384;-1.17612675598
BRECE;53120;48.3901761265;-0.771171459793
BREE;53150;48.1564468678;-0.518044395418
CARELLES;53120;48.3887876245;-0.899702305853
CHAILLAND;53420;48.2319686385;-0.868605352742
CHALONS DU MAINE;53470;48.1595881924;-0.645569243902
CHAMPEON;53640;48.355940269;-0.513101128528
CHAMPFREMONT;53370;48.4329079781;-0.104054621774
CHAMPGENETEUX;53160;48.2936006558;-0.376248680161
CHANGE;53810;48.1079801148;-0.800104772023
CHANTRIGNE;53300;48.4131486304;-0.55989625382
CHARCHIGNE;53250;48.4142784855;-0.407005787666
CHATEAU GONTIER SUR MAYENNE;53200;47.8290067122;-0.738721767875
CHATELAIN;53200;47.8067934344;-0.596047486278
CHATILLON SUR COLMONT;53100;48.3355648035;-0.75825362219
CHEMAZE;53200;47.7785171054;-0.766233986792
CHEMERE LE ROI;53340;47.9744461326;-0.445587835574
CHERANCE;53400;47.8007098465;-0.926581399952
CHEVAIGNE DU MAINE;53250;48.4381316968;-0.400629850689
COLOMBIERS DU PLESSIS;53120;48.3876502723;-0.847201528921
COMMER;53470;48.2352391072;-0.620245484503
CONGRIER;53800;47.802801926;-1.12483688372
CONTEST;53100;48.2595526249;-0.68989469528
COSMES;53230;47.9182026802;-0.870520798099
COSSE EN CHAMPAGNE;53340;47.965084113;-0.323516283471
COSSE LE VIVIEN;53230;47.94585879;-0.934606329089
COUDRAY;53200;47.7910216372;-0.63763514955
COUESMES VAUCE;53300;48.4480572726;-0.709938389949
COUPTRAIN;53250;48.482398086;-0.291375085093
COURBEVEILLE;53230;47.9866601942;-0.888326689852
COURCITE;53700;48.3045487938;-0.253606869806
CRAON;53400;47.8454412251;-0.943066490216
CRENNES SUR FRAUBEE;53700;48.3825961037;-0.26618187335
CUILLE;53540;47.9658362794;-1.11498852858
DAON;53200;47.7578017678;-0.627519055718
DENAZE;53400;47.8809039886;-0.883191347382
DESERTINES;53190;48.4739929091;-0.875711222537
ENTRAMMES;53260;47.9934210518;-0.715102434492
ERNEE;53500;48.3039992806;-0.93628278715
EVRON;53150;48.1520198351;-0.389270176708
EVRON;53600;48.1520198351;-0.389270176708
FONTAINE COUVERTE;53350;47.9135795411;-1.13947861137
FORCE;53260;48.0292171678;-0.704215110969
FOUGEROLLES DU PLESSIS;53190;48.4830723517;-0.945714822072
FROMENTIERES;53200;47.8718387269;-0.667772720385
GASTINES;53540;47.9398573687;-1.11199461377
GENNES LONGUEFUYE;53200;47.8440286792;-0.586296420609
GESNES;53150;48.1503325044;-0.593903165779
GESVRES;53370;48.3761066055;-0.163693410236
GORRON;53120;48.4219397405;-0.8016203216
GRAZAY;53440;48.2855176903;-0.47627228769
GREZ EN BOUERE;53290;47.8703920979;-0.537813247538
HAMBERS;53160;48.2543518824;-0.425847827344
HARDANGES;53640;48.34114678;-0.405714149833
HERCE;53120;48.4229725052;-0.860571595419
HOUSSAY;53360;47.9107835548;-0.744633552583
IZE;53160;48.225304458;-0.301409019014
JAVRON LES CHAPELLES;53250;48.4208361061;-0.330959453036
JUBLAINS;53160;48.2455340373;-0.498318427927
JUVIGNE;53380;48.2356053561;-1.02188545282
L HUISSERIE;53970;48.0167338344;-0.766387903128
LA BACONNIERE;53240;48.1750815634;-0.900384999021
LA BAZOGE MONTPINCON;53440;48.2714381316;-0.58389369345
LA BAZOUGE DE CHEMERE;53170;48.007363424;-0.504663561789
LA BAZOUGE DES ALLEUX;53470;48.1864442528;-0.601360078693
LA BIGOTTIERE;53240;48.2226908203;-0.795648692425
LA BOISSIERE;53800;47.7725380187;-0.978568477474
LA BRULATTE;53410;48.0896249185;-0.973295963828
LA CHAPELLE ANTHENAISE;53950;48.1320145418;-0.660149410464
LA CHAPELLE AU RIBOUL;53440;48.3161643792;-0.432803278756
LA CHAPELLE CRAONNAISE;53230;47.9020169468;-0.908547347571
LA CHAPELLE RAINSOUIN;53150;48.0968923633;-0.527783702085
LA CROIXILLE;53380;48.1972333653;-1.04159689946
LA CROPTE;53170;47.9540718566;-0.491505968258
LA DOREE;53190;48.4480675066;-0.96796934022
LA GRAVELLE;53410;48.0812094944;-1.0243127895
LA HAIE TRAVERSAINE;53300;48.3586109255;-0.613698907752
LA PALLU;53140;48.5047614159;-0.297114491021
LA PELLERINE;53220;48.3204300872;-1.03408740843
LA ROCHE NEUVILLE;53200;47.8683528572;-0.737119476827
LA ROCHE NEUVILLE;53360;47.8683528572;-0.737119476827
LA ROE;53350;47.8910085582;-1.10255581049
LA ROUAUDIERE;53390;47.8380947101;-1.18557298037
LA SELLE CRAONNAISE;53800;47.8467586768;-1.05851023151
LANDIVY;53190;48.4787671606;-1.03882246254
LARCHAMP;53220;48.3492150628;-1.00336742476
LASSAY LES CHATEAUX;53110;48.4421089808;-0.498821106653
LAUBRIERES;53540;47.9483524885;-1.07070944071
LAUNAY VILLIERS;53410;48.1329122905;-1.0116324097
LAVAL;53000;48.0608565468;-0.766005687142
LE BIGNON DU MAINE;53170;47.9514202879;-0.625482366182
LE BOURGNEUF LA FORET;53410;48.164229969;-0.977903623792
LE BURET;53170;47.9188428297;-0.500867794601
LE GENEST ST ISLE;53940;48.104173372;-0.895219707599
LE HAM;53250;48.3736183022;-0.353133097864
LE HORPS;53640;48.3894551796;-0.46306709899
LE HOUSSEAU BRETIGNOLLES;53110;48.4707455149;-0.537332465722
LE PAS;53300;48.4219636252;-0.694714292765
LE RIBAY;53640;48.3782564166;-0.415575081434
LESBOIS;53120;48.4514022952;-0.793461282551
LEVARE;53120;48.4188847;-0.907330477374
LIGNIERES ORGERES;53140;48.5288919372;-0.212232237721
LIVET;53150;48.1116444392;-0.462684976775
LIVRE LA TOUCHE;53400;47.8891404451;-0.992643026604
LOIRON RUILLE;53320;48.0630179288;-0.919282481771
LOUPFOUGERES;53700;48.3321259289;-0.352428366281
LOUVERNE;53950;48.1255057038;-0.711543672275
LOUVIGNE;53210;48.0547197919;-0.634640720339
MADRE;53250;48.4702152337;-0.375712672997
MAISONCELLES DU MAINE;53170;47.9677800474;-0.660519989345
MARCILLE LA VILLE;53440;48.3246621329;-0.480574121834
MARIGNE PEUTON;53200;47.8580802657;-0.798902117267
MARTIGNE SUR MAYENNE;53470;48.2026950175;-0.661054831138
MAYENNE;53100;48.3074609449;-0.614799950799
MEE;53400;47.8016835943;-0.865499945684
MENIL;53200;47.7638591117;-0.687864580509
MERAL;53230;47.9514671567;-1.0154942248
MESLAY DU MAINE;53170;47.9469156243;-0.558693863131
MEZANGERS;53600;48.2005441476;-0.449609961038
MONTAUDIN;53220;48.3809154323;-0.97983082547
MONTENAY;53500;48.2791740131;-0.892252753941
MONTFLOURS;53240;48.1697752785;-0.726176866371
MONTIGNE LE BRILLANT;53970;48.013438147;-0.816955445143
MONTJEAN;53320;48.0081888709;-0.941581146475
MONTREUIL POULAY;53640;48.385896935;-0.535818668483
MONTSURS;53150;48.1342883147;-0.552017747624
MOULAY;53100;48.2651790153;-0.621214314022
NEAU;53150;48.1701789884;-0.474651575361
NEUILLY LE VENDIN;53250;48.4904833451;-0.326146757248
NIAFLES;53400;47.8465834119;-0.99977658744
NUILLE SUR VICOIN;53970;47.9802789281;-0.779212405934
OISSEAU;53300;48.3617009398;-0.667360504455
OLIVET;53410;48.1207608153;-0.935026988481
ORIGNE;53360;47.9525235676;-0.734592990077
PARIGNE SUR BRAYE;53100;48.3232727343;-0.647230020006
PARNE SUR ROC;53260;48.0096895482;-0.66530040528
PEUTON;53360;47.8891706831;-0.813068776889
PLACE;53240;48.2644178522;-0.775676155113
POMMERIEUX;53400;47.8279468794;-0.899677522032
PONTMAIN;53220;48.4336187982;-1.06521474954
PORT BRILLET;53410;48.1212899945;-0.963949064008
PRE EN PAIL ST SAMSON;53140;48.4470393586;-0.196704985828
PREAUX;53340;47.9370817742;-0.464953364883
PREE D ANJOU;53200;47.8446027753;-0.835394769225
QUELAINES ST GAULT;53360;47.9279241835;-0.79917074746
RAVIGNY;53370;48.4424919751;-0.0682909455819
RENAZE;53800;47.7843103989;-1.040222995
RENNES EN GRENOUILLES;53110;48.4909507271;-0.507002879374
RUILLE FROID FONDS;53170;47.9061787546;-0.625211049544
SACE;53470;48.1800800197;-0.699374640093
SAULGES;53340;47.9761126561;-0.405978103131
SENONNES;53390;47.8069754528;-1.19638617309
SIMPLE;53360;47.8831198696;-0.854685550737
SOUCE;53300;48.4670641596;-0.67042009651
SOULGE SUR OUETTE;53210;48.0623593247;-0.558425301844
ST AIGNAN DE COUPTRAIN;53250;48.4595906728;-0.301358440713
ST AIGNAN SUR ROE;53390;47.8498132435;-1.14052509792
ST AUBIN DU DESERT;53700;48.3147006248;-0.184927866306
ST AUBIN FOSSE LOUVAIN;53120;48.4490661735;-0.836056782555
ST BAUDELLE;53100;48.2871604216;-0.650878906901
ST BERTHEVIN;53940;48.0702234162;-0.845217269922
ST BERTHEVIN LA TANNIERE;53220;48.4068199721;-0.947577369365
ST BRICE;53290;47.8614989489;-0.439457256097
ST CALAIS DU DESERT;53140;48.490532997;-0.250672513735
ST CHARLES LA FORET;53170;47.9194763101;-0.56890485725
ST CYR EN PAIL;53140;48.4338588382;-0.253528252762
ST CYR LE GRAVELAIS;53320;48.038695875;-1.00495049618
ST DENIS D ANJOU;53290;47.7899907217;-0.443836396748
ST DENIS DE GASTINES;53500;48.3469457308;-0.87082653269
ST DENIS DU MAINE;53170;47.9806121004;-0.521686670231
ST ELLIER DU MAINE;53220;48.404060159;-1.04037083091
ST ERBLON;53390;47.7867130682;-1.15831425112
ST FRAIMBAULT DE PRIERES;53300;48.3488678421;-0.574505181437
ST GEORGES BUTTAVENT;53100;48.3009765177;-0.709948140576
ST GEORGES LE FLECHARD;53480;48.0359442394;-0.514840617722
ST GEORGES SUR ERVE;53600;48.1772730015;-0.292545458166
ST GERMAIN D ANXURE;53240;48.2180775188;-0.734109264327
ST GERMAIN DE COULAMER;53700;48.2677488568;-0.185983201965
ST GERMAIN LE FOUILLOUX;53240;48.1404679817;-0.812282389838
ST GERMAIN LE GUILLAUME;53240;48.2074057351;-0.827228115733
ST HILAIRE DU MAINE;53380;48.2230674956;-0.930972405821
ST JEAN SUR MAYENNE;53240;48.1413153806;-0.752524079247
ST JULIEN DU TERROUX;53110;48.4835428783;-0.409443392744
ST LEGER;53480;48.0862593313;-0.446252425773
ST LOUP DU DORAT;53290;47.8857485976;-0.423854225277
ST LOUP DU GAST;53300;48.3871907627;-0.584446559338
ST MARS DU DESERT;53700;48.295036747;-0.169490797785
ST MARS SUR COLMONT;53300;48.3829153295;-0.708965390881
ST MARS SUR LA FUTAIE;53220;48.4310961702;-1.01165240815
ST MARTIN DE CONNEE;53160;48.2263014135;-0.246813322677
ST MARTIN DU LIMET;53800;47.8147228072;-1.02874130308
ST MICHEL DE LA ROE;53350;47.8723222093;-1.12403931554
ST OUEN DES TOITS;53410;48.1425474962;-0.892808198068
ST PIERRE DES LANDES;53500;48.2883947917;-1.02805097575
ST PIERRE DES NIDS;53370;48.3981189139;-0.108578317473
ST PIERRE LA COUR;53410;48.1084439296;-1.02377898526
ST PIERRE SUR ERVE;53270;48.0122977006;-0.410540706359
ST PIERRE SUR ORTHE;53160;48.2283647918;-0.193084867876
ST POIX;53540;47.9663369335;-1.04358876565
ST QUENTIN LES ANGES;53400;47.777433487;-0.874589070438
ST SATURNIN DU LIMET;53800;47.8160669984;-1.08925376057
ST THOMAS DE COURCERIERS;53160;48.2645467758;-0.265751898423
STE GEMMES LE ROBERT;53600;48.2045535141;-0.373170787282
STE MARIE DU BOIS;53110;48.4689132651;-0.483184155223
STE SUZANNE ET CHAMMES;53270;48.1028813013;-0.354680320285
THORIGNE EN CHARNIE;53270;48.005707604;-0.359572558274
THUBOEUF;53110;48.4958782313;-0.453905832076
TORCE VIVIERS EN CHARNIE;53270;48.0968755142;-0.27150595519
TRANS;53160;48.2832532915;-0.308341418341
VAIGES;53480;48.0506374243;-0.471285801786
VAL DU MAINE;53340;47.9369072798;-0.415963016327
VAUTORTE;53500;48.2983458845;-0.823100560436
VIEUVY;53120;48.446058835;-0.877620263394
VILLAINES LA JUHEL;53700;48.3394105228;-0.292005010106
VILLEPAIL;53250;48.4031461586;-0.264153409415
VILLIERS CHARLEMAGNE;53170;47.9250890496;-0.682830873383
VIMARCE;53160;48.1878029439;-0.231085796657
VOUTRE;53600;48.1374251351;-0.29251688071
