ABANCOURT;59268;50.2368696873;3.20731301738
ABSCON;59215;50.3283410844;3.29787586969
AIBES;59149;50.233709404;4.09622701433
AIX EN PEVELE;59310;50.498421043;3.30536772065
ALLENNES LES MARAIS;59251;50.5417063572;2.94865877262
AMFROIPRET;59144;50.2776390302;3.73565394566
ANHIERS;59194;50.4047718446;3.15371031857
ANICHE;59580;50.330855319;3.25574141604
ANNEUX;59400;50.1570164384;3.12505671113
ANNOEULLIN;59112;50.5265153703;2.92753629479
ANOR;59186;49.9949415311;4.11785622281
ANSTAING;59152;50.603523536;3.18920215192
ANZIN;59410;50.3753643424;3.51113183833
ARLEUX;59151;50.2820675827;3.11314479871
ARMBOUTS CAPPEL;59380;50.981590247;2.34855524915
ARMENTIERES;59280;50.6913797537;2.8797155328
ARNEKE;59285;50.8416889858;2.41843292762
ARTRES;59269;50.2956596119;3.53884943565
ASSEVENT;59600;50.2884411784;4.01973285077
ATTICHES;59551;50.5138938279;3.06223374765
AUBENCHEUL AU BAC;59265;50.2518526914;3.16168773742
AUBERCHICOURT;59165;50.3299785774;3.22782402703
AUBERS;59249;50.5960514415;2.81995366841
AUBIGNY AU BAC;59265;50.2659759447;3.16874604317
AUBRY DU HAINAUT;59494;50.3759590091;3.4522066329
AUBY;59950;50.4142959158;3.06115822735
AUCHY LEZ ORCHIES;59310;50.480622996;3.19519541331
AUDIGNIES;59570;50.2783465062;3.82456125193
AULNOY LEZ VALENCIENNES;59300;50.3261545044;3.53764264287
AULNOYE AYMERIES;59620;50.2058749072;3.83263118494
AVELIN;59710;50.5397882047;3.08608433822
AVESNELLES;59440;50.1056589526;3.95096845588
AVESNES LE SEC;59296;50.2483988689;3.37145460907
AVESNES LES AUBERT;59129;50.1911782213;3.37676857334
AVESNES SUR HELPE;59440;50.1242937124;3.92754898552
AWOINGT;59400;50.153637436;3.28601914646
BACHANT;59138;50.2081006997;3.8751600192
BACHY;59830;50.5435916608;3.26883958433
BAILLEUL;59270;50.7274252798;2.7379912081
BAISIEUX;59780;50.6111718868;3.24121907398
BAIVES;59132;50.0673923236;4.20393625141
BAMBECQUE;59470;50.9087831017;2.56046766711
BANTEUX;59266;50.0656630113;3.18790046791
BANTIGNY;59554;50.2342835957;3.23612444557
BANTOUZELLE;59266;50.0579473391;3.22511810175
BAS LIEU;59440;50.1443528184;3.95104519087
BAUVIN;59221;50.5162714452;2.89367809062
BAVAY;59570;50.2936087618;3.80308794658
BAVINCHOVE;59670;50.7749510357;2.44160500507
BAZUEL;59360;50.0816021977;3.59590423049
BEAUCAMPS LIGNY;59134;50.6062622747;2.9147903974
BEAUDIGNIES;59530;50.2296082323;3.58590888572
BEAUFORT;59330;50.2183201415;3.96567972154
BEAUMONT EN CAMBRESIS;59540;50.1265847908;3.45162407092
BEAURAIN;59730;50.1779797016;3.55059200886
BEAUREPAIRE SUR SAMBRE;59550;50.0605483796;3.79605984174
BEAURIEUX;59740;50.1779588737;4.13702062275
BEAUVOIS EN CAMBRESIS;59157;50.1403335661;3.38449590227
BELLAING;59135;50.3659312022;3.42553238229
BELLIGNIES;59570;50.3225210245;3.76276954523
BERELLES;59740;50.2136798325;4.10541703727
BERGUES;59380;50.9691920635;2.43268784817
BERLAIMONT;59145;50.2057229954;3.79391306597
BERMERAIN;59213;50.2575420594;3.5398919082
BERMERIES;59570;50.2847571566;3.74905320173
BERSEE;59235;50.4804538835;3.15078397856
BERSILLIES;59600;50.3244968872;3.99559417236
BERTHEN;59270;50.7779383016;2.6875622719
BERTRY;59980;50.0823963526;3.43983505864
BETHENCOURT;59540;50.1426560397;3.42342136756
BETTIGNIES;59600;50.3323628525;3.9686190609
BETTRECHIES;59570;50.3221407699;3.74013412317
BEUGNIES;59216;50.1628708508;3.99516722908
BEUVRAGES;59192;50.3883826633;3.50595410504
BEUVRY LA FORET;59310;50.4499686964;3.28271096457
BEVILLERS;59217;50.158314463;3.39072994469
BIERNE;59380;50.9713270565;2.40211995661
BISSEZEELE;59380;50.9131167962;2.40661835313
BLARINGHEM;59173;50.6905234393;2.409606447
BLECOURT;59268;50.2175061105;3.21286001901
BOESCHEPE;59299;50.7989980219;2.69937041713
BOESEGHEM;59189;50.6691135946;2.44242706344
BOIS GRENIER;59280;50.6487129112;2.87274435291
BOLLEZEELE;59470;50.8652273621;2.34136933381
BONDUES;59910;50.7096656233;3.09529083038
BORRE;59190;50.731528018;2.58086143092
BOUCHAIN;59111;50.2808463643;3.3121651121
BOULOGNE SUR HELPE;59440;50.0790302636;3.89209548407
BOURBOURG;59630;50.9424001702;2.20355448436
BOURGHELLES;59830;50.5637205192;3.24739149692
BOURSIES;59400;50.1408057238;3.04441612391
BOUSBECQUE;59166;50.7638184317;3.07542848088
BOUSIES;59222;50.151363705;3.61511089589
BOUSIGNIES;59178;50.4302087604;3.35488860191
BOUSIGNIES SUR ROC;59149;50.2638826677;4.18728654005
BOUSSIERES EN CAMBRESIS;59217;50.1638275467;3.37224279409
BOUSSIERES SUR SAMBRE;59330;50.2410266122;3.8784480036
BOUSSOIS;59168;50.2948725712;4.04711513653
BOUVIGNIES;59870;50.432750868;3.23662350637
BOUVINES;59830;50.5822303153;3.19348904281
BRAY DUNES;59123;51.0730436867;2.52764870458
BRIASTRE;59730;50.154815937;3.48675100947
BRILLON;59178;50.4339939197;3.33534225599
BROUCKERQUE;59630;50.9515630712;2.28707334994
BROXEELE;59470;50.8279362343;2.32136721551
BRUAY SUR L ESCAUT;59860;50.3973093421;3.53909152804
BRUILLE LEZ MARCHIENNES;59490;50.3559112318;3.24310396614
BRUILLE ST AMAND;59199;50.4652689949;3.50624365329
BRUNEMONT;59151;50.2745061343;3.14482312096
BRY;59144;50.3162997425;3.68368839887
BUGNICOURT;59151;50.2910659273;3.15468753018
BUSIGNY;59137;50.0375979868;3.46602965443
BUYSSCHEURE;59285;50.806582613;2.33507855755
CAESTRE;59190;50.7566001349;2.60456655751
CAGNONCLES;59161;50.185423787;3.31868765658
CAMBRAI;59400;50.1702775977;3.24221021072
CAMPHIN EN CAREMBAULT;59133;50.5106436194;2.99165906644
CAMPHIN EN PEVELE;59780;50.5923766053;3.25767476267
CANTAING SUR ESCAUT;59267;50.1451657481;3.15708777258
CANTIN;59169;50.3097701017;3.1238994061
CAPELLE;59213;50.2401009671;3.56039393735
CAPINGHEM;59160;50.6474745374;2.96473852343
CAPPELLE BROUCK;59630;50.8938368005;2.22204306272
CAPPELLE EN PEVELE;59242;50.5045434166;3.17433068381
CAPPELLE LA GRANDE;59180;50.9960740777;2.37003367458
CARNIERES;59217;50.1649512039;3.34587128459
CARNIN;59112;50.5196965937;2.96024467267
CARTIGNIES;59244;50.0779397385;3.84271561148
CASSEL;59670;50.795681277;2.49423243668
CATILLON SUR SAMBRE;59360;50.0704090435;3.64485751091
CATTENIERES;59217;50.1329900452;3.33660861697
CAUDRY;59540;50.1187185043;3.4192394153
CAULLERY;59191;50.0824546804;3.37276572782
CAUROIR;59400;50.1720373952;3.29914293305
CERFONTAINE;59680;50.2591419146;4.02505740703
CHATEAU L ABBAYE;59230;50.4858024683;3.47414949128
CHEMY;59147;50.5317873736;2.99537239927
CHERENG;59152;50.6108890768;3.20972154636
CHOISIES;59740;50.212677337;4.04878255804
CLAIRFAYTS;59740;50.1564472386;4.12464922424
CLARY;59225;50.0684086956;3.39589708434
COBRIEUX;59830;50.5391896198;3.24034953595
COLLERET;59680;50.2598488269;4.084768244
COMINES;59560;50.7497420422;3.01679477405
CONDE SUR L ESCAUT;59163;50.4678612037;3.60589087978
COUDEKERQUE BRANCHE;59210;51.0179541343;2.39580832593
COURCHELETTES;59552;50.3421628278;3.05975008268
COUSOLRE;59149;50.2372536419;4.15308223751
COUTICHES;59310;50.4501366141;3.19335565357
CRAYWICK;59279;50.9726285741;2.22142508421
CRESPIN;59154;50.4217331557;3.65237979993
CREVECOEUR SUR L ESCAUT;59258;50.0727577904;3.26867770233
CROCHTE;59380;50.9238758959;2.39595026667
CROIX;59170;50.6740689994;3.15464041723
CROIX CALUYAU;59222;50.152088377;3.58548579583
CUINCY;59553;50.3743818914;3.03412629786
CURGIES;59990;50.3253821605;3.60666630753
CUVILLERS;59268;50.2219798771;3.23832511042
CYSOING;59830;50.5639123041;3.21398704215
DAMOUSIES;59680;50.2195042293;4.00850987305
DECHY;59187;50.3495940778;3.1299861719
DEHERIES;59127;50.0505594446;3.34352939122
DENAIN;59220;50.3299660733;3.3898623357
DEULEMONT;59890;50.7280171454;2.96967815507
DIMECHAUX;59740;50.1970283505;4.04666180439
DIMONT;59216;50.1830406458;4.02228377235
DOIGNIES;59400;50.1321485769;3.01379384494
DOMPIERRE SUR HELPE;59440;50.1420178536;3.8595206672
DON;59272;50.5440489811;2.91557809769
DOUAI;59500;50.3823195335;3.09145683114
DOUCHY LES MINES;59282;50.2994352925;3.38947295524
DOURLERS;59440;50.1745636905;3.94546756925
DRINCHAM;59630;50.9104379281;2.31996661732
DUNKERQUE;59140;51.0307229078;2.33752414095
DUNKERQUE;59240;51.0307229078;2.33752414095
DUNKERQUE;59279;51.0307229078;2.33752414095
DUNKERQUE;59430;51.0307229078;2.33752414095
DUNKERQUE;59640;51.0307229078;2.33752414095
EBBLINGHEM;59173;50.734564266;2.41884672597
ECAILLON;59176;50.3482315234;3.21529635453
ECCLES;59740;50.1988413348;4.09813341605
ECLAIBES;59330;50.1999798551;3.93837593672
ECUELIN;59620;50.1924531151;3.89604149257
EECKE;59114;50.7800648549;2.59723080781
ELESMES;59600;50.3048578036;4.01140019092
ELINCOURT;59127;50.0457660349;3.37059499043
EMERCHICOURT;59580;50.3117441641;3.25561088678
EMMERIN;59320;50.5908761975;3.00549490357
ENGLEFONTAINE;59530;50.1933240477;3.64157019307
ENGLOS;59320;50.6262888459;2.9579931684
ENNETIERES EN WEPPES;59320;50.640484704;2.93312247961
ENNEVELIN;59710;50.5387195422;3.12792567754
EPPE SAUVAGE;59132;50.1185512931;4.16530475504
ERCHIN;59169;50.3168262116;3.17348026694
ERINGHEM;59470;50.889329927;2.31351250902
ERQUINGHEM LE SEC;59320;50.6103293262;2.93381789085
ERQUINGHEM LYS;59193;50.6700847929;2.84140786831
ERRE;59171;50.3693524443;3.31597211762
ESCARMAIN;59213;50.2236333668;3.54874778179
ESCAUDAIN;59124;50.3339160351;3.34129451552
ESCAUDOEUVRES;59161;50.1924313857;3.27406978358
ESCAUTPONT;59278;50.4239013457;3.5531225813
ESCOBECQUES;59320;50.6212631237;2.93273720306
ESNES;59127;50.0953832001;3.30848102705
ESQUELBECQ;59470;50.8902971553;2.42902144416
ESQUERCHIN;59553;50.3859330394;3.00649318201
ESTAIRES;59940;50.654423304;2.72156583757
ESTOURMEL;59400;50.1518286613;3.32132515587
ESTREES;59151;50.2977355864;3.07513052042
ESTREUX;59990;50.3527239271;3.60184515387
ESTRUN;59295;50.2447242764;3.29498867507
ESWARS;59161;50.2182439323;3.26546336103
ETH;59144;50.3253571369;3.66687653832
ETROEUNGT;59219;50.0620601477;3.94319652795
FACHES THUMESNIL;59155;50.593618421;3.07229537426
FAMARS;59300;50.3123396289;3.52179790977
FAUMONT;59310;50.4531008477;3.13526855992
FECHAIN;59247;50.268615561;3.212900112
FEIGNIES;59750;50.2944744456;3.90909278075
FELLERIES;59740;50.1407847953;4.05118081621
FENAIN;59179;50.3681590708;3.30010560597
FERIN;59169;50.3309978415;3.08128816904
FERON;59610;50.0482056585;4.01906957461
FERRIERE LA GRANDE;59680;50.2456386476;3.99089727257
FERRIERE LA PETITE;59680;50.2403988666;4.02739766598
FLAUMONT WAUDRECHIES;59440;50.1311318318;3.96984931969
FLERS EN ESCREBIEUX;59128;50.401307148;3.05136553917
FLESQUIERES;59267;50.1238325838;3.11938780816
FLETRE;59270;50.758011537;2.64096480956
FLINES LES MORTAGNE;59158;50.5128551387;3.48452339444
FLINES LEZ RACHES;59148;50.4164214514;3.18241517385
FLOURSIES;59440;50.1863221041;3.97166819813
FLOYON;59219;50.0412036226;3.88418001471
FONTAINE AU BOIS;59550;50.1363749485;3.64250579372
FONTAINE AU PIRE;59157;50.127252452;3.36673958113
FONTAINE NOTRE DAME;59400;50.1686299394;3.16830361827
FOREST EN CAMBRESIS;59222;50.1406649942;3.57049484282
FOREST SUR MARQUE;59510;50.6330739631;3.18918578659
FOURMIES;59610;50.006893732;4.05775002509
FOURNES EN WEPPES;59134;50.5917277363;2.89362071865
FRASNOY;59530;50.2750060846;3.66453718802
FRELINGHIEN;59236;50.703109663;2.95178380263
FRESNES SUR ESCAUT;59970;50.432489562;3.57931049864
FRESSAIN;59234;50.2829594632;3.19200167251
FRESSIES;59268;50.2494910786;3.18888373782
FRETIN;59273;50.5653657611;3.1322045776
FROMELLES;59249;50.6109686203;2.85464946616
GENECH;59242;50.5285200565;3.22237664062
GHISSIGNIES;59530;50.2277589853;3.61633962969
GHYVELDE;59122;51.0486014481;2.51379722419
GHYVELDE;59254;51.0486014481;2.51379722419
GLAGEON;59132;50.0506114879;4.06404937092
GODEWAERSVELDE;59270;50.7950511501;2.6455520339
GOEULZIN;59169;50.3185089576;3.09937496212
GOGNIES CHAUSSEE;59600;50.3269897728;3.94228730102
GOMMEGNIES;59144;50.2650047987;3.70836085584
GONDECOURT;59147;50.5478874512;2.98009724993
GONNELIEU;59231;50.059740161;3.15907798363
GOUZEAUCOURT;59231;50.0555182827;3.11588275361
GRAND FAYT;59244;50.1123607999;3.79567600764
GRAND FORT PHILIPPE;59153;50.9994095872;2.10036684474
GRANDE SYNTHE;59760;51.0167874642;2.29071143357
GRAVELINES;59820;50.9975626638;2.14413046485
GRUSON;59152;50.5924125411;3.21559274036
GUESNAIN;59287;50.3483461671;3.14816711364
GUSSIGNIES;59570;50.3405832772;3.74998509899
HALLENNES LEZ HAUBOURDIN;59320;50.6120409794;2.95454404454
HALLUIN;59250;50.7747480298;3.12692474358
HAMEL;59151;50.2819824197;3.06850591061
HANTAY;59496;50.5374677667;2.86845922313
HARDIFORT;59670;50.8187124794;2.48138038993
HARGNIES;59138;50.2577740991;3.84173807004
HASNON;59178;50.4127809249;3.38752842826
HASPRES;59198;50.2650877152;3.41176296658
HAUBOURDIN;59320;50.6044150332;2.98727183184
HAUCOURT EN CAMBRESIS;59191;50.1068286942;3.34360726309
HAULCHIN;59121;50.3133069663;3.42273486523
HAUSSY;59294;50.2223988964;3.4797106662
HAUT LIEU;59440;50.1031693794;3.90753338648
HAUTMONT;59330;50.2478507103;3.91948913803
HAVELUY;59255;50.3537384586;3.40310314362
HAVERSKERQUE;59660;50.6403332971;2.54677365157
HAYNECOURT;59268;50.2094536408;3.15541640096
HAZEBROUCK;59190;50.7262967113;2.53864301455
HECQ;59530;50.1795272818;3.65140738395
HELESMES;59171;50.3677526981;3.35840586833
HEM;59510;50.6548049456;3.19305632608
HEM LENGLET;59247;50.2528760846;3.22719072906
HERGNIES;59199;50.4809811628;3.53133874107
HERIN;59195;50.3588545059;3.44801878538
HERLIES;59134;50.5816535581;2.8531853808
HERRIN;59147;50.5495900938;2.96246977042
HERZEELE;59470;50.8810801461;2.53001631051
HESTRUD;59740;50.2030928421;4.13978408262
HOLQUE;59143;50.856500023;2.2050645429
HON HERGIES;59570;50.3348329757;3.82037377932
HONDEGHEM;59190;50.7552272301;2.5153551845
HONDSCHOOTE;59122;50.971669311;2.58828514944
HONNECHY;59980;50.0677939071;3.48120463527
HONNECOURT SUR ESCAUT;59266;50.0343460681;3.20211189134
HORDAIN;59111;50.2597936195;3.32675271349
HORNAING;59171;50.3696239428;3.33594044996
HOUDAIN LEZ BAVAY;59570;50.3294305775;3.78664727295
HOUPLIN ANCOISNE;59263;50.5699205029;2.99498019167
HOUPLINES;59116;50.6841292085;2.92646496256
HOUTKERQUE;59470;50.8825678923;2.58249154938
HOYMILLE;59492;50.9727799567;2.45547219579
ILLIES;59480;50.5626769272;2.82845132596
INCHY;59540;50.1219699248;3.47168074868
IWUY;59141;50.233598422;3.33623347454
JENLAIN;59144;50.3097021009;3.63092596962
JEUMONT;59460;50.2913767196;4.10405698183
JOLIMETZ;59530;50.2290109948;3.67767939299
KILLEM;59122;50.9575597067;2.55978032528
LA BASSEE;59480;50.5397647046;2.80910290453
LA CHAPELLE D ARMENTIERES;59930;50.6659536434;2.89558804665
LA FLAMENGRIE;59570;50.3066443243;3.72273889632
LA GORGUE;59253;50.6309281138;2.73945543193
LA GROISE;59360;50.0763719216;3.6815589114
LA LONGUEVILLE;59570;50.2961357977;3.87102048316
LA MADELEINE;59110;50.6548883138;3.06963722507
LA NEUVILLE;59239;50.4968963031;3.05358974895
LA SENTINELLE;59174;50.3486299909;3.47455507349
LALLAING;59167;50.3864016974;3.16880269409
LAMBERSART;59130;50.6522053005;3.02491174276
LAMBRES LEZ DOUAI;59552;50.3542349649;3.05466709825
LANDAS;59310;50.4726958028;3.29518086014
LANDRECIES;59550;50.1205093509;3.68851283044
LANNOY;59390;50.666027423;3.21037021622
LAROUILLIES;59219;50.0378159159;3.93206496317
LAUWIN PLANQUE;59553;50.3929252275;3.02930995162
LE CATEAU CAMBRESIS;59360;50.0920093814;3.53922472873
LE DOULIEU;59940;50.6800093864;2.69977444114
LE FAVRIL;59550;50.0938595271;3.71988086994
LE MAISNIL;59134;50.6182693489;2.87754636769
LE QUESNOY;59530;50.2506593981;3.62486177207
LECELLES;59226;50.474778936;3.39878461837
LECLUSE;59259;50.2765109082;3.03054584973
LEDERZEELE;59143;50.8134333231;2.29316091241
LEDRINGHEM;59470;50.862026516;2.44478876781
LEERS;59115;50.6813150077;3.23964411032
LEFFRINCKOUCKE;59495;51.0479753617;2.45468596825
LES RUES DES VIGNES;59258;50.0758341626;3.23349040866
LESDAIN;59258;50.0926261924;3.27595747456
LESQUIN;59810;50.5892285666;3.11191934713
LEVAL;59620;50.180651266;3.83355819928
LEWARDE;59287;50.3367323265;3.16865198714
LEZ FONTAINE;59740;50.1733832806;4.06309065769
LEZENNES;59260;50.6111691928;3.11824226491
LIESSIES;59740;50.1049349578;4.07726257108
LIEU ST AMAND;59111;50.2722406252;3.3493708028
LIGNY EN CAMBRESIS;59191;50.1025067499;3.37859262548
LILLE;59000;50.6317183168;3.04783272312
LILLE;59160;50.6317183168;3.04783272312
LILLE;59260;50.6317183168;3.04783272312
LILLE;59777;50.6317183168;3.04783272312
LILLE;59800;50.6317183168;3.04783272312
LIMONT FONTAINE;59330;50.2155213802;3.92291118633
LINSELLES;59126;50.7361350171;3.0744786004
LOCQUIGNOL;59530;50.2033505573;3.7334425782
LOFFRE;59182;50.3537253099;3.17227962058
LOMPRET;59840;50.6631680443;2.99516100327
LOOBERGHE;59630;50.912741374;2.2751678981
LOON PLAGE;59279;51.0012144614;2.22304802432
LOOS;59120;50.608350368;3.02066096506
LOURCHES;59156;50.3111500417;3.35745797918
LOUVIGNIES QUESNOY;59530;50.2165903097;3.64008191069
LOUVIL;59830;50.5567255467;3.18952793321
LOUVROIL;59720;50.2577866904;3.95387643411
LYNDE;59173;50.7186012441;2.43465079994
LYS LEZ LANNOY;59390;50.6721775091;3.2172382556
MAING;59233;50.3036687499;3.48802239874
MAIRIEUX;59600;50.3136654011;3.97327891565
MALINCOURT;59127;50.0351942091;3.32471130413
MARBAIX;59440;50.1280580168;3.83650655237
MARCHIENNES;59870;50.414280284;3.26362216805
MARCOING;59159;50.1144749853;3.17343200113
MARCQ EN BAROEUL;59700;50.6753348557;3.10093583816
MARCQ EN OSTREVENT;59252;50.2876828642;3.23484427567
MARESCHES;59990;50.2940290785;3.57606019881
MARETZ;59238;50.0450861132;3.42038871212
MARLY;59770;50.3452442077;3.55000999792
MAROILLES;59550;50.1319269189;3.75814901282
MARPENT;59164;50.2913562157;4.07637705799
MARQUETTE EN OSTREVANT;59252;50.2921413356;3.2707273524
MARQUETTE LEZ LILLE;59520;50.67409511;3.05886328577
MARQUILLIES;59274;50.5507925122;2.86815833452
MASNIERES;59241;50.104659247;3.20208772877
MASNY;59176;50.341241582;3.19548470018
MASTAING;59172;50.3064012156;3.29792589761
MAUBEUGE;59600;50.283630719;3.96328053037
MAULDE;59158;50.4952908946;3.42538565597
MAUROIS;59980;50.0727158621;3.4590777682
MAZINGHIEN;59360;50.049448426;3.59700862525
MECQUIGNIES;59570;50.2704309321;3.80248207777
MERCKEGHEM;59470;50.8699396008;2.27783454706
MERIGNIES;59710;50.5069205161;3.12172446457
MERRIS;59270;50.7178435961;2.6572770613
MERVILLE;59660;50.6449293889;2.63582653422
METEREN;59270;50.7479005121;2.67634884839
MILLAM;59143;50.8559210958;2.25120770329
MILLONFOSSE;59178;50.4291924594;3.37701536636
MOEUVRES;59400;50.1602158423;3.06781891746
MONCEAU ST WAAST;59620;50.1717846537;3.85726023625
MONCHAUX SUR ECAILLON;59224;50.2838656974;3.4581039292
MONCHEAUX;59283;50.456566302;3.08800670538
MONCHECOURT;59234;50.3061963745;3.21073984637
MONS EN BAROEUL;59370;50.6432478699;3.1087677878
MONS EN PEVELE;59246;50.4819644352;3.10317921728
MONTAY;59360;50.1222064074;3.53460777852
MONTIGNY EN CAMBRESIS;59225;50.0910970595;3.41429656763
MONTIGNY EN OSTREVENT;59182;50.3682405226;3.18011986506
MONTRECOURT;59227;50.2256590135;3.44600124957
MORBECQUE;59190;50.6768934286;2.53621614433
MORTAGNE DU NORD;59158;50.5001515803;3.45327380801
MOUCHIN;59310;50.5168601993;3.28629185123
MOUSTIER EN FAGNE;59132;50.0917864543;4.19598971428
MOUVAUX;59420;50.7041016348;3.13593215066
NAVES;59161;50.2033732531;3.31732755418
NEUF BERQUIN;59940;50.6652328405;2.66524376956
NEUF MESNIL;59330;50.2653663974;3.90941211198
NEUVILLE EN AVESNOIS;59218;50.1995093719;3.57904088445
NEUVILLE EN FERRAIN;59960;50.7533162393;3.15977251104
NEUVILLE ST REMY;59554;50.1876980939;3.21918185069
NEUVILLE SUR ESCAUT;59293;50.2905014388;3.35160622721
NEUVILLY;59360;50.1349971919;3.51024982301
NIEPPE;59850;50.6992987531;2.83247310085
NIERGNIES;59400;50.1416253963;3.25613708021
NIEURLET;59143;50.7949144222;2.27990645597
NIVELLE;59230;50.4681563003;3.46013569739
NOMAIN;59310;50.5012176112;3.23912545125
NOORDPEENE;59670;50.7945101601;2.36741593689
NOYELLES LES SECLIN;59139;50.5729280386;3.02238335303
NOYELLES SUR ESCAUT;59159;50.1373086019;3.17631469975
NOYELLES SUR SAMBRE;59550;50.1616211802;3.79528710452
NOYELLES SUR SELLE;59282;50.2786620955;3.38194992576
OBIES;59570;50.2692950414;3.7760866867
OBRECHIES;59680;50.2225324882;4.03683646675
OCHTEZEELE;59670;50.8191546724;2.40052257312
ODOMEZ;59970;50.4481733778;3.53940322234
OHAIN;59132;50.0369176402;4.12652703676
OISY;59195;50.3522308671;3.43281738814
ONNAING;59264;50.3867147723;3.59668401083
OOST CAPPEL;59122;50.9297498837;2.58933450299
ORCHIES;59310;50.4684491037;3.23890685351
ORS;59360;50.1050821078;3.6311053836
ORSINVAL;59530;50.2718570583;3.63293709102
OSTRICOURT;59162;50.4571255859;3.03269713092
OUDEZEELE;59670;50.8399999116;2.51032290122
OXELAERE;59670;50.7807301542;2.4699206565
PAILLENCOURT;59295;50.2487376852;3.26355890022
PECQUENCOURT;59146;50.3763502504;3.21867627513
PERENCHIES;59840;50.6700813687;2.96867396183
PERONNE EN MELANTOIS;59273;50.56433015;3.17149667698
PETIT FAYT;59244;50.1023567532;3.82607936534
PETITE FORET;59494;50.3747760096;3.47594179576
PHALEMPIN;59133;50.5128963726;3.02222998505
PITGAM;59284;50.9299079429;2.34010090191
POIX DU NORD;59218;50.185059973;3.61684782607
POMMEREUIL;59360;50.1169693319;3.58693750917
PONT A MARCQ;59710;50.5213224802;3.11535964739
PONT SUR SAMBRE;59138;50.2317600389;3.84512612151
POTELLE;59530;50.2386756413;3.66509880886
PRADELLES;59190;50.7340517429;2.60269224096
PREMESQUES;59840;50.6607863693;2.9485483768
PRESEAU;59990;50.311072595;3.57351530616
PREUX AU BOIS;59288;50.1647138146;3.6553638264
PREUX AU SART;59144;50.2886107324;3.69910774088
PRISCHES;59550;50.0779109986;3.75922395806
PROUVY;59121;50.3241135233;3.45729001727
PROVILLE;59267;50.15582108;3.20370328154
PROVIN;59185;50.5134080019;2.91117965832
QUAEDYPRE;59380;50.9381093158;2.46047387712
QUAROUBLE;59243;50.4035655109;3.6270603909
QUERENAING;59269;50.2848542839;3.50823290442
QUESNOY SUR DEULE;59890;50.7129994523;3.00861966929
QUIEVELON;59680;50.2350198423;4.06805030291
QUIEVRECHAIN;59920;50.3920521291;3.65887590653
QUIEVY;59214;50.162969816;3.42160576023
RACHES;59194;50.4201328892;3.13698851837
RADINGHEM EN WEPPES;59320;50.6281404058;2.89866058213
RAILLENCOURT STE OLLE;59554;50.1884274141;3.17806914502
RAIMBEAUCOURT;59283;50.4363550078;3.10277352628
RAINSARS;59177;50.0704332931;3.99772859383
RAISMES;59590;50.410089317;3.48909318774
RAMILLIES;59161;50.2072582763;3.24940380157
RAMOUSIES;59177;50.1164251073;4.03401363601
RAUCOURT AU BOIS;59530;50.2067851455;3.6560114776
RECQUIGNIES;59245;50.2766724838;4.04841593336
REJET DE BEAULIEU;59360;50.0452957797;3.63508660272
RENESCURE;59173;50.7357377095;2.37835427066
REUMONT;59980;50.0851954003;3.47837512553
REXPOEDE;59122;50.9353119359;2.54496726178
RIBECOURT LA TOUR;59159;50.1039235945;3.13170162173
RIEULAY;59870;50.3871460601;3.2654482403
RIEUX EN CAMBRESIS;59277;50.2043374368;3.35238504979
ROBERSART;59550;50.1565289177;3.64613951991
ROEULX;59172;50.3127229733;3.32813430468
ROMBIES ET MARCHIPONT;59990;50.3683187976;3.63953903487
ROMERIES;59730;50.1972863068;3.54305484338
RONCHIN;59790;50.6044738955;3.09168585537
RONCQ;59223;50.747350697;3.11815606165
ROOST WARENDIN;59286;50.4147869735;3.10349816509
ROSULT;59230;50.4521455969;3.36243705958
ROUBAIX;59100;50.6879774811;3.18258434623
ROUCOURT;59169;50.3279013406;3.14688211688
ROUSIES;59131;50.2712617008;3.99972723492
ROUVIGNIES;59220;50.333483649;3.44055794538
RUBROUCK;59285;50.8331982321;2.36252595858
RUESNES;59530;50.2634217469;3.5818116421
RUMEGIES;59226;50.4924282163;3.35255840321
RUMILLY EN CAMBRESIS;59281;50.1304621675;3.22848231666
SAILLY LEZ CAMBRAI;59554;50.1992760236;3.17933507614
SAILLY LEZ LANNOY;59390;50.6460432884;3.22762243791
SAINGHIN EN MELANTOIS;59262;50.5877332144;3.16342165677
SAINGHIN EN WEPPES;59184;50.5583359872;2.89740255201
SAINS DU NORD;59177;50.0854794146;4.03223070419
SALESCHES;59218;50.2082539959;3.59623286765
SALOME;59496;50.5358395709;2.83692247297
SAMEON;59310;50.4772545596;3.33248163784
SANCOURT;59268;50.2144498638;3.19130962776
SANTES;59211;50.5909879066;2.96114421951
SARS ET ROSIERES;59230;50.446729768;3.33012536259
SARS POTERIES;59216;50.1616514836;4.04379435649
SASSEGNIES;59145;50.1790384849;3.79850687638
SAULTAIN;59990;50.335080255;3.58004167583
SAULZOIR;59227;50.2425296454;3.43939074526
SEBOURG;59990;50.3441268565;3.64525979429
SECLIN;59113;50.5462914067;3.03440410368
SEMERIES;59440;50.104983917;3.98854238684
SEMOUSIES;59440;50.1639637271;3.96792099301
SEPMERIES;59269;50.2772551517;3.56080213817
SEQUEDIN;59320;50.6248188486;2.98254300781
SERANVILLERS FORENVILLE;59400;50.1266132129;3.27725549348
SERCUS;59173;50.7083527622;2.45193657383
SIN LE NOBLE;59450;50.3677512577;3.12071297192
SOCX;59380;50.9358655303;2.42417743396
SOLESMES;59730;50.171784611;3.51976547867
SOLRE LE CHATEAU;59740;50.1722246859;4.09630317789
SOLRINNES;59740;50.2029200373;4.0732007826
SOMAIN;59490;50.3598009687;3.27519704161
SOMMAING;59213;50.2674478954;3.49584685724
SPYCKER;59380;50.9751405786;2.31360058844
ST AMAND LES EAUX;59230;50.4401000981;3.44460708029
ST ANDRE LEZ LILLE;59350;50.6597692969;3.04609387889
ST AUBERT;59188;50.2076147877;3.41741294384
ST AUBIN;59440;50.1709642642;3.91201093007
ST AYBERT;59163;50.4513178883;3.64979329449
ST BENIN;59360;50.0760031859;3.5318789033
ST GEORGES SUR L AA;59820;50.967052608;2.15668818231
ST HILAIRE LEZ CAMBRAI;59292;50.1812812123;3.4168912736
ST HILAIRE SUR HELPE;59440;50.1366870157;3.90004713488
ST JANS CAPPEL;59270;50.7684241988;2.72184821596
ST MARTIN SUR ECAILLON;59213;50.2401464788;3.51737991935
ST MOMELIN;59143;50.8126413042;2.24135657399
ST PIERRE BROUCK;59630;50.8950694199;2.19025685455
ST PYTHON;59730;50.1935153197;3.47506674368
ST REMY CHAUSSEE;59620;50.1799835542;3.87887382168
ST REMY DU NORD;59330;50.2280842932;3.90173812805
ST SAULVE;59880;50.3750172475;3.56642418912
ST SOUPLET;59360;50.0531218076;3.51585525327
ST SYLVESTRE CAPPEL;59114;50.7757055306;2.55012081181
ST VAAST EN CAMBRESIS;59188;50.1944271461;3.43509312626
ST WAAST;59570;50.3009046885;3.74775611906
STAPLE;59190;50.7522593819;2.44870670166
STE MARIE CAPPEL;59670;50.780208006;2.51589636551
STEENBECQUE;59189;50.6774388783;2.48812239192
STEENE;59380;50.9531939911;2.37222398651
STEENVOORDE;59114;50.8214340622;2.58556642469
STEENWERCK;59181;50.6864176007;2.76933714516
STRAZEELE;59270;50.7237136693;2.61971858959
TAISNIERES EN THIERACHE;59550;50.1455912411;3.81152119353
TAISNIERES SUR HON;59570;50.3215475622;3.85119216193
TEMPLEMARS;59175;50.5706303055;3.0593969462
TEMPLEUVE EN PEVELE;59242;50.5327534602;3.17344214233
TERDEGHEM;59114;50.7976310827;2.55518666354
TETEGHEM COUDEKERQUE VILLAGE;59229;51.0158652678;2.45278368133
TETEGHEM COUDEKERQUE VILLAGE;59380;51.0158652678;2.45278368133
THIANT;59224;50.2978015553;3.43898383487
THIENNES;59189;50.6509078196;2.47577776887
THIVENCELLE;59163;50.4459598369;3.62768756311
THUMERIES;59239;50.4729282172;3.06360015777
THUN L EVEQUE;59141;50.2257650605;3.28109704734
THUN ST AMAND;59158;50.4847098079;3.44835522897
THUN ST MARTIN;59141;50.218482215;3.30304020982
TILLOY LEZ CAMBRAI;59554;50.2010948825;3.21429536974
TILLOY LEZ MARCHIENNES;59870;50.4251780134;3.32276515057
TOUFFLERS;59390;50.6609540641;3.23330964809
TOURCOING;59200;50.7254418902;3.15882757215
TOURMIGNIES;59551;50.5041629351;3.08506088086
TRELON;59132;50.0755155252;4.12172301875
TRESSIN;59152;50.6172932924;3.18934892273
TRITH ST LEGER;59125;50.33056703;3.48645305133
TROISVILLES;59980;50.1023251315;3.47303644624
UXEM;59229;51.0239750832;2.49246889837
VALENCIENNES;59300;50.3588666163;3.51567664819
VENDEGIES AU BOIS;59218;50.1780771295;3.57802377396
VENDEGIES SUR ECAILLON;59213;50.2600667641;3.50791948811
VENDEVILLE;59175;50.5731550754;3.08064149278
VERCHAIN MAUGRE;59227;50.2661390084;3.46320478499
VERLINGHEM;59237;50.6820809996;3.0005883762
VERTAIN;59730;50.2124028613;3.52268754362
VICQ;59970;50.4144657364;3.6078304121
VIESLY;59271;50.1571125186;3.45621053562
VIEUX BERQUIN;59232;50.6932504715;2.62068917125
VIEUX CONDE;59690;50.4735638651;3.56606734565
VIEUX MESNIL;59138;50.2599763963;3.87105908253
VIEUX RENG;59600;50.3213611397;4.0463688859
VILLENEUVE D ASCQ;59491;50.6324372393;3.1535257221
VILLENEUVE D ASCQ;59493;50.6324372393;3.1535257221
VILLENEUVE D ASCQ;59650;50.6324372393;3.1535257221
VILLEREAU;59530;50.2478551697;3.68060159072
VILLERS AU TERTRE;59234;50.3020721089;3.17587411198
VILLERS EN CAUCHIES;59188;50.2264212975;3.39435479006
VILLERS GUISLAIN;59297;50.0359972826;3.15257855128
VILLERS OUTREAUX;59142;50.0297720966;3.29193521329
VILLERS PLOUICH;59231;50.0789345355;3.13659590623
VILLERS POL;59530;50.2889516363;3.6151652439
VILLERS SIRE NICOLE;59600;50.339831062;4.01339230045
VOLCKERINCKHOVE;59470;50.839933688;2.29875013353
VRED;59870;50.3939409921;3.23217277359
WAHAGNIES;59261;50.4837257649;3.03028758206
WALINCOURT SELVIGNY;59127;50.0733447799;3.33900382143
WALLERS;59135;50.3808461182;3.39313610701
WALLERS EN FAGNE;59132;50.0613544764;4.16718008292
WALLON CAPPEL;59190;50.7278457083;2.48249397523
WAMBAIX;59400;50.1283412382;3.30897119661
WAMBRECHIES;59118;50.6957054596;3.0473159475
WANDIGNIES HAMAGE;59870;50.3972962992;3.32367136058
WANNEHAIN;59830;50.5709754745;3.27007498669
WARGNIES LE GRAND;59144;50.3079420993;3.65866407405
WARGNIES LE PETIT;59144;50.2986246557;3.68344256708
WARHEM;59380;50.9770774555;2.50331327056
WARLAING;59870;50.4093268684;3.32433906396
WARNETON;59560;50.7453105306;2.96704012681
WASNES AU BAC;59252;50.2699499987;3.25379518679
WASQUEHAL;59290;50.6750984751;3.12858017096
WATTEN;59143;50.833804191;2.22588651794
WATTIGNIES;59139;50.5864928159;3.04193803597
WATTIGNIES LA VICTOIRE;59680;50.2003544445;4.00235676778
WATTRELOS;59150;50.7056367285;3.21628221056
WAVRECHAIN SOUS DENAIN;59220;50.3338831581;3.42191162083
WAVRECHAIN SOUS FAULX;59111;50.270787775;3.28212535821
WAVRIN;59136;50.5726224029;2.93337226806
WAZIERS;59119;50.3842186333;3.11188476067
WEMAERS CAPPEL;59670;50.8152774849;2.44143393834
WERVICQ SUD;59117;50.7620461406;3.05089776037
WEST CAPPEL;59380;50.9254100501;2.50878268816
WICRES;59134;50.5694195145;2.86858974063
WIGNEHIES;59212;50.0118044778;4.0065736506
WILLEMS;59780;50.6306074254;3.22916996988
WILLIES;59740;50.1212728931;4.10501451158
WINNEZEELE;59670;50.8503260936;2.56373009721
WORMHOUT;59470;50.8778557286;2.47860517129
WULVERDINGHE;59143;50.8284324881;2.2531343958
WYLDER;59380;50.9111679301;2.48735893081
ZEGERSCAPPEL;59470;50.8833052086;2.384587094
ZERMEZEELE;59670;50.8321932353;2.4589529897
ZUYDCOOTE;59123;51.06377209;2.48763279882
ZUYTPEENE;59670;50.7918240712;2.42330162819
