ABANCOURT;60220;49.6930546611;1.76924374516
ABBECOURT;60430;49.361199272;2.15509033815
ABBEVILLE ST LUCIEN;60480;49.5201068363;2.16636536385
ACHY;60690;49.5562211633;1.97185766368
ACY EN MULTIEN;60620;49.1087771245;2.95509279724
AGNETZ;60600;49.3961836166;2.38254589214
AIRION;60600;49.4222514079;2.41814312594
ALLONNE;60000;49.3965343512;2.11883442492
AMBLAINVILLE;60110;49.2071001179;2.12057880418
AMY;60310;49.6414081201;2.83395091808
ANDEVILLE;60570;49.257573184;2.16834997777
ANGICOURT;60940;49.3148919573;2.50251888584
ANGIVILLERS;60130;49.4889521261;2.49971184199
ANGY;60250;49.334468969;2.32846218053
ANSACQ;60250;49.350204752;2.36431728817
ANSAUVILLERS;60120;49.5672978302;2.38642388977
ANTHEUIL PORTES;60162;49.5004605023;2.73385430881
ANTILLY;60620;49.1550668913;2.98806856134
APPILLY;60400;49.582424474;3.12116123031
APREMONT;60300;49.2286452463;2.5135789889
ARMANCOURT;60880;49.370833099;2.76400949363
ARSY;60190;49.4056086887;2.68958438939
ATTICHY;60350;49.4257269191;3.04404702722
AUCHY LA MONTAGNE;60360;49.5739624558;2.11947399318
AUGER ST VINCENT;60800;49.2124952218;2.81319586858
AUMONT EN HALATTE;60300;49.2330047148;2.55262710425
AUNEUIL;60390;49.3702714618;1.99554869838
AUTEUIL;60390;49.3450250122;2.09238872376
AUTHEUIL EN VALOIS;60890;49.1792888729;3.06349602702
AUTRECHES;60350;49.449194192;3.12722554549
AUX MARAIS;60000;49.4073687683;2.04083080438
AVILLY ST LEONARD;60300;49.1839157473;2.52767735366
AVRECHY;60130;49.4449120653;2.42380338592
AVRICOURT;60310;49.6496055244;2.86403233407
AVRIGNY;60190;49.3890770811;2.57702799562
BABOEUF;60400;49.5820096557;3.09130594062
BACOUEL;60120;49.6218428027;2.38266948973
BAILLEUL LE SOC;60190;49.4206214218;2.58376325171
BAILLEUL SUR THERAIN;60930;49.385157591;2.23033347435
BAILLEVAL;60140;49.3492689664;2.46620386202
BAILLY;60170;49.4994561216;2.98240258389
BALAGNY SUR THERAIN;60250;49.2973878556;2.32131973295
BARBERY;60810;49.2222684941;2.67330860939
BARGNY;60620;49.1776038507;2.95817932227
BARON;60300;49.1754522891;2.7348143898
BAUGY;60113;49.4559271908;2.75517506422
BAUGY;60190;49.4559271908;2.75517506422
BAZANCOURT;60380;49.5498849477;1.73943481164
BAZICOURT;60700;49.3431574033;2.62299591456
BEAUDEDUIT;60210;49.6788602196;2.05926915948
BEAUGIES SOUS BOIS;60640;49.6372067347;3.09986657497
BEAULIEU LES FONTAINES;60310;49.6653459644;2.91164661769
BEAURAINS LES NOYON;60400;49.6065980784;2.9753206205
BEAUREPAIRE;60700;49.2916886469;2.56951230843
BEAUVAIS;60000;49.4365523321;2.08616123661
BEAUVOIR;60120;49.605809976;2.33019531687
BEHERICOURT;60400;49.5980389585;3.06410555853
BELLE EGLISE;60540;49.1881561836;2.21521967543
BELLOY;60490;49.5352929666;2.65285100616
BERLANCOURT;60640;49.6785871051;3.08371773899
BERNEUIL EN BRAY;60390;49.3578687801;2.05826883915
BERNEUIL SUR AISNE;60350;49.4218075738;3.00010078676
BERTHECOURT;60370;49.3451833083;2.22291035284
BETHANCOURT EN VALOIS;60129;49.2792326515;2.87566048733
BETHISY ST MARTIN;60320;49.2875795546;2.812008154
BETHISY ST PIERRE;60320;49.3076185781;2.80360801965
BETZ;60620;49.1559241622;2.94290715615
BIENVILLE;60280;49.4477920759;2.82514033131
BIERMONT;60490;49.5770777764;2.73899530755
BITRY;60350;49.4145786012;3.07807803458
BLACOURT;60650;49.4557951068;1.86303368192
BLAINCOURT LES PRECY;60460;49.2280944073;2.34451291361
BLANCFOSSE;60120;49.662501216;2.18953950322
BLARGIES;60220;49.6713426247;1.76339266657
BLICOURT;60860;49.5608239154;2.06049872178
BLINCOURT;60190;49.3848096307;2.61936803553
BOISSY FRESNOY;60440;49.1659624514;2.88226234522
BONLIER;60510;49.4727781384;2.14990842093
BONNEUIL EN VALOIS;60123;49.2800248996;2.98130103699
BONNEUIL LES EAUX;60120;49.6808426625;2.24243541639
BONNIERES;60112;49.508074732;1.95670880366
BONVILLERS;60120;49.5855067939;2.35206121544
BORAN SUR OISE;60820;49.1749794772;2.35195670267
BOREST;60300;49.1886146842;2.67197292503
BORNEL;60540;49.1918532269;2.18485090875
BOUBIERS;60240;49.2165992699;1.87067010234
BOUCONVILLERS;60240;49.1734900557;1.90034078826
BOUILLANCY;60620;49.1176919226;2.91177538082
BOULLARRE;60620;49.1304808787;3.00990272849
BOULOGNE LA GRASSE;60490;49.6080302361;2.70097863571
BOURSONNE;60141;49.1983151268;3.04668303732
BOURY EN VEXIN;60240;49.2424145077;1.7371079349
BOUTENCOURT;60590;49.3205572988;1.87026132379
BOUVRESSE;60220;49.6514305652;1.75717052982
BRAISNES SUR ARONDE;60113;49.4761042434;2.77402760825
BRASSEUSE;60810;49.2518806817;2.67877402724
BREGY;60440;49.0895785618;2.87413951706
BRENOUILLE;60870;49.3068934524;2.5499630565
BRESLES;60510;49.4135603419;2.25008112215
BRETEUIL;60120;49.6340425257;2.29183403499
BRETIGNY;60400;49.5596891409;3.11657953141
BREUIL LE SEC;60840;49.3780023932;2.45643096781
BREUIL LE VERT;60600;49.3619627867;2.42549520398
BRIOT;60210;49.6413335684;1.91716979734
BROMBOS;60210;49.6455079765;1.88822480879
BROQUIERS;60220;49.6626603129;1.83561315094
BROYES;60120;49.6277624015;2.45363892412
BRUNVILLERS LA MOTTE;60130;49.555566184;2.45376962705
BUCAMPS;60480;49.5247948425;2.3166105981
BUICOURT;60380;49.5341980923;1.81531179837
BULLES;60130;49.4569537729;2.33518875415
BURY;60250;49.3128542225;2.35865250561
BUSSY;60400;49.6314236015;2.98056681507
CAISNES;60400;49.5201213587;3.06454486519
CAMBRONNE LES CLERMONT;60290;49.3259611654;2.40115486808
CAMBRONNE LES RIBECOURT;60170;49.5062092065;2.89807134548
CAMPAGNE;60640;49.6495792933;2.96070669901
CAMPEAUX;60220;49.6140351708;1.75497677348
CAMPREMY;60480;49.5638031018;2.32696331161
CANDOR;60310;49.6285566714;2.88780350461
CANLY;60680;49.389080292;2.69965926929
CANNECTANCOURT;60310;49.5483651127;2.89622271842
CANNY SUR MATZ;60310;49.6025511779;2.80098340652
CANNY SUR THERAIN;60220;49.6080822276;1.71771760656
CARLEPONT;60170;49.5191522759;3.02234053869
CATENOY;60840;49.3791543364;2.51800677203
CATHEUX;60360;49.6494174689;2.10545550049
CATIGNY;60640;49.6348936549;2.9419257001
CATILLON FUMECHON;60130;49.5268754931;2.37843374733
CAUFFRY;60290;49.3134355162;2.43026281523
CAUVIGNY;60730;49.3026459577;2.24002692157
CEMPUIS;60210;49.6575445065;1.98508588361
CERNOY;60190;49.4426355659;2.53929202364
CHAMANT;60300;49.2258210412;2.61918764925
CHAMBLY;60230;49.1718103651;2.24657019692
CHAMBORS;60240;49.2601158315;1.81072865391
CHANTILLY;60500;49.1762641654;2.48103481914
CHAUMONT EN VEXIN;60240;49.2729979316;1.88182608902
CHAVENCON;60240;49.1872473906;1.9918563453
CHELLES;60350;49.3466662796;3.03951779948
CHEPOIX;60120;49.6048407456;2.38064262302
CHEVINCOURT;60150;49.5167606649;2.85123034306
CHEVREVILLE;60440;49.1188920411;2.85852113558
CHEVRIERES;60710;49.3461074721;2.67968198793
CHIRY OURSCAMP;60138;49.5303142759;2.97100668785
CHOISY AU BAC;60750;49.442089833;2.89567270285
CHOISY LA VICTOIRE;60190;49.3775941705;2.59726878219
CHOQUEUSE LES BENARDS;60360;49.649815276;2.07488298131
CINQUEUX;60940;49.3243592276;2.53354291409
CIRES LES MELLO;60660;49.262678531;2.33736387513
CLAIROIX;60280;49.4412986705;2.8453991397
CLERMONT;60600;49.3777168975;2.40891709196
COIVREL;60420;49.5554230001;2.55108811608
COMPIEGNE;60200;49.3990601478;2.85317249363
CONCHY LES POTS;60490;49.6073168338;2.73630966072
CONTEVILLE;60360;49.6534471153;2.05414599318
CORBEIL CERF;60110;49.2772532427;2.11061298697
CORMEILLES;60120;49.6424440702;2.19661684856
COUDUN;60150;49.4581784318;2.8000113018
COULOISY;60350;49.4005386894;3.02837690735
COURCELLES EPAYELLES;60420;49.5696380397;2.62594591233
COURCELLES LES GISORS;60240;49.2594249464;1.73615075347
COURTEUIL;60300;49.2065256712;2.54439836724
COURTIEUX;60350;49.3852025965;3.08510106889
COYE LA FORET;60580;49.1449874027;2.47045856809
CRAMOISY;60660;49.2489499722;2.39573291818
CRAPEAUMESNIL;60310;49.6404571177;2.80722897477
CREIL;60100;49.2533487138;2.48472669359
CREPY EN VALOIS;60800;49.2360130888;2.8969318206
CRESSONSACQ;60190;49.448238217;2.56793368491
CREVECOEUR LE GRAND;60360;49.6125388783;2.08489020774
CREVECOEUR LE PETIT;60420;49.5740115762;2.49886203911
CRILLON;60112;49.5259729634;1.9257668088
CRISOLLES;60400;49.6230708747;3.02420793836
CROISSY SUR CELLE;60120;49.6903535459;2.17212127925
CROUTOY;60350;49.3772107204;3.03575847593
CROUY EN THELLE;60530;49.2099385814;2.32007698271
CUIGNIERES;60130;49.4481411967;2.4717178571
CUIGY EN BRAY;60850;49.4323341573;1.83507266626
CUISE LA MOTTE;60350;49.3859702699;2.99976302541
CUTS;60400;49.5342045787;3.10272038663
CUVERGNON;60620;49.1740067801;2.99807792645
CUVILLY;60490;49.5486898805;2.70082321252
CUY;60310;49.5855409296;2.90969070334
DAMERAUCOURT;60210;49.701294681;1.92280713557
DARGIES;60210;49.6991905153;1.98093616856
DELINCOURT;60240;49.2396598274;1.83241773712
DIEUDONNE;60530;49.241132253;2.24030627221
DIVES;60310;49.5909351098;2.8785644648
DOMELIERS;60360;49.6285305666;2.16465510243
DOMFRONT;60420;49.5991248237;2.55703431624
DOMPIERRE;60420;49.5927370104;2.53422054952
DUVY;60800;49.2322741704;2.84879453989
ECUVILLY;60310;49.6473710219;2.91673971975
ELENCOURT;60210;49.6931893721;1.89535227719
ELINCOURT STE MARGUERITE;60157;49.5317901702;2.82885830555
EMEVILLE;60123;49.2797702031;3.02463728753
ENENCOURT LEAGE;60590;49.3046719364;1.84454960402
EPINEUSE;60190;49.400292993;2.55014914769
ERAGNY SUR EPTE;60590;49.312023845;1.78713220993
ERCUIS;60530;49.2335196293;2.30851412485
ERMENONVILLE;60950;49.1256725288;2.69642408679
ERNEMONT BOUTAVENT;60380;49.5930690775;1.79502801856
ERQUERY;60600;49.4136451151;2.45644712469
ERQUINVILLERS;60130;49.4596126861;2.48947452235
ESCAMES;60380;49.5565711127;1.80571620416
ESCHES;60110;49.2315594255;2.17454733737
ESCLES ST PIERRE;60220;49.7444351551;1.80313112603
ESPAUBOURG;60650;49.4241291278;1.8655489571
ESQUENNOY;60120;49.6550975512;2.26906443197
ESSUILES;60510;49.4802122478;2.28119101511
ESTREES ST DENIS;60190;49.4263442144;2.62953613001
ETAVIGNY;60620;49.1276676436;2.98017417243
ETOUY;60600;49.4281067222;2.37019823319
EVE;60330;49.087549811;2.70898194051
EVRICOURT;60310;49.570401673;2.91627648313
FAY LES ETANGS;60240;49.2495116378;1.94467191321
FEIGNEUX;60800;49.2609818537;2.91459037295
FERRIERES;60420;49.5890936598;2.51315398391
FEUQUIERES;60960;49.6498151324;1.84993618914
FITZ JAMES;60600;49.3993972661;2.4291033299
FLAVACOURT;60590;49.3460308859;1.82886153194
FLAVY LE MELDEUX;60640;49.6851555754;3.0475541502
FLECHY;60120;49.6589445196;2.23097979586
FLEURINES;60700;49.2623361218;2.59258349492
FLEURY;60240;49.2456151425;1.96684307339
FONTAINE BONNELEAU;60360;49.6636581121;2.14897434682
FONTAINE CHAALIS;60300;49.1547073818;2.66051125918
FONTAINE LAVAGANNE;60690;49.5986219699;1.9543319916
FONTAINE ST LUCIEN;60480;49.5040754183;2.14696786986
FONTENAY TORCY;60380;49.5683000437;1.76602231488
FORMERIE;60220;49.6492986407;1.72801391707
FOUILLEUSE;60190;49.4269878907;2.54053926429
FOUILLOY;60220;49.7312722644;1.81819749576
FOULANGUES;60250;49.2769230112;2.31380236183
FOUQUENIES;60000;49.4652825822;2.03011183536
FOUQUEROLLES;60510;49.4590327609;2.21413521512
FOURNIVAL;60130;49.4639491439;2.38160769117
FRANCASTEL;60480;49.5898566137;2.14867375497
FRANCIERES;60190;49.4471256066;2.66733923856
FRENICHES;60640;49.6743203422;3.00463917072
FRESNE LEGUILLON;60240;49.2509113423;1.98912391608
FRESNIERES;60310;49.6228561422;2.80910070167
FRESNOY EN THELLE;60530;49.1990973717;2.26218558295
FRESNOY LA RIVIERE;60127;49.2781522381;2.92700227503
FRESNOY LE LUAT;60800;49.2127033818;2.76283065148
FRETOY LE CHATEAU;60640;49.6618149905;2.97314954198
FROCOURT;60000;49.3813474009;2.08360584323
FROISSY;60480;49.5657711832;2.21470986262
GANNES;60120;49.5738621459;2.4192438931
GAUDECHART;60210;49.6181645312;1.96029040389
GENVRY;60400;49.6116517465;2.99549959374
GERBEROY;60380;49.5385653619;1.84224948917
GILOCOURT;60129;49.3007930979;2.89026457858
GIRAUMONT;60150;49.4737037715;2.82476712242
GLAIGNES;60129;49.2730688353;2.84005159158
GLATIGNY;60650;49.4954037049;1.90088240357
GODENVILLERS;60420;49.5820126531;2.54731751004
GOINCOURT;60000;49.4249364687;2.03316738421
GOLANCOURT;60640;49.7032997149;3.06874567879
GONDREVILLE;60117;49.2201415565;2.94864804292
GOURCHELLES;60220;49.726483327;1.77900309327
GOURNAY SUR ARONDE;60190;49.500679776;2.69144488848
GOUVIEUX;60270;49.1895816267;2.42026324989
GOUY LES GROSEILLERS;60120;49.6953840868;2.21713981156
GRANDFRESNOY;60680;49.3762488165;2.65940543568
GRANDRU;60400;49.6125799831;3.07876647173
GRANDVILLERS AUX BOIS;60190;49.4641649904;2.60552551813
GRANDVILLIERS;60210;49.666016357;1.9349239261
GREMEVILLERS;60380;49.5591317883;1.90615994772
GREZ;60210;49.6337227766;1.97882087154
GUIGNECOURT;60480;49.4868854532;2.12865823482
GUISCARD;60640;49.6583847453;3.05502192746
GURY;60310;49.5703401492;2.80143019037
HADANCOURT LE HAUT CLOCHER;60240;49.1888359993;1.85320082465
HAINVILLERS;60490;49.5909803966;2.68189967625
HALLOY;60210;49.6498614207;1.9366921667
HANNACHES;60650;49.5087752838;1.80840356243
HANVOILE;60650;49.5090035202;1.8809988384
HARDIVILLERS;60120;49.6190429969;2.22471392321
HAUCOURT;60112;49.5061935577;1.93107451004
HAUDIVILLERS;60510;49.4869439837;2.24134168227
HAUTBOS;60210;49.6277629796;1.86981129568
HAUTE EPINE;60690;49.5828440784;2.00667497625
HAUTEFONTAINE;60350;49.3639288185;3.06265363799
HECOURT;60380;49.5238037939;1.77954561999
HEILLES;60250;49.3330867142;2.26963680088
HEMEVILLERS;60190;49.471836742;2.67275797723
HENONVILLE;60119;49.2100313417;2.05597443118
HERCHIES;60112;49.4834141754;2.00297914207
HERICOURT SUR THERAIN;60380;49.586663908;1.76354974469
HERMES;60370;49.3590736605;2.25601407563
HETOMESNIL;60360;49.631830901;2.04103130989
HODENC EN BRAY;60650;49.4723304928;1.91021767615
HODENC L EVEQUE;60430;49.3361613976;2.14176639228
HONDAINVILLE;60250;49.344933293;2.30785725358
HOUDANCOURT;60710;49.3375370465;2.64802307732
IVORS;60141;49.2003314845;3.01881111858
IVRY LE TEMPLE;60173;49.2320779777;2.02966880034
JAMERICOURT;60240;49.3021818872;1.87348567207
JANVILLE;60150;49.4539462268;2.85882891775
JAULZY;60350;49.3881283326;3.0594833004
JAUX;60880;49.395906847;2.76678762351
JONQUIERES;60680;49.3993843188;2.73435995446
JOUY SOUS THELLE;60240;49.3223267421;1.96068066064
JUVIGNIES;60112;49.5239940947;2.09077115313
LA CHAPELLE EN SERVAL;60520;49.1212917393;2.5265939072
LA CORNE EN VEXIN;60240;49.295556054;1.91817578256
LA DRENNE;60790;49.2942535417;2.11111174674
LA HERELLE;60120;49.598162118;2.422095572
LA HOUSSOYE;60390;49.3541163748;1.9482489871
LA NEUVILLE EN HEZ;60510;49.3865132805;2.32682912406
LA NEUVILLE ROY;60190;49.4793462594;2.58212809207
LA NEUVILLE ST PIERRE;60480;49.5318909884;2.19557228619
LA NEUVILLE SUR OUDEUIL;60690;49.5689583194;2.0136506967
LA NEUVILLE SUR RESSONS;60490;49.5514944714;2.74513879891
LA NEUVILLE VAULT;60112;49.4890118867;1.96688277958
LA RUE ST PIERRE;60510;49.414002576;2.29121659235
LA VILLENEUVE SOUS THURY;60890;49.1601844737;3.0611547211
LABERLIERE;60310;49.57515956;2.76304639278
LABOISSIERE EN THELLE;60570;49.287058167;2.15238634007
LABOSSE;60590;49.3540781627;1.89832023675
LABRUYERE;60140;49.3527272314;2.50769568365
LACHAPELLE AUX POTS;60650;49.4470304298;1.92181255596
LACHAPELLE SOUS GERBEROY;60380;49.5415853366;1.87591010386
LACHAPELLE ST PIERRE;60730;49.2687137764;2.23612056531
LACHAUSSEE DU BOIS D ECU;60480;49.562241218;2.17627773976
LACHELLE;60190;49.434368037;2.74685318222
LACROIX ST OUEN;60610;49.3550551807;2.79513678008
LAFRAYE;60510;49.4944510627;2.21159932191
LAGNY;60310;49.6104257346;2.91470679251
LAGNY LE SEC;60330;49.0781168522;2.7487989483
LAIGNEVILLE;60290;49.2973604415;2.43493025435
LALANDE EN SON;60590;49.3890398972;1.78480094952
LALANDELLE;60850;49.387187443;1.87215742547
LAMECOURT;60600;49.4300920723;2.46503272341
LAMORLAYE;60260;49.1602771773;2.41972419406
LANNOY CUILLERE;60220;49.7087683015;1.73577281734
LARBROYE;60400;49.5711545725;2.96064290936
LASSIGNY;60310;49.5999941571;2.84362090335
LATAULE;60490;49.5367201607;2.67457954002
LATTAINVILLE;60240;49.2410615022;1.80857359539
LAVACQUERIE;60120;49.6799986377;2.10079870289
LAVERRIERE;60210;49.6863142025;2.01097764056
LAVERSINES;60510;49.4299134204;2.20087165324
LAVILLETERTRE;60240;49.1905049391;1.9341708115
LE COUDRAY ST GERMER;60850;49.4006526373;1.83221910213
LE COUDRAY SUR THELLE;60430;49.3091487399;2.12428741588
LE CROCQ;60120;49.6208925269;2.18869008805
LE FAY ST QUENTIN;60510;49.4490275764;2.25128332435
LE FAYEL;60680;49.3722915111;2.6969172661
LE FRESTOY VAUX;60420;49.5962921933;2.60833323074
LE GALLET;60360;49.6251188685;2.11231378778
LE HAMEL;60210;49.6453258761;2.01203536602
LE MESNIL CONTEVILLE;60210;49.6678346082;2.0642050499
LE MESNIL EN THELLE;60530;49.1755288467;2.28195991466
LE MESNIL ST FIRMIN;60120;49.6259590704;2.41044983882
LE MESNIL SUR BULLES;60130;49.4823695987;2.34912415685
LE MESNIL THERIBUS;60240;49.3057295939;1.99122891939
LE MEUX;60880;49.3675243058;2.74517943461
LE MONT ST ADRIEN;60650;49.4492939211;2.01420488112
LE PLESSIER SUR BULLES;60130;49.4924154529;2.31813572468
LE PLESSIER SUR ST JUST;60130;49.5081515622;2.4596143307
LE PLESSIS BELLEVILLE;60330;49.0985806649;2.75896019527
LE PLESSIS BRION;60150;49.4622196223;2.9084704643
LE PLESSIS PATTE D OIE;60640;49.6838619137;3.06584033346
LE PLOYRON;60420;49.5863727907;2.58183714891
LE QUESNEL AUBRY;60480;49.5099695752;2.31447331085
LE SAULCHOY;60360;49.6307458971;2.13635146653
LE VAUMAIN;60590;49.3425632763;1.86578114721
LE VAUROUX;60390;49.3812218518;1.91494553081
LEGLANTIERS;60420;49.4986729429;2.53214211935
LES AGEUX;60700;49.3183042237;2.5890180969
LES HAUTS TALICAN;60390;49.3254912942;2.00355965035
LEVIGNEN;60800;49.1970697917;2.91542960657
LHERAULE;60650;49.4882885044;1.93093330345
LIANCOURT;60140;49.3300766734;2.46523634953
LIANCOURT ST PIERRE;60240;49.2330864401;1.90635269506
LIBERMONT;60640;49.6880319126;2.98026221191
LIERVILLE;60240;49.1973720919;1.89089983426
LIEUVILLERS;60130;49.4742826717;2.48980639031
LIHUS;60360;49.6046293138;2.03925521235
LITZ;60510;49.4262725966;2.32354551734
LOCONVILLE;60240;49.2574394193;1.91981496985
LONGUEIL ANNEL;60150;49.4667196986;2.85423661921
LONGUEIL STE MARIE;60126;49.3400219614;2.71142471159
LORMAISON;60110;49.2546108551;2.10422012576
LOUEUSE;60380;49.593084675;1.8304724622
LUCHY;60360;49.5519072556;2.11494855936
MACHEMONT;60150;49.5099441905;2.875553005
MAIGNELAY MONTIGNY;60420;49.548179093;2.51320633248
MAIMBEVILLE;60600;49.4147776174;2.522051381
MAISONCELLE ST PIERRE;60112;49.5154384614;2.12121694853
MAISONCELLE TUILERIE;60480;49.5897435077;2.21897451499
MAREST SUR MATZ;60490;49.5033268018;2.82457764723
MAREUIL LA MOTTE;60490;49.5492395195;2.79727471102
MAREUIL SUR OURCQ;60890;49.1392151665;3.07327554548
MARGNY AUX CERISES;60310;49.6724443709;2.86865853956
MARGNY LES COMPIEGNE;60280;49.4329968709;2.8054861143
MARGNY SUR MATZ;60490;49.5293175273;2.77915218245
MAROLLES;60890;49.1636748962;3.10850778789
MARQUEGLISE;60490;49.5158815481;2.7484137141
MARSEILLE EN BEAUVAISIS;60690;49.5753195852;1.95765019879
MARTINCOURT;60112;49.5301768343;1.90447241773
MAUCOURT;60640;49.6325787646;3.07814267123
MAULERS;60480;49.5440319929;2.16545655463
MAYSEL;60660;49.2519110578;2.36711680855
MELICOCQ;60150;49.489344184;2.85004584455
MELLO;60660;49.2782636292;2.37545666755
MENEVILLERS;60420;49.5212028828;2.60416999172
MERU;60110;49.2453722483;2.13541107599
MERY LA BATAILLE;60420;49.5442353409;2.6306106736
MILLY SUR THERAIN;60112;49.5090452996;2.01406401611
MOGNEVILLE;60140;49.3126555491;2.47328622083
MOLIENS;60220;49.6713332232;1.81534943912
MONCEAUX;60940;49.3269208712;2.56630699286
MONCEAUX L ABBAYE;60220;49.6524929678;1.78839949291
MONCHY HUMIERES;60113;49.4768018948;2.73831899509
MONCHY ST ELOI;60290;49.2968280054;2.46847273697
MONDESCOURT;60400;49.6007632459;3.10933333116
MONNEVILLE;60240;49.2123743231;1.97064890593
MONT L EVEQUE;60300;49.1904259616;2.6339267851
MONTAGNY EN VEXIN;60240;49.1937559871;1.7963074166
MONTAGNY STE FELICITE;60950;49.1299636301;2.74708435457
MONTATAIRE;60160;49.2632645948;2.43135724334
MONTCHEVREUIL;60240;49.2879395667;2.01083675138
MONTEPILLOY;60810;49.2139185636;2.70932676856
MONTGERAIN;60420;49.5386638914;2.58385170113
MONTIERS;60190;49.5038812733;2.56965274789
MONTJAVOULT;60240;49.2167501643;1.79301456897
MONTLOGNON;60300;49.1557531066;2.70658027708
MONTMACQ;60150;49.4818105198;2.9149211513
MONTMARTIN;60190;49.4662692846;2.69750550928
MONTREUIL SUR BRECHE;60480;49.5123717764;2.27407884393
MONTREUIL SUR THERAIN;60134;49.3813378813;2.19419096108
MONTS;60119;49.2187416558;2.0008608865
MORANGLES;60530;49.1948903601;2.30542739268
MORIENVAL;60127;49.3104709662;2.93003968872
MORLINCOURT;60400;49.5687824764;3.041877271
MORTEFONTAINE;60128;49.1222609821;2.60876023484
MORTEFONTAINE EN THELLE;60570;49.2651041736;2.18912997448
MORTEMER;60490;49.568875217;2.6728130469
MORVILLERS;60380;49.5843809513;1.87218404343
MORY MONTCRUX;60120;49.5944185573;2.39746582957
MOUCHY LE CHATEL;60250;49.3245030423;2.24609957487
MOULIN SOUS TOUVENT;60350;49.4655313245;3.0666237868
MOUY;60250;49.3172920199;2.29984372967
MOYENNEVILLE;60190;49.486855889;2.63341728898
MOYVILLERS;60190;49.4071700438;2.64288403755
MUIDORGE;60480;49.5330704904;2.13567268039
MUIRANCOURT;60640;49.6485015114;3.00199557071
MUREAUMONT;60220;49.62273366;1.7873657958
NAMPCEL;60400;49.4918764493;3.09066471681
NANTEUIL LE HAUDOUIN;60440;49.1369195797;2.81079341188
NERY;60320;49.271310066;2.77130714289
NEUFCHELLES;60890;49.1155773029;3.05195614829
NEUFVY SUR ARONDE;60190;49.5092235216;2.65370398093
NEUILLY EN THELLE;60530;49.2285502167;2.27982147453
NEUILLY SOUS CLERMONT;60290;49.3496103814;2.40083374421
NEUVILLE BOSC;60119;49.2027066455;2.01455667374
NIVILLERS;60510;49.4506700371;2.16728626603
NOAILLES;60430;49.3185654473;2.19363262342
NOGENT SUR OISE;60180;49.2761508066;2.46417183632
NOINTEL;60840;49.3828586322;2.48747358426
NOIREMONT;60480;49.5477774289;2.21412764409
NOROY;60130;49.4429608366;2.51040723734
NOURARD LE FRANC;60130;49.5007862004;2.36368956147
NOVILLERS;60730;49.269638659;2.21663678041
NOYERS ST MARTIN;60480;49.548098011;2.26637360937
NOYON;60400;49.5774343318;3.00799806171
OFFOY;60210;49.6969048837;2.03849887777
OGNES;60440;49.0992468739;2.82917802889
OGNOLLES;60310;49.6882744078;2.9140817077
OMECOURT;60220;49.6166743846;1.83402395723
ONS EN BRAY;60650;49.4170822922;1.91904543496
ORMOY LE DAVIEN;60620;49.1960845952;2.95791288835
ORMOY VILLERS;60800;49.1972207576;2.84690572589
OROER;60510;49.4964951058;2.18031432031
ORROUY;60129;49.3071238607;2.85809275109
ORRY LA VILLE;60560;49.140934755;2.50855732387
ORVILLERS SOREL;60490;49.5744800615;2.71031705668
OUDEUIL;60860;49.5491561309;2.02722725517
OURSEL MAISON;60480;49.6022006095;2.17775833249
PAILLART;60120;49.6651337935;2.3206181648
PARNES;60240;49.2000876864;1.74905447896
PASSEL;60400;49.5562386806;2.96570215096
PEROY LES GOMBRIES;60440;49.1656749464;2.84320631548
PIERREFITTE EN BEAUVAISIS;60112;49.4736179476;1.97936624141
PIERREFONDS;60350;49.348002803;2.96575966362
PIMPREZ;60170;49.5123733256;2.95178055109
PISSELEU;60860;49.5378600786;2.05641774458
PLAILLY;60128;49.1113621574;2.57767746026
PLAINVAL;60130;49.5340616359;2.45773884627
PLAINVILLE;60120;49.6129358636;2.44994653858
PLESSIS DE ROYE;60310;49.5715853896;2.82849127947
PONCHON;60430;49.3480922542;2.18400439052
PONT L EVEQUE;60400;49.5627550625;2.98667327051
PONT STE MAXENCE;60700;49.3049711726;2.60798085563
PONTARME;60520;49.1652249379;2.55752249629
PONTOISE LES NOYON;60400;49.5434848302;3.04751072551
PONTPOINT;60700;49.3004968016;2.64847829127
PORCHEUX;60390;49.3365218243;1.92395971009
PORQUERICOURT;60400;49.5968822317;2.95464137145
POUILLY;60790;49.2756110754;2.03153859002
PRECY SUR OISE;60460;49.2033673942;2.36214384754
PREVILLERS;60360;49.6174288468;1.99964588625
PRONLEROY;60190;49.4684053367;2.53983717529
PUISEUX EN BRAY;60850;49.4107616918;1.77846343904
PUISEUX LE HAUBERGER;60540;49.2180286454;2.23133735339
PUITS LA VALLEE;60480;49.5836339442;2.19003543051
QUESMY;60640;49.6320835228;3.05496542232
QUINCAMPOIX FLEUZY;60220;49.7455416962;1.76896943429
QUINQUEMPOIX;60130;49.5472914802;2.41866842622
RAINVILLERS;60155;49.4070517504;1.99835502155
RANTIGNY;60290;49.3338498991;2.43555395564
RARAY;60810;49.263440205;2.71969043321
RAVENEL;60130;49.5143827967;2.49905019788
REEZ FOSSE MARTIN;60620;49.0912758357;2.92362494577
REILLY;60240;49.240746359;1.85701777759
REMECOURT;60600;49.4300556144;2.49241906873
REMERANGLES;60510;49.4481992219;2.29023906853
REMY;60190;49.4346894863;2.70312726692
RESSONS SUR MATZ;60490;49.5337304815;2.73255438737
RETHONDES;60153;49.4289952434;2.94460226209
REUIL SUR BRECHE;60480;49.5218600846;2.226027175
RHUIS;60410;49.3044719658;2.69787230375
RIBECOURT DRESLINCOURT;60170;49.5224343786;2.91876179627
RICQUEBOURG;60490;49.5606808344;2.75829251841
RIEUX;60870;49.3000073439;2.51252938174
RIVECOURT;60126;49.3462815732;2.73842909155
ROBERVAL;60410;49.2911584185;2.68497553909
ROCHY CONDE;60510;49.4041536099;2.1887872346
ROCQUEMONT;60800;49.2596362011;2.81990784544
ROCQUENCOURT;60120;49.6482426702;2.410098489
ROMESCAMPS;60220;49.712188183;1.80039781774
ROSIERES;60440;49.186539903;2.781014217
ROSOY;60140;49.3392916564;2.50928278389
ROSOY EN MULTIEN;60620;49.0955522989;2.98960846382
ROTANGY;60360;49.5850016727;2.08836287061
ROTHOIS;60690;49.5981184511;1.98978913272
ROUSSELOY;60660;49.2984297084;2.39261860558
ROUVILLE;60800;49.2101065424;2.88059214006
ROUVILLERS;60190;49.4557611545;2.62988775379
ROUVRES EN MULTIEN;60620;49.1065269014;3.02241048345
ROUVROY LES MERLES;60120;49.6509731175;2.3591696972
ROY BOISSY;60690;49.5802763443;1.91999157455
ROYAUCOURT;60420;49.6124825658;2.52773304536
ROYE SUR MATZ;60310;49.5936160984;2.7709194212
RULLY;60810;49.2390399273;2.7248899775
RUSSY BEMONT;60117;49.249762849;2.95637817553
SACY LE GRAND;60700;49.3567536222;2.55499209997
SACY LE PETIT;60190;49.3698949265;2.62778300608
SAINS MORAINVILLERS;60420;49.5784892479;2.46396837971
SAINTINES;60410;49.3020445014;2.76780194989
SALENCY;60400;49.5876754737;3.04632508396
SARCUS;60210;49.6808539591;1.87577061583
SARNOIS;60210;49.680399425;1.92482666497
SAVIGNIES;60650;49.4627452726;1.95763828893
SEMPIGNY;60400;49.5526800369;3.00054707507
SENANTES;60650;49.4824791427;1.8336835055
SENLIS;60300;49.2118455897;2.58570626014
SENOTS;60240;49.2603954952;2.01352308101
SERANS;60240;49.1909346161;1.82734336167
SEREVILLERS;60120;49.6352843192;2.43516839817
SERIFONTAINE;60590;49.3615071345;1.79376324721
SERMAIZE;60400;49.6168772777;2.95323666872
SERY MAGNEVAL;60800;49.2584848304;2.86028691199
SILLY LE LONG;60330;49.1084845139;2.78729008831
SILLY TILLARD;60430;49.3175765383;2.15326097758
SOLENTE;60310;49.6978592083;2.88427490672
SOMMEREUX;60210;49.6749063836;2.00347221953
SONGEONS;60380;49.5626808865;1.85253851049
ST ANDRE FARIVILLERS;60480;49.5820586693;2.30062161495
ST ARNOULT;60220;49.636114034;1.80591000401
ST AUBIN EN BRAY;60650;49.4256177121;1.88925202038
ST AUBIN SOUS ERQUERY;60600;49.4123694145;2.49005189932
ST CREPIN AUX BOIS;60170;49.4447949689;2.9848806612
ST CREPIN IBOUVILLERS;60149;49.2592528645;2.06773136457
ST CREPIN IBOUVILLERS;60790;49.2592528645;2.06773136457
ST DENISCOURT;60380;49.6064297043;1.86417879893
ST ETIENNE ROILAYE;60350;49.3604965921;3.0112130917
ST FELIX;60370;49.3548770591;2.28412904405
ST GERMAIN LA POTERIE;60650;49.4423808139;1.971867466
ST GERMER DE FLY;60850;49.441635095;1.7819147282
ST JEAN AUX BOIS;60350;49.3501826789;2.88709409437
ST JUST EN CHAUSSEE;60130;49.5112063236;2.41780624403
ST LEGER AUX BOIS;60170;49.4782276386;2.95219747326
ST LEGER EN BRAY;60155;49.3882002284;2.02635842771
ST LEU D ESSERENT;60340;49.2286214126;2.40910625002
ST MARTIN AUX BOIS;60420;49.5250033186;2.56003918662
ST MARTIN LE NOEUD;60000;49.3957799829;2.05937901861
ST MARTIN LONGUEAU;60700;49.3474706445;2.59996403152
ST MAUR;60210;49.6166715837;1.92159084424
ST MAXIMIN;60740;49.224445885;2.45930498428
ST OMER EN CHAUSSEE;60860;49.5333363606;2.00249119554
ST PAUL;60650;49.4277052907;1.98675158982
ST PIERRE ES CHAMPS;60850;49.4227812737;1.74067082162
ST PIERRE LES BITRY;60350;49.4314595152;3.08507355061
ST QUENTIN DES PRES;60380;49.5201563268;1.7479039158
ST REMY EN L EAU;60130;49.4703008041;2.42414502443
ST SAMSON LA POTERIE;60220;49.5932820021;1.73960582864
ST SAUVEUR;60320;49.3285204781;2.80616373785
ST SULPICE;60430;49.3492908609;2.12271497289
ST THIBAULT;60210;49.6940947082;1.82443104222
ST VAAST DE LONGMONT;60410;49.2964793242;2.74465320657
ST VAAST LES MELLO;60660;49.2767877481;2.39991208976
ST VALERY;60220;49.7249107248;1.72911335468
STE EUSOYE;60480;49.5752040683;2.25015619286
STE GENEVIEVE;60730;49.2889931714;2.19808421262
SULLY;60380;49.5582968682;1.77942067528
SUZOY;60400;49.582856711;2.93918164919
TALMONTIERS;60590;49.3892320184;1.75051136418
TARTIGNY;60120;49.6347175976;2.36247535718
THERDONNE;60510;49.4231387844;2.15300884654
THERINES;60380;49.6034358445;1.8937457326
THIBIVILLERS;60240;49.3092311857;1.90187779485
THIERS SUR THEVE;60520;49.1536648574;2.57819751248
THIESCOURT;60310;49.5596026493;2.86659655683
THIEULOY ST ANTOINE;60210;49.6347803075;1.94612857854
THIEUX;60480;49.5437985165;2.30999977831
THIVERNY;60160;49.245997329;2.42786495364
THOUROTTE;60150;49.4793368724;2.88124505032
THURY EN VALOIS;60890;49.1516839082;3.02876069607
THURY SOUS CLERMONT;60250;49.3584817285;2.32859309927
TILLE;60000;49.4644718487;2.11782914141
TOURLY;60240;49.2202049953;1.94208573805
TRACY LE MONT;60170;49.469047669;3.00367907538
TRACY LE VAL;60170;49.4907973534;3.01394376369
TRICOT;60420;49.5631454489;2.58460217686
TRIE CHATEAU;60590;49.2868018979;1.81392681407
TRIE LA VILLE;60590;49.2858970695;1.84203331226
TROISSEREUX;60112;49.4839349109;2.05750411907
TROSLY BREUIL;60350;49.3995937676;2.96594779621
TROUSSENCOURT;60120;49.6035801576;2.24854174337
TRUMILLY;60800;49.2396223945;2.78712488353
ULLY ST GEORGES;60730;49.2743733295;2.27563757505
VALDAMPIERRE;60790;49.3067997145;2.05433922137
VALESCOURT;60130;49.4852062948;2.43655225362
VANDELICOURT;60490;49.5083038228;2.79666827304
VARESNES;60400;49.5566902552;3.07817073988
VARINFROY;60890;49.0940200918;3.0480173997
VAUCHELLES;60400;49.5858402656;2.96793055954
VAUCIENNES;60117;49.2291351959;3.01623561024
VAUDANCOURT;60240;49.2291987469;1.76107824427
VAUMOISE;60117;49.2399086091;2.98230232507
VELENNES;60510;49.4733673509;2.18849314931
VENDEUIL CAPLY;60120;49.6103570649;2.29253043617
VENETTE;60280;49.4195417844;2.78373972195
VER SUR LAUNETTE;60950;49.1055721825;2.67260382684
VERBERIE;60410;49.3057654461;2.73302583276
VERDEREL LES SAUQUEUSE;60112;49.5067320831;2.08154719995
VERDERONNE;60140;49.3288283373;2.49160157922
VERNEUIL EN HALATTE;60550;49.2729920918;2.53462190972
VERSIGNY;60440;49.1606951564;2.78351758115
VEZ;60117;49.256896611;3.00864189174
VIEFVILLERS;60360;49.6092660128;2.12817479204
VIEUX MOULIN;60350;49.3844925116;2.92575839247
VIGNEMONT;60162;49.496646661;2.77690716811
VILLE;60400;49.5568331597;2.93397641263
VILLEMBRAY;60650;49.4826856803;1.87278558201
VILLENEUVE LES SABLONS;60175;49.2334293804;2.07366432947
VILLENEUVE SUR VERBERIE;60410;49.2751399266;2.67989844537
VILLERS SOUS ST LEU;60340;49.2175345324;2.38499254783
VILLERS ST BARTHELEMY;60650;49.4030125375;1.95463003144
VILLERS ST FRAMBOURG OGNON;60810;49.260726193;2.63465752752
VILLERS ST GENEST;60620;49.14033599;2.90001405815
VILLERS ST PAUL;60870;49.2881764019;2.49334191961
VILLERS ST SEPULCRE;60134;49.3689508807;2.20925215873
VILLERS SUR AUCHY;60650;49.4762316159;1.79239140234
VILLERS SUR BONNIERES;60860;49.5340978848;1.96061918501
VILLERS SUR COUDUN;60150;49.4863336578;2.8047419383
VILLERS VERMONT;60380;49.5743549353;1.7287833977
VILLERS VICOMTE;60120;49.6423565019;2.22866493678
VILLESELVE;60640;49.6864956183;3.11192493316
VINEUIL ST FIRMIN;60500;49.2047770407;2.50069915861
VROCOURT;60112;49.5361368053;1.89040269759
WACQUEMOULIN;60420;49.5082288701;2.6214465099
WAMBEZ;60380;49.5222569394;1.84463132714
WARLUIS;60430;49.3861654492;2.15875512452
WAVIGNIES;60130;49.5467064424;2.35949571781
WELLES PERENNES;60420;49.6092799764;2.48322981336
