ALENCON;61000;48.4318193082;0.0915406916107
ALMENECHES;61570;48.6982248016;0.125681370095
APPENAI SOUS BELLEME;61130;48.3400960941;0.564708341058
ARGENTAN;61200;48.7321880919;-0.0132322590535
ATHIS VAL DE ROUVRE;61100;48.7951982952;-0.509617196105
ATHIS VAL DE ROUVRE;61430;48.7951982952;-0.509617196105
AUBE;61270;48.7318577878;0.545628090073
AUBRY LE PANTHOU;61120;48.8545964209;0.227741225949
AUBUSSON;61100;48.7798224159;-0.553278644755
AUGUAISE;61270;48.6981000827;0.551574938976
AUNAY LES BOIS;61500;48.5466721031;0.29333748049
AUNOU LE FAUCON;61200;48.7194759541;0.055348775966
AUNOU SUR ORNE;61500;48.6057819219;0.238232234334
AVERNES ST GOURGON;61470;48.9370401429;0.31350420868
AVOINE;61150;48.6713596683;-0.0993268987581
AVRILLY;61700;48.53716556;-0.617581790397
BAGNOLES DE L ORNE NORMANDIE;61140;48.5556585202;-0.419510749596
BAGNOLES DE L ORNE NORMANDIE;61600;48.5556585202;-0.419510749596
BAILLEUL;61160;48.8108648094;-0.0236048546803
BANVOU;61450;48.6639903117;-0.556894831544
BARVILLE;61170;48.4725873445;0.346572085133
BAZOCHES AU HOULME;61210;48.8288059137;-0.263374307048
BAZOCHES SUR HOENE;61560;48.5510739399;0.470361328466
BEAUFAI;61270;48.755637161;0.511069602511
BEAULIEU;61190;48.6802207803;0.736178480276
BEAUVAIN;61600;48.6202503674;-0.302633037156
BELFONDS;61500;48.6109514041;0.107175122984
BELFORET EN PERCHE;61130;48.3725300515;0.509787667614
BELFORET EN PERCHE;61360;48.3725300515;0.509787667614
BELFORET EN PERCHE;61400;48.3725300515;0.509787667614
BELLAVILLIERS;61360;48.4176974835;0.490691078997
BELLEME;61130;48.3730422807;0.563433048033
BELLOU EN HOULME;61220;48.6910303266;-0.444104849045
BELLOU LE TRICHARD;61130;48.2640987687;0.55321746429
BERD HUIS;61340;48.3500105635;0.739532399855
BERJOU;61430;48.8487660558;-0.478406645322
BIZOU;61290;48.492046967;0.750681055966
BOECE;61560;48.5149253316;0.454540443789
BOISCHAMPRE;61570;48.656618574;0.00188165114275
BOISSEI LA LANDE;61570;48.6888205216;0.0605654191254
BOITRON;61500;48.5692964813;0.265425741092
BONNEFOI;61270;48.6761468135;0.562246564264
BONSMOULINS;61380;48.6583186822;0.541666162724
BOUCE;61570;48.6324251717;-0.095549889468
BRETHEL;61270;48.7151055973;0.54286645063
BRETONCELLES;61110;48.4358447093;0.900700483444
BRIEUX;61160;48.8334251501;-0.0791169679953
BRIOUZE;61220;48.7111600408;-0.377752655086
BRULLEMAIL;61390;48.6595245184;0.324213865898
BURE;61170;48.5057238643;0.404327830049
BURES;61170;48.5579280908;0.401372198691
BURSARD;61500;48.5410404688;0.203747510397
CAHAN;61430;48.8597279145;-0.446109041609
CALIGNY;61100;48.8071056766;-0.603648177007
CAMEMBERT;61120;48.8916392638;0.17180547604
CANAPVILLE;61120;48.9484108928;0.256239841886
CARROUGES;61320;48.5691225023;-0.160230464301
CEAUCE;61330;48.4936450518;-0.634587693157
CERISE;61000;48.4441981247;0.131476179306
CERISY BELLE ETOILE;61100;48.7831815078;-0.623679681205
CETON;61260;48.2249965055;0.758513883231
CHAHAINS;61320;48.561816363;-0.116398968033
CHAILLOUE;61240;48.6568911726;0.196513358702
CHAILLOUE;61500;48.6568911726;0.196513358702
CHAMP HAUT;61240;48.7261314736;0.325245165597
CHAMPCERIE;61210;48.7979697432;-0.228081171597
CHAMPEAUX SUR SARTHE;61560;48.5770264971;0.439382618657
CHAMPOSOULT;61120;48.8633242426;0.16705586887
CHAMPSECRET;61700;48.605210467;-0.525248571661
CHANDAI;61300;48.7419330141;0.744469274566
CHANU;61800;48.7224631427;-0.672912176288
CHARENCEY;61190;48.6391173168;0.752904500205
CHAUMONT;61230;48.8445061451;0.338218709549
CHEMILLI;61360;48.3600549663;0.451929656823
CIRAL;61320;48.5071426572;-0.132794455306
CISAI ST AUBIN;61230;48.7765975635;0.357700893574
COLOMBIERS;61250;48.4757516967;0.0509684749642
COMBLOT;61400;48.4604945962;0.586141513594
COMMEAUX;61200;48.7884537955;-0.0987177513716
CONDE SUR SARTHE;61250;48.4339888036;0.0335059639951
CORBON;61400;48.4600122799;0.642647219775
COUDEHARD;61160;48.8492741023;0.137324296391
COULIMER;61360;48.4795734598;0.461229892959
COULMER;61230;48.7666900667;0.303236402861
COULONCES;61160;48.8320426038;0.0154675970058
COULONGES SUR SARTHE;61170;48.5299458495;0.395044867838
COUR MAUGIS SUR HUISNE;61110;48.464144125;0.730036118715
COUR MAUGIS SUR HUISNE;61340;48.464144125;0.730036118715
COURGEON;61400;48.4792586192;0.610569927364
COURGEOUT;61560;48.5081772919;0.490279202757
COURTOMER;61390;48.6253139706;0.348458079844
CRAMENIL;61220;48.7450234977;-0.372031703174
CROISILLES;61230;48.7626241213;0.267120484409
CROUTTES;61120;48.9223848816;0.136536392714
CRULAI;61300;48.6957117873;0.659111574519
CUISSAI;61250;48.4725248248;0.00249150932899
DAME MARIE;61130;48.3547234316;0.618155918935
DAMIGNY;61250;48.4509364175;0.0721150858454
DOMFRONT EN POIRAIE;61700;48.5824684934;-0.61398156582
DOMPIERRE;61700;48.6368158106;-0.5529421904
DURCET;61100;48.7409713095;-0.441750363185
ECHALOU;61440;48.7222533282;-0.492334551677
ECHAUFFOUR;61370;48.7322506455;0.395097737587
ECORCEI;61270;48.7192657885;0.575658478261
ECORCHES;61160;48.8736821576;0.0860912539084
ECOUCHE LES VALLEES;61150;48.715236562;-0.11079364791
ECOUCHE LES VALLEES;61200;48.715236562;-0.11079364791
ECOUVES;61250;48.5089267357;0.0863965878338
ESSAY;61500;48.5404326393;0.242237703533
FAVEROLLES;61600;48.6691172577;-0.289200935258
FAY;61390;48.6612913524;0.407509291689
FEINGS;61400;48.5433586588;0.649080735895
FERRIERES LA VERRERIE;61390;48.6526270893;0.376818250873
FLERS;61100;48.7399319125;-0.562509564641
FLEURE;61200;48.6830918716;-0.0507019208151
FONTAINE LES BASSETS;61160;48.8614123081;0.00290765242172
FRANCHEVILLE;61570;48.6382859389;-0.0600624308004
FRESNAY LE SAMSON;61120;48.872166928;0.207025608696
GACE;61230;48.790215977;0.308446478408
GANDELAIN;61420;48.471434104;-0.0863104439985
GAPREE;61390;48.6244819747;0.293642849368
GIEL COURTEILLES;61210;48.7650250908;-0.208008269332
GINAI;61310;48.7444923709;0.209513017562
GODISSON;61240;48.6758477819;0.249741558022
GOUFFERN EN AUGE;61160;48.7516893837;0.0651597392441
GOUFFERN EN AUGE;61200;48.7516893837;0.0651597392441
GOUFFERN EN AUGE;61310;48.7516893837;0.0651597392441
GUEPREI;61160;48.8356279545;-0.0153255535915
GUERQUESALLES;61120;48.9007314354;0.215841045214
HABLOVILLE;61210;48.7905539735;-0.178098224902
HAUTERIVE;61250;48.4813211383;0.205141190434
HELOUP;61250;48.3967092098;0.0351889089974
IGE;61130;48.3129531169;0.516923568848
IRAI;61190;48.6742050739;0.689209561635
JOUE DU BOIS;61320;48.5845783211;-0.231209382514
JOUE DU PLAIN;61150;48.6801916267;-0.140023769708
JUVIGNY SUR ORNE;61200;48.7241556418;0.0235822074744
JUVIGNY VAL D ANDAINE;61140;48.5575380101;-0.496792071108
JUVIGNY VAL D ANDAINE;61330;48.5575380101;-0.496792071108
L AIGLE;61300;48.7561549553;0.611126420423
L HOME CHAMONDOT;61290;48.6002616594;0.735701468188
L OREE D ECOUVES;61320;48.5076444763;-0.0385013329846
L OREE D ECOUVES;61420;48.5076444763;-0.0385013329846
LA BAZOQUE;61100;48.7845443137;-0.598606188518
LA BELLIERE;61570;48.6212934568;-0.0179184399938
LA CHAPELLE AU MOINE;61100;48.7030083622;-0.592037594285
LA CHAPELLE BICHE;61100;48.7128515719;-0.622127814568
LA CHAPELLE MONTLIGEON;61400;48.4854312725;0.659562933284
LA CHAPELLE PRES SEES;61500;48.5667583152;0.153857564535
LA CHAPELLE SOUEF;61130;48.3177028134;0.588455492814
LA CHAPELLE VIEL;61270;48.7099526297;0.612218004614
LA CHAUX;61600;48.6020436044;-0.267103118047
LA COULONCHE;61220;48.6375516967;-0.466617045312
LA FERRIERE AU DOYEN;61380;48.6795473913;0.506168512231
LA FERRIERE AUX ETANGS;61450;48.6515598236;-0.508551110895
LA FERRIERE BECHET;61500;48.5753978113;0.0709025033541
LA FERRIERE BOCHARD;61420;48.4160824644;-0.0368422233193
LA FERTE EN OUCHE;61470;48.8362459554;0.508544741133
LA FERTE EN OUCHE;61550;48.8362459554;0.508544741133
LA FERTE MACE;61410;48.581835018;-0.366879794994
LA FERTE MACE;61600;48.581835018;-0.366879794994
LA FRESNAIE FAYEL;61230;48.8333166779;0.227433994696
LA GENEVRAIE;61240;48.6836221489;0.319127105217
LA GONFRIERE;61550;48.8156823436;0.490360081148
LA LANDE DE GOULT;61320;48.5840302708;-0.0548449345783
LA LANDE DE LOUGE;61210;48.7010795205;-0.249914242658
LA LANDE PATRY;61100;48.7535484464;-0.598148128234
LA LANDE ST SIMEON;61100;48.8273403664;-0.433811348847
LA MADELEINE BOUVET;61110;48.468815139;0.898781486083
LA MESNIERE;61560;48.5217923084;0.434024036779
LA MOTTE FOUQUET;61600;48.5665252218;-0.268780930667
LA ROCHE MABILE;61420;48.489577366;-0.0663745074632
LA SELLE LA FORGE;61100;48.7354177799;-0.53278023694
LA TRINITE DES LAITIERS;61230;48.8014157498;0.379968041831
LA VENTROUZE;61190;48.6121964562;0.689163035175
LALACELLE;61320;48.4693160672;-0.127634893953
LALEU;61170;48.5417295562;0.365988546618
LANDIGOU;61100;48.7436800101;-0.47751409105
LANDISACQ;61100;48.752851397;-0.658625971927
LARRE;61250;48.4933130424;0.166961596924
LE BOSC RENOULT;61470;48.9156193104;0.309566800591
LE BOUILLON;61500;48.558226063;0.0985668726868
LE CERCUEIL;61500;48.5939742322;0.0100728220332
LE CHALANGE;61390;48.5921212927;0.312206757526
LE CHAMP DE LA PIERRE;61320;48.6042220102;-0.205228915716
LE CHATEAU D ALMENECHES;61570;48.6727206778;0.130610426529
LE CHATELLIER;61450;48.6774891036;-0.583208023113
LE GRAIS;61600;48.640228163;-0.320480791635
LE MAGE;61290;48.5046888094;0.813503394446
LE MELE SUR SARTHE;61170;48.5109025611;0.35265245515
LE MENIL BERARD;61270;48.7055430019;0.510723949969
LE MENIL BROUT;61250;48.4800081539;0.237910354434
LE MENIL CIBOULT;61800;48.761641813;-0.791879154627
LE MENIL DE BRIOUZE;61220;48.660905496;-0.397537206394
LE MENIL GUYON;61170;48.5800612899;0.29433804603
LE MENIL SCELLEUR;61320;48.6131652955;-0.124894508969
LE MENIL VICOMTE;61240;48.7454400632;0.293574610527
LE MERLERAULT;61240;48.7007870105;0.280266472699
LE PAS ST L HOMER;61290;48.4935203875;0.928175992686
LE PIN AU HARAS;61310;48.7473548359;0.136994750389
LE PIN LA GARENNE;61400;48.4445657379;0.544883378197
LE PLANTIS;61170;48.6037546825;0.397038776409
LE RENOUARD;61120;48.9194110342;0.0988609548607
LE SAP ANDRE;61230;48.8285699503;0.390076945635
LES ASPRES;61270;48.6753438359;0.610110315479
LES AUTHIEUX DU PUITS;61240;48.7049354762;0.329371823678
LES CHAMPEAUX;61120;48.8883947737;0.134248218764
LES GENETTES;61270;48.6613367608;0.582203708406
LES MENUS;61290;48.5179857136;0.93370273757
LES MONTS D ANDAINE;61600;48.6127467342;-0.435491688539
LES VENTES DE BOURSE;61170;48.5065515464;0.266487058191
LES YVETEAUX;61210;48.7089293788;-0.270231852035
LIGNERES;61240;48.7371565601;0.306149827572
LIGNOU;61220;48.6736724147;-0.342978146704
LOISAIL;61400;48.5049086488;0.586338732219
LONGNY LES VILLAGES;61290;48.5293923919;0.757893185933
LONLAY L ABBAYE;61700;48.6502297145;-0.704744112776
LONLAY LE TESSON;61600;48.6505142645;-0.34589892324
LONRAI;61250;48.4532606248;0.0362818528268
LOUGE SUR MAIRE;61150;48.7010300474;-0.221367554163
LOUVIERES EN AUGE;61160;48.8691287716;0.0285333540069
MACE;61500;48.6476898388;0.136870409048
MAGNY LE DESERT;61600;48.570570213;-0.323140546642
MAHERU;61380;48.6654929816;0.43898779821
MANTILLY;61350;48.5113113918;-0.813623687288
MARCHEMAISONS;61170;48.5227109351;0.314713654868
MARDILLY;61230;48.829136334;0.262656669322
MAUVES SUR HUISNE;61400;48.4380123635;0.608254382675
MEDAVY;61570;48.6730922251;0.0786736803117
MEHOUDIN;61410;48.508806883;-0.381338867818
MENIL ERREUX;61250;48.5093937209;0.183751804866
MENIL FROGER;61240;48.7308500818;0.265343668064
MENIL GONDOUIN;61210;48.7541147745;-0.296950238626
MENIL HERMEI;61210;48.8258123332;-0.318533772581
MENIL HUBERT EN EXMES;61230;48.8018370315;0.233439468984
MENIL HUBERT SUR ORNE;61430;48.8493278134;-0.41582469605
MENIL VIN;61210;48.8495621801;-0.319173633186
MERRI;61160;48.8496427055;-0.0480442687765
MESSEI;61440;48.7140643026;-0.539204262797
MIEUXCE;61250;48.4115548771;-0.00204089099581
MONCY;61800;48.8332257317;-0.674553210815
MONT ORMEL;61160;48.8358294295;0.153055227997
MONTABARD;61160;48.8111933049;-0.085483255391
MONTCHEVREL;61170;48.5815747627;0.334452095994
MONTGAUDRY;61360;48.409293886;0.397216476746
MONTILLY SUR NOIREAU;61100;48.8146701791;-0.5709234596
MONTMERREI;61570;48.6305942263;0.0318720441424
MONTREUIL AU HOULME;61210;48.6816940367;-0.266477110439
MONTREUIL LA CAMBE;61160;48.8842457581;0.0335930186845
MONTS SUR ORNE;61150;48.7360749427;-0.0897289866447
MONTSECRET CLAIREFOUGERE;61800;48.7964115214;-0.677236896006
MORTAGNE AU PERCHE;61400;48.5204467811;0.561388622887
MORTREE;61500;48.6384870468;0.0801583053247
MORTREE;61570;48.6384870468;0.0801583053247
MOULINS LA MARCHE;61380;48.6502807278;0.47464312921
MOULINS SUR ORNE;61200;48.7533220868;-0.0653769966336
MOUTIERS AU PERCHE;61110;48.4831821035;0.856650987166
NEAUPHE SOUS ESSAI;61500;48.5638348673;0.194252543746
NEAUPHE SUR DIVE;61160;48.8515075057;0.0956108929382
NECY;61160;48.8284800153;-0.117856246285
NEUILLY LE BISSON;61250;48.5043524254;0.219675874132
NEUVILLE SUR TOUQUES;61120;48.862323733;0.280747613281
NEUVY AU HOULME;61210;48.821735051;-0.190259929005
NONANT LE PIN;61240;48.7031233421;0.207290973767
OCCAGNES;61200;48.7813226676;-0.0658264012764
OMMOY;61160;48.8545702425;-0.0238115124899
ORGERES;61230;48.752506479;0.3456805156
ORIGNY LE ROUX;61130;48.3345893006;0.417585339398
PACE;61250;48.4457253693;-0.00548884652011
PARFONDEVAL;61400;48.4800875172;0.506050858158
PASSAIS VILLAGES;61350;48.5142650643;-0.759546926567
PERCHE EN NOCE;61340;48.3808259058;0.686799351677
PERROU;61700;48.5760698377;-0.548505109021
PERVENCHERES;61360;48.4439121887;0.411023261659
PLANCHES;61370;48.6898504724;0.377530769995
POINTEL;61220;48.6945257579;-0.348493610503
PONTCHARDON;61120;48.9301943035;0.262438401104
POUVRAI;61130;48.2795939755;0.518958565692
PUTANGES LE LAC;61210;48.766449668;-0.252215702706
RAI;61270;48.7559861003;0.562809659715
RANES;61150;48.6436675698;-0.217658803697
REMALARD EN PERCHE;61110;48.4498027895;0.77912800072
RESENLIEU;61230;48.7900887821;0.276930426076
REVEILLON;61400;48.4806705534;0.56261549181
RI;61210;48.788213656;-0.13879185478
RIVES D ANDAINE;61140;48.5439558211;-0.466370828883
RIVES D ANDAINE;61410;48.5439558211;-0.466370828883
ROIVILLE;61120;48.8801395888;0.236531994875
RONAI;61160;48.8104980056;-0.135238062061
ROUPERROUX;61320;48.5486223106;-0.0783070425264
SABLONS SUR HUISNE;61110;48.3793529122;0.864706610339
SAI;61200;48.7407667641;0.0235996359828
SAIRES LA VERRERIE;61220;48.6896183653;-0.4875928451
SAP EN AUGE;61120;48.8881688087;0.338970200397
SAP EN AUGE;61470;48.8881688087;0.338970200397
SARCEAUX;61200;48.7158736886;-0.0346146728609
SEES;61500;48.6048296774;0.169026415284
SEMALLE;61250;48.4735348664;0.15478366717
SEVIGNY;61200;48.7731316921;-0.0198186687078
SEVRAI;61150;48.7048584232;-0.151545774151
SOLIGNY LA TRAPPE;61380;48.6272197858;0.549235029616
ST AGNAN SUR SARTHE;61170;48.6219458943;0.428936207107
ST ANDRE DE BRIOUZE;61220;48.7338760322;-0.327257845989
ST ANDRE DE MESSEI;61440;48.6883800574;-0.521932078822
ST AQUILIN DE CORBION;61380;48.6410212867;0.527395250129
ST AUBIN D APPENAI;61170;48.5420210884;0.33805985698
ST AUBIN DE BONNEVAL;61470;48.9491057689;0.371524010487
ST AUBIN DE COURTERAIE;61560;48.6087873617;0.452912112698
ST BOMER LES FORGES;61700;48.6448585107;-0.622820262542
ST BRICE;61700;48.5498503299;-0.641601711695
ST BRICE SOUS RANES;61150;48.6784450821;-0.19335744417
ST CENERI LE GEREI;61250;48.389040252;-0.0400378632747
ST CHRISTOPHE DE CHAULIEU;61800;48.7424101342;-0.83155426075
ST CLAIR DE HALOUZE;61490;48.6891169765;-0.626025775908
ST CYR LA ROSIERE;61130;48.3206311258;0.642420415109
ST DENIS SUR HUISNE;61400;48.4707648584;0.531647869938
ST DENIS SUR SARTHON;61420;48.4579481796;-0.0372277848804
ST ELLIER LES BOIS;61320;48.5239551221;-0.0984963605984
ST EVROULT DE MONTFORT;61230;48.8122960586;0.312765377399
ST EVROULT NOTRE DAME DU BOIS;61550;48.7791005321;0.452488554274
ST FRAIMBAULT;61350;48.4987485682;-0.711543508094
ST FULGENT DES ORMES;61130;48.3204406534;0.453059277552
ST GEORGES D ANNEBECQ;61600;48.6307948842;-0.26545917977
ST GEORGES DES GROSEILLERS;61100;48.7672046691;-0.568075544032
ST GERMAIN D AUNAY;61470;48.9290248327;0.381614351113
ST GERMAIN DE CLAIREFEUILLE;61240;48.7256386551;0.24088318968
ST GERMAIN DE LA COUDRE;61130;48.2717389911;0.591626706972
ST GERMAIN DE MARTIGNY;61560;48.5873936203;0.467132104726
ST GERMAIN DES GROIS;61110;48.4049147624;0.815631940601
ST GERMAIN DU CORBEIS;61000;48.4177117997;0.0580112631913
ST GERMAIN LE VIEUX;61390;48.6106053248;0.311416198264
ST GERVAIS DES SABLONS;61160;48.9014613359;0.0731396137637
ST GERVAIS DU PERRON;61500;48.5368344624;0.150158348014
ST GILLES DES MARAIS;61700;48.5850326416;-0.698007308747
ST HILAIRE DE BRIOUZE;61220;48.7072968061;-0.30765966543
ST HILAIRE LE CHATEL;61400;48.5551273159;0.540291950034
ST HILAIRE SUR ERRE;61340;48.3121656511;0.745828480936
ST HILAIRE SUR RISLE;61270;48.7245700882;0.507831900424
ST JOUIN DE BLAVOU;61360;48.4486820251;0.4823333383
ST JULIEN SUR SARTHE;61170;48.4899708762;0.37342953932
ST LAMBERT SUR DIVE;61160;48.8296369621;0.0905725341208
ST LANGIS LES MORTAGNE;61400;48.5098568869;0.531729896693
ST LEGER SUR SARTHE;61170;48.495044339;0.316782029384
ST LEONARD DES PARCS;61390;48.6460340258;0.276826106353
ST MARD DE RENO;61400;48.5102214225;0.634185094113
ST MARS D EGRENNE;61350;48.5513540605;-0.733712113871
ST MARTIN D ECUBLEI;61300;48.7949779285;0.669166067882
ST MARTIN DES LANDES;61320;48.546237837;-0.156413785136
ST MARTIN DES PEZERITS;61380;48.627183396;0.489313798529
ST MARTIN DU VIEUX BELLEME;61130;48.3722492499;0.54715865547
ST MARTIN L AIGUILLON;61320;48.6028213138;-0.17990137206
ST MICHEL TUBOEUF;61300;48.7538911269;0.686562165438
ST NICOLAS DE SOMMAIRE;61550;48.8124271962;0.597978267366
ST NICOLAS DES BOIS;61250;48.5061778998;0.0266355295781
ST OUEN DE SECHEROUVRE;61560;48.5987945928;0.492195334785
ST OUEN LE BRISOULT;61410;48.5091783781;-0.350727640894
ST OUEN SUR ITON;61300;48.7356894467;0.671333439138
ST PATRICE DU DESERT;61600;48.5343425524;-0.285812215846
ST PAUL;61100;48.7391706962;-0.63036026972
ST PHILBERT SUR ORNE;61430;48.8347611836;-0.375940618055
ST PIERRE D ENTREMONT;61800;48.8117202926;-0.649709169308
ST PIERRE DES LOGES;61370;48.7431643088;0.466256113036
ST PIERRE DU REGARD;61790;48.8338445612;-0.541002383662
ST PIERRE LA BRUYERE;61340;48.35901525;0.799156524403
ST QUENTIN DE BLAVOU;61360;48.4792330263;0.418725497105
ST QUENTIN LES CHARDONNETS;61800;48.7827074381;-0.75146556661
ST ROCH SUR EGRENNE;61350;48.5760363897;-0.744740516087
ST SAUVEUR DE CARROUGES;61320;48.589499718;-0.109356192251
ST SULPICE SUR RISLE;61300;48.776305281;0.671403390128
ST SYMPHORIEN DES BRUYERES;61300;48.7864528297;0.557396047758
STE CERONNE LES MORTAGNE;61380;48.5864346163;0.525562208998
STE GAUBURGE STE COLOMBE;61370;48.7078395565;0.444533266372
STE HONORINE LA CHARDONNE;61430;48.8247345941;-0.476136278421
STE HONORINE LA GUILLAUME;61210;48.7774185998;-0.381537556924
STE MARGUERITE DE CARROUGES;61320;48.5937651303;-0.151429689315
STE MARIE LA ROBERT;61320;48.6261229757;-0.143899474106
STE OPPORTUNE;61100;48.7360455773;-0.411243624023
STE SCOLASSE SUR SARTHE;61170;48.5810388449;0.385128508121
SURE;61360;48.3689914648;0.406327878358
TANQUES;61150;48.6863581551;-0.0741132458246
TANVILLE;61500;48.5653374491;0.00940180044497
TELLIERES LE PLESSIS;61390;48.6212310332;0.393995256892
TESSE FROULAY;61410;48.5310517444;-0.428931253176
TICHEVILLE;61120;48.9078218887;0.258960926416
TINCHEBRAY BOCAGE;61800;48.7558885792;-0.736451200504
TORCHAMP;61330;48.5396080186;-0.674763032313
TOUQUETTES;61550;48.7969098748;0.414530174127
TOURNAI SUR DIVE;61160;48.8106770801;0.0439108281261
TOUROUVRE AU PERCHE;61190;48.5889926319;0.659944291667
TREMONT;61390;48.5992594307;0.273573907946
TRUN;61160;48.8509334132;0.0461785983021
VAL AU PERCHE;61130;48.2676940084;0.650909010002
VAL AU PERCHE;61260;48.2676940084;0.650909010002
VAL AU PERCHE;61340;48.2676940084;0.650909010002
VALFRAMBERT;61250;48.4648637397;0.110562026701
VAUNOISE;61130;48.3472339828;0.486737933229
VERRIERES;61110;48.3940369878;0.751793679416
VIDAI;61360;48.4602912292;0.376581458211
VIEUX PONT;61150;48.6497838693;-0.151446966065
VILLEDIEU LES BAILLEUL;61160;48.7995766824;0.0180312174989
VILLIERS SOUS MORTAGNE;61400;48.5392056522;0.593084909404
VIMOUTIERS;61120;48.9244621074;0.200660290146
VITRAI SOUS LAIGLE;61300;48.716086064;0.709251455452
