ABLAIN ST NAZAIRE;62153;50.3965609084;2.69725163344
ABLAINZEVELLE;62116;50.153659552;2.74147361096
ACHEVILLE;62320;50.3843803047;2.88203915482
ACHICOURT;62217;50.272283128;2.75614634271
ACHIET LE GRAND;62121;50.1324695483;2.77909963917
ACHIET LE PETIT;62121;50.1256395888;2.7552096399
ACQ;62144;50.3494049466;2.65503527981
ACQUIN WESTBECOURT;62380;50.7293873198;2.07688748986
ADINFER;62116;50.1937061733;2.70612950432
AFFRINGUES;62380;50.6903350571;2.07492436119
AGNEZ LES DUISANS;62161;50.3102322126;2.65021288373
AGNIERES;62690;50.3535942668;2.60772514318
AGNY;62217;50.2529566088;2.76055250016
AIRE SUR LA LYS;62120;50.6441641115;2.39533267946
AIRON NOTRE DAME;62180;50.4412207446;1.66789087192
AIRON ST VAAST;62180;50.4271409917;1.6712119131
AIX EN ERGNY;62650;50.5872440261;2.00011764709
AIX EN ISSART;62170;50.4802572282;1.86105299794
AIX NOULETTE;62160;50.4212424085;2.71263968704
ALEMBON;62850;50.7805751248;1.87194877839
ALETTE;62650;50.524381531;1.85083000523
ALINCTHUN;62142;50.7213979047;1.81018390432
ALLOUAGNE;62157;50.5322320704;2.50493799409
ALQUINES;62850;50.7335685811;1.99279258078
AMBLETEUSE;62164;50.8115899636;1.62108848626
AMBRICOURT;62310;50.4655698983;2.17120117891
AMBRINES;62127;50.3081142295;2.46698289083
AMES;62190;50.5355497519;2.41535244184
AMETTES;62260;50.5270054766;2.39396099687
AMPLIER;62760;50.1381261668;2.39740510092
ANDRES;62340;50.8658312835;1.91824266934
ANGRES;62143;50.4095857133;2.75123923187
ANNAY;62880;50.4616640055;2.88243603583
ANNEQUIN;62149;50.5032887953;2.71958159288
ANNEZIN;62232;50.5396043649;2.61906640484
ANVIN;62134;50.4503901319;2.25792059446
ANZIN ST AUBIN;62223;50.3178758623;2.74105063372
ARDRES;62610;50.8768753502;1.98398234284
ARLEUX EN GOHELLE;62580;50.3643664042;2.86961289041
ARQUES;62510;50.7402216255;2.31902794783
ARRAS;62000;50.2898964997;2.76587316711
ATHIES;62223;50.3071331522;2.84195049899
ATTIN;62170;50.4917667023;1.75510223982
AUBIGNY EN ARTOIS;62690;50.3482767559;2.58650720649
AUBIN ST VAAST;62140;50.3867453505;1.96316204355
AUBROMETZ;62390;50.3037964831;2.17623474177
AUCHEL;62260;50.5103339678;2.4687078329
AUCHY AU BOIS;62190;50.5505941226;2.37330907284
AUCHY LES HESDIN;62770;50.4085719795;2.09530419017
AUCHY LES MINES;62138;50.505827034;2.78113489948
AUDEMBERT;62250;50.8589004255;1.69083658829
AUDINCTHUN;62560;50.5786952858;2.12673374535
AUDINGHEN;62179;50.8517582874;1.60848720292
AUDREHEM;62890;50.7714356577;1.98451606586
AUDRESSELLES;62164;50.8288589082;1.611270565
AUDRUICQ;62370;50.8846450982;2.08156931946
AUMERVAL;62550;50.5056084882;2.40678584816
AUTINGUES;62610;50.8422869707;1.98640127698
AUXI LE CHATEAU;62390;50.2310426213;2.11720873928
AVERDOINGT;62127;50.3453037362;2.44499865437
AVESNES;62650;50.5516543223;1.96214874129
AVESNES LE COMTE;62810;50.271678948;2.52858702519
AVESNES LES BAPAUME;62450;50.1049859352;2.83305700978
AVION;62210;50.4039007645;2.82658779245
AVONDANCE;62310;50.4792838147;2.10125197413
AVROULT;62560;50.6320023279;2.14547609845
AYETTE;62116;50.1699222305;2.73263282673
AZINCOURT;62310;50.4588971511;2.11716559112
BAILLEUL AUX CORNAILLES;62127;50.3728404349;2.44878258653
BAILLEUL LES PERNES;62550;50.5078665231;2.3803188111
BAILLEUL SIR BERTHOULT;62580;50.3357112804;2.84376737542
BAILLEULMONT;62123;50.2110356075;2.60402081464
BAILLEULVAL;62123;50.2223355543;2.62727030677
BAINCTHUN;62360;50.7014421299;1.71289310882
BAINGHEN;62850;50.7506938279;1.90219726912
BAJUS;62150;50.4205764325;2.47224510422
BALINGHEM;62610;50.8613731955;1.94035198603
BANCOURT;62450;50.1014519899;2.88965840912
BAPAUME;62450;50.1013647974;2.85501640622
BARALLE;62860;50.2138070796;3.05693800103
BARASTRE;62124;50.071129509;2.93896011115
BARLIN;62620;50.4565423999;2.61390140726
BARLY;62810;50.2482462373;2.53846548292
BASSEUX;62123;50.2289727397;2.64740800316
BAVINCOURT;62158;50.2235500941;2.5641980363
BAYENGHEM LES EPERLECQUES;62910;50.8060919083;2.11581614167
BAYENGHEM LES SENINGHEM;62380;50.7048864835;2.07577387326
BAZINGHEN;62250;50.831272878;1.65838919631
BEALENCOURT;62770;50.4365269815;2.12585170509
BEAUDRICOURT;62810;50.251321134;2.40781926457
BEAUFORT BLAVINCOURT;62810;50.2755246835;2.48584476187
BEAULENCOURT;62450;50.0732677142;2.86940557722
BEAUMERIE ST MARTIN;62170;50.4463613161;1.79723541504
BEAUMETZ LES AIRE;62960;50.5437814581;2.21908661342
BEAUMETZ LES CAMBRAI;62124;50.1255965767;2.98659622521
BEAUMETZ LES LOGES;62123;50.2455653714;2.65887337603
BEAURAINS;62217;50.2580784965;2.78988564135
BEAURAINVILLE;62990;50.4202171445;1.90313818619
BEAUVOIR WAVANS;62390;50.2165851287;2.1653582453
BEAUVOIS;62130;50.3742414369;2.23430985863
BECOURT;62240;50.6398225963;1.90227068236
BEHAGNIES;62121;50.1420610157;2.8275098552
BELLE ET HOULLEFORT;62142;50.7473911914;1.76615616876
BELLEBRUNE;62142;50.7326742454;1.77771584162
BELLINGHEM;62129;50.6690392574;2.24271033014
BELLONNE;62490;50.3006458949;3.04320256335
BENIFONTAINE;62410;50.4760416223;2.82697647324
BERCK;62600;50.4141574341;1.58229663833
BERGUENEUSE;62134;50.4662361395;2.24867928273
BERLENCOURT LE CAUROY;62810;50.2733690161;2.42347894966
BERLES AU BOIS;62123;50.1998422446;2.63005349312
BERLES MONCHEL;62690;50.3449347791;2.52589986909
BERMICOURT;62130;50.4079914817;2.23309928615
BERNEVILLE;62123;50.2641580645;2.67337034713
BERNIEULLES;62170;50.5548320618;1.77250960717
BERTINCOURT;62124;50.0875076095;2.98123833644
BETHONSART;62690;50.382567238;2.5436027957
BETHUNE;62400;50.5288922584;2.64242379342
BEUGIN;62150;50.4421075569;2.50784218991
BEUGNATRE;62450;50.1322737737;2.87602272016
BEUGNY;62124;50.1183185417;2.93213204111
BEUSSENT;62170;50.5580041151;1.81455798669
BEUTIN;62170;50.4967718151;1.72676548576
BEUVREQUEN;62250;50.7987535793;1.67420667033
BEUVRY;62660;50.5328399462;2.69176985674
BEZINGHEM;62650;50.5986244617;1.85180618484
BIACHE ST VAAST;62118;50.3149700801;2.94146922674
BIEFVILLERS LES BAPAUME;62450;50.1181182201;2.82212034919
BIENVILLERS AU BOIS;62111;50.1663319359;2.60896396672
BIHUCOURT;62121;50.1268891083;2.80101394028
BILLY BERCLAU;62138;50.5196248764;2.86674896884
BILLY MONTIGNY;62420;50.4151791054;2.90828984537
BIMONT;62650;50.540978292;1.90966011141
BLAIRVILLE;62173;50.2182216387;2.71384024388
BLANGERVAL BLANGERMONT;62270;50.3244181723;2.22103571725
BLANGY SUR TERNOISE;62770;50.423805898;2.17392910662
BLENDECQUES;62575;50.7159944346;2.27536301448
BLEQUIN;62380;50.6645152898;1.97143085721
BLESSY;62120;50.6164683999;2.33114392012
BLINGEL;62770;50.4051757793;2.15016843833
BOFFLES;62390;50.2567972494;2.19943270366
BOIRY BECQUERELLE;62128;50.2137016789;2.82007955522
BOIRY NOTRE DAME;62156;50.2739296431;2.94252395946
BOIRY ST MARTIN;62175;50.1926802634;2.75913608882
BOIRY STE RICTRUDE;62175;50.2004598383;2.74639343282
BOIS BERNARD;62320;50.3775317977;2.91332273733
BOISDINGHEM;62500;50.7490608016;2.09427817413
BOISJEAN;62170;50.4084556449;1.78127372492
BOISLEUX AU MONT;62175;50.212571363;2.77755045242
BOISLEUX ST MARC;62175;50.212910679;2.79651597969
BOMY;62960;50.5693776323;2.22407829439
BONNIERES;62270;50.2370246537;2.26837260211
BONNINGUES LES ARDRES;62890;50.7756349885;2.0218630949
BONNINGUES LES CALAIS;62340;50.8931678254;1.77107438801
BOUBERS LES HESMOND;62990;50.4791206101;1.94657771886
BOUBERS SUR CANCHE;62270;50.2910196847;2.236634893
BOUIN PLUMOISON;62140;50.3760980886;1.98171782386
BOULOGNE SUR MER;62200;50.7271332663;1.60756334802
BOUQUEHAULT;62340;50.8160934944;1.89974480886
BOURECQ;62190;50.5769348477;2.43571250001
BOURET SUR CANCHE;62270;50.2684109099;2.32331979143
BOURLON;62860;50.180525748;3.12077414192
BOURNONVILLE;62240;50.698274703;1.84604616577
BOURS;62550;50.4489923653;2.40723757367
BOURSIN;62132;50.7705251422;1.82549104115
BOURTHES;62650;50.6133691642;1.93499522484
BOUVELINGHEM;62380;50.7353867231;2.03289516346
BOUVIGNY BOYEFFLES;62172;50.4230685525;2.67309987765
BOYAVAL;62134;50.4727096061;2.31189396331
BOYELLES;62128;50.1972799281;2.82057343929
BREBIERES;62117;50.3380926792;3.0195549694
BREMES;62610;50.8476447565;1.955614931
BREVILLERS;62140;50.3473733228;2.02124878449
BREXENT ENOCQ;62170;50.5075872573;1.72093733978
BRIAS;62130;50.4112336365;2.38520158695
BRIMEUX;62170;50.4355050534;1.83617898169
BRUAY LA BUISSIERE;62700;50.4903167839;2.55205338028
BRUNEMBERT;62240;50.7149478254;1.88770340365
BUCQUOY;62116;50.1459428141;2.69722641414
BUIRE AU BOIS;62390;50.2633672835;2.15308709023
BUIRE LE SEC;62870;50.3932227275;1.82311982724
BUISSY;62860;50.2010903848;3.02979862167
BULLECOURT;62128;50.1927400368;2.92876143561
BULLY LES MINES;62160;50.4451131556;2.71911165536
BUNEVILLE;62130;50.3246078076;2.34815051856
BURBURE;62151;50.5320822618;2.46231135416
BUS;62124;50.0637422666;2.96369120352
BUSNES;62350;50.588902264;2.51386787052
CAFFIERS;62132;50.843543317;1.81075267365
CAGNICOURT;62182;50.2082287456;2.99387065458
CALAIS;62100;50.9502072754;1.87575566132
CALONNE RICOUART;62470;50.4898416084;2.48534476198
CALONNE SUR LA LYS;62350;50.6135521823;2.60895962502
CAMBLAIN CHATELAIN;62470;50.4770255596;2.45056284457
CAMBLAIN L ABBE;62690;50.3732152487;2.63610604156
CAMBLIGNEUL;62690;50.3796063239;2.61054254507
CAMBRIN;62149;50.5116047377;2.73659179875
CAMIERS;62176;50.5641187027;1.61276179612
CAMPAGNE LES BOULONNAIS;62650;50.6189686189;1.99566804739
CAMPAGNE LES GUINES;62340;50.8407555351;1.89853626716
CAMPAGNE LES HESDIN;62870;50.401191114;1.86634630857
CAMPAGNE LES WARDRECQUES;62120;50.7136140049;2.33349766884
CAMPIGNEULLES LES GRANDES;62170;50.4317716288;1.70627964186
CAMPIGNEULLES LES PETITES;62170;50.4406093208;1.73639595025
CANETTEMONT;62270;50.2798293137;2.36334823406
CANLERS;62310;50.4863634901;2.14578275774
CAPELLE FERMONT;62690;50.3456037658;2.61751195169
CAPELLE LES HESDIN;62140;50.3470946607;1.99114146583
CARENCY;62144;50.3786422794;2.7000271609
CARLY;62830;50.6548213012;1.71112187076
CARVIN;62220;50.4895185959;2.94858062937
CAUCHY A LA TOUR;62260;50.5047864537;2.44974030755
CAUCOURT;62150;50.3943730066;2.57209168767
CAUMONT;62140;50.2933192344;2.03127032068
CAVRON ST MARTIN;62140;50.4210471112;2.00405279554
CHELERS;62127;50.3815791457;2.48784596215
CHERIENNES;62140;50.3116108089;2.03441974871
CHERISY;62128;50.233594509;2.91299322756
CHOCQUES;62920;50.5404138209;2.56222999188
CLAIRMARAIS;62500;50.7691557578;2.34273928671
CLENLEU;62650;50.5280730059;1.88459632489
CLERQUES;62890;50.7939031118;1.98394387825
CLETY;62380;50.6533415783;2.18209813078
COLEMBERT;62142;50.7498495112;1.82728211556
COLLINE BEAUMONT;62180;50.3429997005;1.67370320424
CONCHIL LE TEMPLE;62180;50.3675406641;1.6749678298
CONCHY SUR CANCHE;62270;50.2932943413;2.19176240414
CONDETTE;62360;50.6499272537;1.63946214432
CONTES;62990;50.4166808226;1.96163690095
CONTEVILLE EN TERNOIS;62130;50.4329844864;2.32879432412
CONTEVILLE LES BOULOGNE;62126;50.7441321021;1.72974942382
COQUELLES;62231;50.929612545;1.81411630613
CORBEHEM;62112;50.3351261232;3.0477618854
CORMONT;62630;50.5639416071;1.74295071169
COUIN;62760;50.133455749;2.53396562717
COULLEMONT;62158;50.218441414;2.48202998649
COULOGNE;62137;50.916752799;1.88656499297
COULOMBY;62380;50.7093724516;2.00012790111
COUPELLE NEUVE;62310;50.4980306908;2.10823141445
COUPELLE VIEILLE;62310;50.5329987345;2.07763347202
COURCELLES LE COMTE;62121;50.1574659714;2.77662394023
COURCELLES LES LENS;62970;50.4147715319;3.01497181219
COURRIERES;62710;50.4532038748;2.94633053767
COURSET;62240;50.644204376;1.85186054058
COUTURELLE;62158;50.2066022769;2.49814698704
COYECQUES;62560;50.6006814818;2.18485516321
CREMAREST;62240;50.7007092157;1.78896697788
CREPY;62310;50.4725099777;2.20322348829
CREQUY;62310;50.5028112008;2.03862864649
CROISETTE;62130;50.353867612;2.26482730869
CROISILLES;62128;50.1978734873;2.88112932349
CROIX EN TERNOIS;62130;50.3833079457;2.27273086096
CUCQ;62780;50.4861371651;1.6129406035
CUINCHY;62149;50.5192106267;2.74651659216
DAINVILLE;62000;50.2771637475;2.71345127608
DANNES;62187;50.5927758846;1.60549165729
DELETTES;62129;50.6223136659;2.21751946622
DENIER;62810;50.2905902827;2.44714550707
DENNEBROEUCQ;62560;50.5841623425;2.15571582187
DESVRES;62240;50.6749344627;1.82879354348
DIEVAL;62460;50.4365599827;2.44830895254
DIVION;62460;50.4697599295;2.50465277071
DOHEM;62380;50.6269973774;2.16928920194
DOUCHY LES AYETTE;62116;50.1758311935;2.71038948013
DOUDEAUVILLE;62830;50.6239084374;1.83106911247
DOURGES;62119;50.4393889238;2.98726838092
DOURIEZ;62870;50.3384867372;1.88223144909
DOUVRIN;62138;50.5121447638;2.8263130337
DROCOURT;62320;50.3900419812;2.93220470295
DROUVIN LE MARAIS;62131;50.4892270417;2.63277217205
DUISANS;62161;50.3016242398;2.69606455285
DURY;62156;50.2481728938;3.00391068828
ECHINGHEN;62360;50.7013312992;1.65483173967
ECLIMEUX;62770;50.3960082983;2.18049856502
ECOIVRES;62270;50.3246377433;2.28557967966
ECOURT ST QUENTIN;62860;50.2606003824;3.06198342767
ECOUST ST MEIN;62128;50.1738217586;2.90196588934
ECQUEDECQUES;62190;50.5601376893;2.44103713077
ECQUES;62129;50.6751011115;2.28909761313
ECUIRES;62170;50.4375878146;1.76808279831
ECURIE;62223;50.3328667178;2.76793109769
ELEU DIT LEAUWETTE;62300;50.4182625415;2.81150914933
ELNES;62380;50.6860806657;2.11534643648
EMBRY;62990;50.4961583161;1.95703731112
ENQUIN LEZ GUINEGATTE;62145;50.5860830884;2.29343023005
ENQUIN SUR BAILLONS;62650;50.57162689;1.84772501897
EPERLECQUES;62910;50.8183914819;2.16069366951
EPINOY;62860;50.2312654081;3.15940386461
EPS;62134;50.4548816215;2.29608712353
EQUIHEN PLAGE;62224;50.6793131074;1.57627344046
EQUIRRE;62134;50.4795228175;2.23471114879
ERGNY;62650;50.5887514874;1.97473205888
ERIN;62134;50.4304811529;2.21886321071
ERNY ST JULIEN;62960;50.5839233636;2.25140626649
ERVILLERS;62121;50.1644439777;2.82560253669
ESCALLES;62179;50.9112503142;1.72061882421
ESCOEUILLES;62850;50.7236925633;1.93553476901
ESQUERDES;62380;50.7009057679;2.17889940044
ESSARS;62400;50.5483122969;2.66191048635
ESTEVELLES;62880;50.4792333773;2.9072255969
ESTREE;62170;50.4955374947;1.80353730749
ESTREE BLANCHE;62145;50.5930088193;2.32026164871
ESTREE CAUCHY;62690;50.3991885256;2.61140942771
ESTREE WAMIN;62810;50.2689484994;2.39437823865
ESTREELLES;62170;50.5013343429;1.77932498079
ETAING;62156;50.2720246326;2.99815975036
ETAPLES;62630;50.5235816785;1.65199985504
ETERPIGNY;62156;50.2560087957;2.98044212985
ETRUN;62161;50.3171481839;2.68183149447
EVIN MALMAISON;62141;50.4353563235;3.03002444738
FAMECHON;62760;50.1439770504;2.45778315136
FAMPOUX;62118;50.2998803664;2.87181354867
FARBUS;62580;50.3602196651;2.82681103336
FAUQUEMBERGUES;62560;50.5933148828;2.09984616722
FAVREUIL;62450;50.1256507438;2.85908637048
FEBVIN PALFART;62960;50.5333989825;2.30304274848
FERFAY;62260;50.521404257;2.43125603761
FERQUES;62250;50.8288565205;1.7680736791
FESTUBERT;62149;50.5446581516;2.7365385521
FEUCHY;62223;50.2847198713;2.84925984061
FICHEUX;62173;50.2258571465;2.74623560668
FIEFS;62134;50.4999837138;2.32108014368
FIENNES;62132;50.8239442286;1.83126229183
FILLIEVRES;62770;50.3171424803;2.16170089705
FLECHIN;62960;50.5587478522;2.28119677571
FLERS;62270;50.3212035167;2.25448501079
FLEURBAIX;62840;50.6384888387;2.83066487498
FLEURY;62134;50.4235609474;2.25298412174
FLORINGHEM;62550;50.497209636;2.42943014623
FONCQUEVILLERS;62111;50.1456346313;2.62269335519
FONTAINE L ETALON;62390;50.3021964061;2.06687302766
FONTAINE LES BOULANS;62134;50.4986573015;2.28398463259
FONTAINE LES CROISILLES;62128;50.2157524515;2.90436080494
FONTAINE LES HERMANS;62550;50.5275299556;2.33764506206
FORTEL EN ARTOIS;62270;50.2579701722;2.22982753471
FOSSEUX;62810;50.2541868154;2.56492880738
FOUFFLIN RICAMETZ;62130;50.3499914405;2.38708909848
FOUQUEREUIL;62232;50.5207754925;2.59890688489
FOUQUIERES LES BETHUNE;62232;50.5124125189;2.61269523201
FOUQUIERES LES LENS;62740;50.4292454614;2.90611987264
FRAMECOURT;62130;50.3232859684;2.30531032543
FREMICOURT;62450;50.112643271;2.90288307097
FRENCQ;62630;50.5617772282;1.68949161438
FRESNES LES MONTAUBAN;62490;50.3362535574;2.92878850685
FRESNICOURT LE DOLMEN;62150;50.4248203734;2.60417768475
FRESNOY;62770;50.3739202398;2.13763944148
FRESNOY EN GOHELLE;62580;50.3685369312;2.89601093482
FRESSIN;62140;50.4488605209;2.05259326434
FRETHUN;62185;50.9121649744;1.81683480747
FREVENT;62270;50.270911587;2.29293491451
FREVILLERS;62127;50.40086365;2.52420922895
FREVIN CAPELLE;62690;50.3505908973;2.63573550055
FRUGES;62310;50.5130111281;2.1230697319
GALAMETZ;62770;50.3258571911;2.13007564683
GAUCHIN LEGAL;62150;50.408974638;2.57827135438
GAUCHIN VERLOINGT;62130;50.3896471445;2.31551845708
GAUDIEMPRE;62760;50.1751742719;2.52871563115
GAVRELLE;62580;50.3261836927;2.88569261923
GENNES IVERGNY;62390;50.2741036632;2.06316402606
GIVENCHY EN GOHELLE;62580;50.3925166262;2.77782748947
GIVENCHY LE NOBLE;62810;50.2999577291;2.4906551045
GIVENCHY LES LA BASSEE;62149;50.5319568907;2.7603145898
GOMIECOURT;62121;50.1482444554;2.80012683443
GOMMECOURT;62111;50.1379205953;2.65284245293
GONNEHEM;62920;50.5645138274;2.56749470477
GOSNAY;62199;50.5088591145;2.58721404812
GOUVES;62123;50.2964618298;2.64441572265
GOUY EN ARTOIS;62123;50.2427202396;2.59069547826
GOUY EN TERNOIS;62127;50.3226610933;2.41085838264
GOUY SERVINS;62530;50.4026129183;2.65579808326
GOUY SOUS BELLONNE;62112;50.3145124236;3.05826904717
GOUY ST ANDRE;62870;50.3737414142;1.90925846468
GRAINCOURT LES HAVRINCOURT;62147;50.1424794757;3.09706084719
GRAND RULLECOURT;62810;50.2543107636;2.47447539793
GRENAY;62160;50.4496814864;2.74513302656
GREVILLERS;62450;50.1018030363;2.7985377862
GRIGNY;62140;50.3823543208;2.06358217112
GRINCOURT LES PAS;62760;50.1780241408;2.48803738534
GROFFLIERS;62600;50.3852621579;1.60399303027
GUARBECQUE;62330;50.6071737755;2.48934824993
GUEMAPPE;62128;50.2507335159;2.89301877431
GUEMPS;62370;50.9177532951;1.99730294047
GUIGNY;62140;50.3280392669;1.99522776546
GUINECOURT;62130;50.3477039372;2.22804664838
GUINES;62340;50.8582256362;1.87057931185
GUISY;62140;50.3877493268;2.00263953159
HABARCQ;62123;50.3112006109;2.60710466393
HAILLICOURT;62940;50.4758957511;2.57933383024
HAISNES;62138;50.500965786;2.79702254759
HALINGHEN;62830;50.6041744819;1.68261824682
HALLINES;62570;50.7007255503;2.20827364581
HALLOY;62760;50.1614697022;2.42474392928
HAM EN ARTOIS;62190;50.5916560768;2.4526238091
HAMBLAIN LES PRES;62118;50.2910559245;2.95821572161
HAMELINCOURT;62121;50.1833996066;2.80226363556
HAMES BOUCRES;62340;50.8843797191;1.8485231785
HANNESCAMPS;62111;50.1615495622;2.64192588392
HAPLINCOURT;62124;50.0929484431;2.93693106881
HARAVESNES;62390;50.2847351527;2.12582011822
HARDINGHEN;62132;50.7968528137;1.82812334781
HARNES;62440;50.4516887565;2.90335898213
HAUCOURT;62156;50.2366546486;2.96966672137
HAUT LOQUIN;62850;50.7379262703;1.96340572061
HAUTE AVESNES;62144;50.3298562005;2.63592929368
HAUTECLOQUE;62130;50.3338971726;2.31705625508
HAUTEVILLE;62810;50.2717222163;2.56838764568
HAVRINCOURT;62147;50.1006868952;3.07267779614
HEBUTERNE;62111;50.1180452685;2.64625006269
HELFAUT;62570;50.6917027903;2.25015585426
HENDECOURT LES CAGNICOURT;62182;50.2147999984;2.94877835826
HENDECOURT LES RANSART;62175;50.2083901157;2.73142877157
HENIN BEAUMONT;62110;50.4092335517;2.95899735168
HENIN SUR COJEUL;62128;50.2187895959;2.838987557
HENINEL;62128;50.2331382255;2.87160951227
HENNEVEUX;62142;50.7258740136;1.84583997521
HENU;62760;50.1563296482;2.5317199579
HERBINGHEN;62850;50.7636525295;1.89780581848
HERICOURT;62130;50.3379712527;2.24874588384
HERLIN LE SEC;62130;50.3533382181;2.33277640011
HERLINCOURT;62130;50.3443144148;2.29198306532
HERLY;62650;50.5415450848;1.99010495982
HERMAVILLE;62690;50.325082478;2.58386198522
HERMELINGHEN;62132;50.8043182752;1.86169968318
HERMIES;62147;50.1094195341;3.03670684063
HERMIN;62150;50.4135492599;2.55237244713
HERNICOURT;62130;50.4147047187;2.30775344747
HERSIN COUPIGNY;62530;50.4455468429;2.64235771503
HERVELINGHEN;62179;50.8844468643;1.7189212303
HESDIGNEUL LES BETHUNE;62196;50.4965750907;2.5966608131
HESDIGNEUL LES BOULOGNE;62360;50.6523596946;1.67768618773
HESDIN;62140;50.3737561031;2.03813237444
HESDIN L ABBE;62360;50.6687608865;1.68795327602
HESMOND;62990;50.4640913287;1.94222442678
HESTRUS;62550;50.4493020094;2.32930818602
HEUCHIN;62134;50.4808803919;2.27062622618
HEURINGHEM;62575;50.6957474078;2.29391988057
HEZECQUES;62310;50.5341909306;2.19182773822
HINGES;62232;50.5707161285;2.62942563762
HOCQUINGHEN;62850;50.7669354784;1.93243678254
HOUCHIN;62620;50.4791705559;2.61907091985
HOUDAIN;62150;50.4548178375;2.53664303679
HOULLE;62910;50.7969936327;2.16484725691
HOUVIN HOUVIGNEUL;62270;50.2960440098;2.37739765685
HUBERSENT;62630;50.5830281628;1.73838024518
HUBY ST LEU;62140;50.3946394663;2.02454954867
HUCLIER;62130;50.4369559747;2.35470715306
HUCQUELIERS;62650;50.5684694236;1.91564949795
HULLUCH;62410;50.4843039018;2.81123592957
HUMBERCAMPS;62158;50.1884753334;2.5745331886
HUMBERT;62650;50.5005174956;1.90980020513
HUMEROEUILLE;62130;50.4085299581;2.20983576549
HUMIERES;62130;50.3848586497;2.20826918939
INCHY EN ARTOIS;62860;50.1745599898;3.03944320203
INCOURT;62770;50.3873539733;2.15038878907
INXENT;62170;50.5367422786;1.78814127158
ISBERGUES;62330;50.6163010723;2.45566347831
ISQUES;62360;50.6822962991;1.65634356393
IVERGNY;62810;50.2380889989;2.38095249535
IZEL LES EQUERCHIN;62490;50.362470832;2.94589813108
IZEL LES HAMEAU;62690;50.3147014081;2.53156899896
JOURNY;62850;50.7533388277;2.0030860324
LA CALOTTERIE;62170;50.4789464513;1.71772196973
LA CAPELLE LES BOULOGNE;62360;50.7313010692;1.71597979438
LA CAUCHIE;62158;50.2049912603;2.58249828284
LA COMTE;62150;50.4259527407;2.49981751816
LA COUTURE;62136;50.5786372651;2.69951640297
LA HERLIERE;62158;50.1989955706;2.55855876678
LA LOGE;62140;50.4088782853;2.03527757207
LA MADELAINE SOUS MONTREUIL;62170;50.4657638325;1.74915066351
LA THIEULOYE;62130;50.4137694617;2.43289315348
LABEUVRIERE;62122;50.5215621853;2.57161381831
LABOURSE;62113;50.4933712663;2.68345429185
LABROYE;62140;50.2935984532;1.98515419117
LACRES;62830;50.6034546008;1.76197213447
LAGNICOURT MARCEL;62159;50.1560504506;2.95664780211
LAIRES;62960;50.5378767018;2.25617757034
LAMBRES;62120;50.6180000635;2.40481322183
LANDRETHUN LE NORD;62250;50.8498865079;1.77882908623
LANDRETHUN LES ARDRES;62610;50.816140117;1.96682595063
LAPUGNOY;62122;50.5191431274;2.53207580559
LATTRE ST QUENTIN;62810;50.2971861104;2.57210181191
LAVENTIE;62840;50.6122806488;2.78361228614
LE PARCQ;62770;50.382239682;2.08547177983
LE PONCHEL;62390;50.2568499569;2.08536374004
LE PORTEL;62480;50.7126100716;1.57611235445
LE QUESNOY EN ARTOIS;62140;50.3316939023;2.0384112079
LE SARS;62450;50.0668702821;2.78329520895
LE SOUICH;62810;50.2233905;2.36160198411
LE TOUQUET PARIS PLAGE;62520;50.5083984501;1.59923820583
LE TRANSLOY;62450;50.0502514612;2.89232344
LE WAST;62142;50.750004796;1.79828909838
LEBIEZ;62990;50.4592668371;1.97830860496
LEBUCQUIERE;62124;50.1099498863;2.95661100637
LECHELLE;62124;50.0545425148;2.97707265499
LEDINGHEM;62380;50.6449906532;1.97365993925
LEFAUX;62630;50.5462607365;1.65372158326
LEFOREST;62790;50.4394110642;3.05859008926
LENS;62300;50.4374264148;2.82105851259
LEPINE;62170;50.3851141972;1.72825357976
LES ATTAQUES;62730;50.8995873254;1.93699545869
LESPESSES;62190;50.5552927057;2.42428623219
LESPINOY;62990;50.4276154192;1.86447871866
LESTREM;62136;50.6119032822;2.6781346301
LEUBRINGHEN;62250;50.853723675;1.73268337788
LEULINGHEM;62500;50.7346790388;2.16911709043
LEULINGHEN BERNES;62250;50.8371171137;1.71313037263
LIBERCOURT;62820;50.482031915;2.99971382524
LICQUES;62850;50.7962798733;1.9348768777
LIENCOURT;62810;50.2739197024;2.44860991608
LIERES;62190;50.5490835835;2.40945021621
LIETTRES;62145;50.5965757151;2.33945536026
LIEVIN;62800;50.4242782538;2.77291885384
LIGNEREUIL;62810;50.2913104341;2.47081083726
LIGNY LES AIRE;62960;50.563205487;2.33673596363
LIGNY ST FLOCHEL;62127;50.3584786276;2.42321914967
LIGNY SUR CANCHE;62270;50.2840846482;2.26049042414
LIGNY THILLOY;62450;50.0798753739;2.82498264917
LILLERS;62190;50.5614379612;2.48197499021
LINGHEM;62120;50.5897222044;2.37264094171
LINZEUX;62270;50.3424338699;2.20289720787
LISBOURG;62134;50.5109473164;2.22306817225
LOCON;62400;50.570143515;2.66701720965
LOISON SOUS LENS;62218;50.4435308346;2.85832933206
LOISON SUR CREQUOISE;62990;50.4449700996;1.91909184151
LONGFOSSE;62240;50.6545422678;1.80794052393
LONGUENESSE;62219;50.7356717764;2.24445927669
LONGUEVILLE;62142;50.7288500512;1.88045163542
LONGVILLIERS;62630;50.5350281811;1.74349784296
LOOS EN GOHELLE;62750;50.4567931082;2.78572759998
LORGIES;62840;50.5665642235;2.79775803436
LOTTINGHEN;62240;50.6772682361;1.93556689371
LOUCHES;62610;50.8268079904;1.99961507698
LOZINGHEM;62540;50.516650369;2.49540704274
LUGY;62310;50.5217114727;2.17428495837
LUMBRES;62380;50.705094418;2.11706482499
MAGNICOURT EN COMTE;62127;50.4032927894;2.48186461999
MAGNICOURT SUR CANCHE;62270;50.2997948915;2.41112193284
MAINTENAY;62870;50.369972884;1.81633084989
MAISNIL;62130;50.346716103;2.3577236191
MAISNIL LES RUITZ;62620;50.4477765466;2.57828775042
MAISONCELLE;62310;50.4509090574;2.14815135855
MAIZIERES;62127;50.32212095;2.44126600282
MAMETZ;62120;50.6294533649;2.30938013681
MANIN;62810;50.2966374738;2.5072774682
MANINGHEM;62650;50.5480187009;1.9398392621
MANINGHEN HENNE;62250;50.7698364522;1.6724792037
MARANT;62170;50.4709192925;1.84034009219
MARCK;62730;50.9539156079;1.94945765215
MARCONNE;62140;50.3661822096;2.03231054119
MARCONNELLE;62140;50.369452969;2.00711158449
MARENLA;62990;50.4521838936;1.87453885296
MARESQUEL ECQUEMICOURT;62990;50.3999401675;1.93489288336
MAREST;62550;50.4670398544;2.41815861804
MARESVILLE;62630;50.5232708818;1.73018696482
MARLES LES MINES;62540;50.5020046484;2.50636353506
MARLES SUR CANCHE;62170;50.4638642323;1.8200426932
MAROEUIL;62161;50.3306055435;2.71035583524
MARQUAY;62127;50.380374701;2.42143290213
MARQUION;62860;50.2041974457;3.09602784111
MARQUISE;62250;50.8125786719;1.70113966333
MARTINPUICH;62450;50.0511586041;2.76881719032
MATRINGHEM;62310;50.5456223403;2.16665746182
MAZINGARBE;62670;50.4684201259;2.72581419392
MAZINGHEM;62120;50.6049243005;2.41314605386
MENCAS;62310;50.5575500609;2.14482012062
MENNEVILLE;62240;50.6741251308;1.86280714354
MENTQUE NORTBECOURT;62890;50.7729975278;2.09168559465
MERCATEL;62217;50.2345646876;2.78842840897
MERCK ST LIEVIN;62560;50.6363344754;2.10761618871
MERICOURT;62680;50.3992003873;2.86819314424
MERLIMONT;62155;50.4528272137;1.60785781096
METZ EN COUTURE;62124;50.0624565501;3.06272750972
MEURCHIN;62410;50.4942234674;2.89430512766
MINGOVAL;62690;50.376078209;2.56887018606
MONCHEAUX LES FREVENT;62270;50.3143087443;2.3636150292
MONCHEL SUR CANCHE;62270;50.3037937856;2.21852869181
MONCHIET;62123;50.2381944656;2.62311825865
MONCHY AU BOIS;62111;50.1799080557;2.65841335513
MONCHY BRETON;62127;50.3984333716;2.43602889753
MONCHY CAYEUX;62134;50.4344363807;2.28088263768
MONCHY LE PREUX;62118;50.2680152947;2.89515601798
MONDICOURT;62760;50.1742014399;2.46725438343
MONT BERNANCHON;62350;50.5892672563;2.59806310499
MONT ST ELOI;62144;50.3502329575;2.69040970286
MONTCAVREL;62170;50.5200642841;1.81575896733
MONTENESCOURT;62123;50.2927140041;2.62902405219
MONTIGNY EN GOHELLE;62640;50.4280892859;2.93038201383
MONTREUIL;62170;50.4655272073;1.77098646216
MONTS EN TERNOIS;62130;50.3211000612;2.38646498424
MORCHIES;62124;50.1374335468;2.95474922701
MORINGHEM;62910;50.7633897725;2.12682414351
MORVAL;62450;50.0285941958;2.86791432248
MORY;62159;50.1566834993;2.85758228781
MOULLE;62910;50.7883148321;2.1706543981
MOURIEZ;62140;50.3470493042;1.95514283314
MOYENNEVILLE;62121;50.1799294808;2.77141568163
MUNCQ NIEURLET;62890;50.8391311985;2.11817509259
NABRINGHEN;62142;50.7417350163;1.86256483299
NEDON;62550;50.5178234445;2.36307041105
NEDONCHEL;62550;50.5271339963;2.35474825526
NEMPONT ST FIRMIN;62180;50.3613146343;1.7392353846
NESLES;62152;50.6227064448;1.66004463955
NEUFCHATEL HARDELOT;62152;50.6171328385;1.61729338887
NEULETTE;62770;50.3813194274;2.16664316221
NEUVE CHAPELLE;62840;50.585092327;2.77952080173
NEUVILLE AU CORNET;62130;50.334282171;2.36952468939
NEUVILLE BOURJONVAL;62124;50.0669791719;3.024953452
NEUVILLE SOUS MONTREUIL;62170;50.4788857008;1.79521288108
NEUVILLE ST VAAST;62580;50.3583439881;2.75467888748
NEUVILLE VITASSE;62217;50.2476254863;2.81958872203
NEUVIREUIL;62580;50.3531492484;2.91444913531
NIELLES LES ARDRES;62610;50.8486968374;2.00661569937
NIELLES LES BLEQUIN;62380;50.675332061;2.03042491518
NIELLES LES CALAIS;62185;50.9070271437;1.83253644288
NOEUX LES AUXI;62390;50.2408362056;2.18178131298
NOEUX LES MINES;62290;50.4751015881;2.66285501357
NORDAUSQUES;62890;50.8139376345;2.08471496754
NOREUIL;62128;50.170479855;2.93868570028
NORRENT FONTES;62120;50.5874971634;2.40937405829
NORT LEULINGHEM;62890;50.7959979295;2.08880938982
NORTKERQUE;62370;50.8781972257;2.03311083061
NOUVELLE EGLISE;62370;50.9318131132;2.0456999898
NOYELLE VION;62810;50.2915190134;2.54478161296
NOYELLES GODAULT;62950;50.4179672705;2.99358335607
NOYELLES LES HUMIERES;62770;50.3754237505;2.17737764186
NOYELLES LES VERMELLES;62980;50.4912262518;2.72838985487
NOYELLES SOUS BELLONNE;62490;50.3091545259;3.02186108116
NOYELLES SOUS LENS;62221;50.4286822706;2.87559653416
NOYELLETTE;62123;50.2978570958;2.59183341606
NUNCQ HAUTECOTE;62270;50.3077191679;2.28678904322
OBLINGHEM;62920;50.5512476487;2.59352729136
OEUF EN TERNOIS;62130;50.3630160601;2.21206291553
OFFEKERQUE;62370;50.9314630388;2.02026099219
OFFIN;62990;50.4419639304;1.95243278829
OFFRETHUN;62250;50.7862971343;1.69796833059
OIGNIES;62590;50.4644483399;2.99306842451
OISY LE VERGER;62860;50.2504114011;3.12224592091
OPPY;62580;50.3471676036;2.88887974402
ORVILLE;62760;50.1286097362;2.41900637434
OSTREVILLE;62130;50.3941779286;2.39782308177
OURTON;62460;50.4555544554;2.47132859309
OUTREAU;62230;50.6980158519;1.59211375998
OUVE WIRQUIN;62380;50.6527627631;2.14390429317
OYE PLAGE;62215;50.9812329903;2.03930688594
PALLUEL;62860;50.2653513279;3.09530280931
PARENTY;62650;50.5942219579;1.80057178458
PAS EN ARTOIS;62760;50.1524799226;2.4911616268
PELVES;62118;50.2872121477;2.91797931604
PENIN;62127;50.3304741478;2.487971772
PERNES;62550;50.4869916511;2.402530406
PERNES LES BOULOGNE;62126;50.7487764703;1.69726351984
PEUPLINGUES;62231;50.9137738583;1.75951398538
PIERREMONT;62130;50.3983828785;2.2554720629
PIHEM;62570;50.6761891157;2.21194474254
PIHEN LES GUINES;62340;50.8717360678;1.79132748835
PITTEFAUX;62126;50.7620533619;1.68493219669
PLANQUES;62310;50.4663856926;2.08885022364
PLOUVAIN;62118;50.3059557939;2.91794786158
POLINCOVE;62370;50.8615356416;2.10891305299
POMMERA;62760;50.1674967;2.44251787314
POMMIER;62111;50.1813083697;2.59512513056
PONT A VENDIN;62880;50.4760049841;2.88811858203
PREDEFIN;62134;50.5049426008;2.25899233284
PRESSY;62550;50.4741367266;2.39005609292
PREURES;62650;50.573370398;1.88208837787
PRONVILLE EN ARTOIS;62860;50.1658848731;3.00801874894
PUISIEUX;62116;50.1064415329;2.68870005517
QUEANT;62860;50.1765937301;2.98518027531
QUELMES;62500;50.7344041405;2.12647655403
QUERCAMPS;62380;50.7521632;2.04535296753
QUERNES;62120;50.602495211;2.36795171734
QUESQUES;62240;50.7016785113;1.9419210746
QUESTRECQUES;62830;50.6645692579;1.74592527562
QUIERY LA MOTTE;62490;50.3662007463;2.98347505624
QUIESTEDE;62120;50.6805074273;2.32892065938
QUILEN;62650;50.5294762225;1.9336963946
QUOEUX HAUT MAINIL;62390;50.3010617239;2.10429355404
RACQUINGHEM;62120;50.6951552372;2.36039554568
RADINGHEM;62310;50.5466948364;2.11786981824
RAMECOURT;62130;50.3636637798;2.30659261864
RANG DU FLIERS;62180;50.4199152362;1.63418600654
RANSART;62173;50.2055666044;2.67670768859
RAYE SUR AUTHIE;62140;50.3025647802;1.9586390074
REBERGUES;62850;50.7533359346;1.95267179122
REBREUVE RANCHICOURT;62150;50.4315349497;2.54883254933
REBREUVE SUR CANCHE;62270;50.2662010324;2.34099398003
REBREUVIETTE;62270;50.2575030027;2.3638974015
RECLINGHEM;62560;50.5726869457;2.17529394025
RECOURT;62860;50.2572703806;3.02765469348
RECQUES SUR COURSE;62170;50.5183914542;1.77865917585
RECQUES SUR HEM;62890;50.8355345504;2.08017520799
REGNAUVILLE;62140;50.3165005533;2.00147322794
RELY;62120;50.5758856261;2.36150772557
REMILLY WIRQUIN;62380;50.6699885591;2.17457011207
REMY;62156;50.257089455;2.95881684722
RENTY;62560;50.5795789917;2.06891103096
RETY;62720;50.7933479687;1.78478453099
RICHEBOURG;62136;50.5790087378;2.74726959895
RIENCOURT LES BAPAUME;62450;50.0885322704;2.8804356925
RIENCOURT LES CAGNICOURT;62182;50.1942984379;2.96139723714
RIMBOVAL;62990;50.5151477103;1.98923496959
RINXENT;62720;50.8071658491;1.74101623086
RIVIERE;62173;50.232029156;2.68653803853
ROBECQ;62350;50.594171583;2.55063682467
ROCLINCOURT;62223;50.3298536154;2.78984756836
ROCQUIGNY;62450;50.0557736792;2.92417535709
RODELINGHEM;62610;50.8340533685;1.93038024618
ROELLECOURT;62130;50.3682282573;2.387937901
ROEUX;62118;50.3016559501;2.89915245765
ROLLANCOURT;62770;50.4117012202;2.1259936792
ROMBLY;62120;50.5951805534;2.38984957197
ROQUETOIRE;62120;50.6660698696;2.33842480492
ROUGEFAY;62390;50.2763576271;2.16980912233
ROUSSENT;62870;50.3713244129;1.77455343487
ROUVROY;62320;50.3992080459;2.90489431252
ROYON;62990;50.4726572315;1.99966116605
RUISSEAUVILLE;62310;50.4836257391;2.11590995942
RUITZ;62620;50.4661492425;2.59073135345
RUMAUCOURT;62860;50.2382420752;3.06500657544
RUMILLY;62650;50.5793719163;2.01782227688
RUMINGHEM;62370;50.8561596741;2.16768057488
RUYAULCOURT;62124;50.0828450646;3.01620386019
SACHIN;62550;50.4927168142;2.36659910024
SAILLY AU BOIS;62111;50.1213705437;2.59867218191
SAILLY EN OSTREVENT;62490;50.2875880806;2.99003702164
SAILLY LABOURSE;62113;50.501663993;2.70273580801
SAILLY SUR LA LYS;62840;50.6532332701;2.79249849805
SAINS EN GOHELLE;62114;50.4509698572;2.68385518781
SAINS LES FRESSIN;62310;50.4721168643;2.04894753008
SAINS LES MARQUION;62860;50.1855341097;3.07837118721
SAINS LES PERNES;62550;50.4791687953;2.34885594845
SALLAUMINES;62430;50.4204336349;2.85999934529
SALPERWICK;62500;50.768362521;2.21963774504
SAMER;62830;50.6338926429;1.75485002535
SANGATTE;62231;50.9410415453;1.76958356617
SANGHEN;62850;50.7731524304;1.89264979524
SAPIGNIES;62121;50.1316392726;2.83675199369
SARS LE BOIS;62810;50.2975025898;2.43161426138
SARTON;62760;50.1088396237;2.43057048265
SAUCHY CAUCHY;62860;50.2357972637;3.09028659809
SAUCHY LESTREE;62860;50.2199513579;3.11647492412
SAUDEMONT;62860;50.238640039;3.03137519569
SAULCHOY;62870;50.3538363354;1.85072788355
SAULTY;62158;50.2118204122;2.52470460058
SAVY BERLETTE;62690;50.3544160083;2.55845813427
SELLES;62240;50.6959428486;1.88964347847
SEMPY;62170;50.4962113332;1.87768243694
SENINGHEM;62380;50.6984836133;2.02702639439
SENLECQUES;62240;50.6500062435;1.93647679876
SENLIS;62310;50.5345389344;2.14734408463
SERICOURT;62270;50.2955629239;2.31306293309
SERQUES;62910;50.7907495973;2.20166097242
SERVINS;62530;50.4073388544;2.63620262652
SETQUES;62380;50.7145017028;2.15645765074
SIBIVILLE;62270;50.3047427649;2.33129283098
SIMENCOURT;62123;50.2544725245;2.63378258972
SIRACOURT;62130;50.3707474842;2.26790984038
SOMBRIN;62810;50.2376406968;2.50522767518
SORRUS;62170;50.4564208466;1.71453079549
SOUASTRE;62111;50.1493830163;2.57000343449
SOUCHEZ;62153;50.388730428;2.74349744668
ST AMAND;62760;50.1701921167;2.56122106868
ST AUBIN;62170;50.4542149045;1.66870486737
ST AUGUSTIN;62120;50.6486142358;2.30256500172
ST AUGUSTIN;62129;50.6486142358;2.30256500172
ST DENOEUX;62990;50.4773305558;1.90952236294
ST ETIENNE AU MONT;62360;50.6654810277;1.6018617047
ST FLORIS;62350;50.6245104816;2.57921156269
ST FOLQUIN;62370;50.9379112392;2.12543329678
ST GEORGES;62770;50.351642191;2.07280932615
ST HILAIRE COTTES;62120;50.5673889188;2.39680232031
ST INGLEVERT;62250;50.8715347562;1.74383112864
ST JOSSE;62170;50.4816510992;1.66447526938
ST LAURENT BLANGY;62223;50.3076122259;2.81123049591
ST LEGER;62128;50.1836392129;2.8515731694
ST LEONARD;62360;50.6957085427;1.62300066383
ST MARTIN BOULOGNE;62280;50.7235416991;1.64793693921
ST MARTIN CHOQUEL;62240;50.6684714182;1.88754948653
ST MARTIN D HARDINGHEM;62560;50.6112309641;2.10476829244
ST MARTIN LEZ TATINGHEM;62500;50.7568801196;2.2297072767
ST MARTIN SUR COJEUL;62128;50.228647822;2.85191979354
ST MICHEL SOUS BOIS;62650;50.5174881258;1.93606986972
ST MICHEL SUR TERNOISE;62130;50.375190709;2.36052687199
ST NICOLAS;62223;50.3086770117;2.78508314188
ST OMER;62500;50.7679781717;2.26334881482
ST OMER CAPELLE;62162;50.9450043366;2.1009180306
ST POL SUR TERNOISE;62130;50.3883542632;2.35010590037
ST REMY AU BOIS;62870;50.3683009566;1.86914301088
ST TRICAT;62185;50.8926601154;1.82664044658
ST VENANT;62350;50.6225931834;2.52541265716
STE AUSTREBERTHE;62140;50.3579438229;2.04425580197
STE CATHERINE;62223;50.3146043394;2.7623576742
STE MARIE KERQUE;62370;50.8925108938;2.15129692928
SURQUES;62850;50.7434489941;1.92294829855
SUS ST LEGER;62810;50.2394092727;2.43472712358
TANGRY;62550;50.4621592652;2.36013300414
TARDINGHEN;62179;50.8654992895;1.64282403638
TENEUR;62134;50.4521719287;2.22043017933
TERNAS;62127;50.3394097594;2.39775976719
THELUS;62580;50.350962843;2.79959112856
THEROUANNE;62129;50.6288197176;2.25105673076
THIEMBRONNE;62560;50.6239861501;2.04691534962
THIEVRES;62760;50.1320744532;2.44789711987
TIGNY NOYELLE;62180;50.3549622929;1.70803750479
TILLOY LES HERMAVILLE;62690;50.3286181773;2.55390925943
TILLOY LES MOFFLAINES;62217;50.2772825816;2.82150381922
TILLY CAPELLE;62134;50.4443030623;2.1871596899
TILQUES;62500;50.7728122391;2.20152463188
TINCQUES;62127;50.3598646909;2.49403198382
TINGRY;62830;50.6110233696;1.72199394641
TOLLENT;62390;50.2775872362;2.01380158526
TORCY;62310;50.483966834;2.02072690969
TORTEFONTAINE;62140;50.3354918555;1.91483333867
TORTEQUESNE;62490;50.2909229989;3.03256081417
TOURNEHEM SUR LA HEM;62890;50.7916214471;2.04769169432
TRAMECOURT;62310;50.46970334;2.15213924885
TRESCAULT;62147;50.0904387311;3.09682034258
TROISVAUX;62130;50.4116603363;2.34375575662
TUBERSENT;62630;50.5216866473;1.69918169379
VACQUERIE LE BOUCQ;62270;50.2700526673;2.2075282322
VACQUERIETTE ERQUIERES;62140;50.3228879351;2.07435637725
VALHUON;62550;50.4342829706;2.38336806426
VAUDRICOURT;62131;50.4996012728;2.61877656623
VAUDRINGHEM;62380;50.6540835736;2.02409481692
VAULX;62390;50.2710456344;2.1045646963
VAULX VRAUCOURT;62159;50.1439845718;2.90458316152
VELU;62124;50.1007618527;2.97411822884
VENDIN LE VIEIL;62880;50.4703783932;2.85384547397
VENDIN LES BETHUNE;62232;50.5464095644;2.60682652334
VERCHIN;62310;50.493379155;2.17923063627
VERCHOCQ;62560;50.5548367541;2.04003605108
VERLINCTHUN;62830;50.6285938608;1.69225464674
VERMELLES;62980;50.4869056542;2.75733602392
VERQUIGNEUL;62113;50.5030883097;2.66214119709
VERQUIN;62131;50.5014162013;2.64245100087
VERTON;62180;50.4023869418;1.65093274373
VIEIL HESDIN;62770;50.3632756728;2.1130630782
VIEIL MOUTIER;62240;50.6624676779;1.91064000839
VIEILLE CHAPELLE;62136;50.5929100116;2.71744022097
VIEILLE EGLISE;62162;50.9332624726;2.07653957537
VILLERS AU BOIS;62144;50.3774575605;2.66415892943
VILLERS AU FLOS;62450;50.0787621287;2.90542012766
VILLERS BRULIN;62690;50.3727264691;2.52941539032
VILLERS CHATEL;62690;50.3751045916;2.58988048072
VILLERS L HOPITAL;62390;50.2291696538;2.21010808284
VILLERS LES CAGNICOURT;62182;50.2253150593;3.01039978275
VILLERS SIR SIMON;62127;50.3148651908;2.49209480845
VIMY;62580;50.3776460123;2.81116855896
VINCLY;62310;50.5561858278;2.17901178873
VIOLAINES;62138;50.5377604504;2.77970850314
VIS EN ARTOIS;62156;50.245875467;2.93609831247
VITRY EN ARTOIS;62490;50.3256177847;2.98092673342
WABEN;62180;50.3822929262;1.65041372546
WACQUINGHEN;62250;50.780796244;1.66928695416
WAIL;62770;50.3377712798;2.11915213609
WAILLY;62217;50.249116803;2.72419041642
WAILLY BEAUCAMP;62170;50.4082282743;1.73011785449
WAMBERCOURT;62140;50.4340661657;2.0238876189
WAMIN;62770;50.4153161017;2.06205464514
WANCOURT;62128;50.256058557;2.85524996324
WANQUETIN;62123;50.2723730799;2.61412474296
WARDRECQUES;62120;50.7053320588;2.34558119432
WARLENCOURT EAUCOURT;62450;50.0811867179;2.79134969906
WARLINCOURT LES PAS;62760;50.1841807304;2.50628872795
WARLUS;62123;50.2793115608;2.66486908357
WARLUZEL;62810;50.2311660847;2.46913010596
WAVRANS SUR L AA;62380;50.6749530079;2.13817752788
WAVRANS SUR TERNOISE;62130;50.409386121;2.2840999024
WESTREHEM;62960;50.5447817916;2.34356634513
WICQUINGHEM;62650;50.5725871336;1.95032069551
WIDEHEM;62630;50.5841311365;1.65936419487
WIERRE AU BOIS;62830;50.651199611;1.76845641503
WIERRE EFFROY;62720;50.7718663253;1.73716281389
WILLEMAN;62770;50.3594087947;2.16281250365
WILLENCOURT;62390;50.2394266639;2.07766867117
WILLERVAL;62580;50.3625979947;2.84933464088
WIMEREUX;62930;50.7792497892;1.6134323131
WIMILLE;62126;50.7649885294;1.64203664126
WINGLES;62410;50.4951923669;2.85777326738
WIRWIGNES;62240;50.685266842;1.76740602045
WISMES;62380;50.6613559583;2.07972084711
WISQUES;62219;50.7269504581;2.1911996601
WISSANT;62179;50.8883355248;1.68248567418
WITTERNESSE;62120;50.6139812013;2.36320125058
WITTES;62120;50.6716650445;2.38817871374
WIZERNES;62570;50.7153325042;2.22913159655
YTRES;62124;50.0647969783;2.99626975733
ZOTEUX;62650;50.614922981;1.88746444712
ZOUAFQUES;62890;50.8228097659;2.05320953187
ZUDAUSQUES;62500;50.7526605163;2.16024730203
ZUTKERQUE;62370;50.8528869572;2.05960239074
