ALLEREY SUR SAONE;71350;46.9138309803;4.97484420794
ALLERIOT;71380;46.7988419834;4.95551290173
ALUZE;71510;46.8518515249;4.6901351827
AMANZE;71800;46.3264716768;4.23626914802
AMEUGNY;71460;46.5238475796;4.66808403552
ANGLURE SOUS DUN;71170;46.235903333;4.37061936256
ANOST;71550;47.0770713545;4.09241779804
ANTULLY;71400;46.8926537731;4.40284807189
ANZY LE DUC;71110;46.3239156269;4.07162173983
ARTAIX;71110;46.2492375573;3.99353976024
AUTHUMES;71270;46.8899153529;5.30758337993
AUTUN;71400;46.945536773;4.31060069532
AUXY;71400;46.9410622998;4.41734656437
AZE;71260;46.4318867242;4.74963746686
BALLORE;71220;46.5341038702;4.37558759241
BANTANGES;71500;46.605124682;5.12155053335
BARIZEY;71640;46.7917541418;4.6720477978
BARNAY;71540;47.0852204967;4.32108474276
BARON;71120;46.4934149552;4.28185595803
BAUDEMONT;71800;46.2935955045;4.28502745064
BAUDRIERES;71370;46.6659094039;5.00248487776
BAUGY;71110;46.3075519171;4.03236080451
BEAUBERY;71220;46.4104723077;4.39542233391
BEAUMONT SUR GROSNE;71240;46.6692532687;4.86174711968
BEAUREPAIRE EN BRESSE;71580;46.6672623715;5.39464840853
BEAUVERNOIS;71270;46.8413806403;5.4403170068
BELLEVESVRE;71270;46.8484271655;5.36394090745
BERGESSERIN;71250;46.3990910615;4.56240663444
BERZE LA VILLE;71960;46.3683212977;4.70227131172
BERZE LE CHATEL;71960;46.3957782254;4.68241463331
BEY;71620;46.8212987385;4.96979880981
BISSEY SOUS CRUCHAUD;71390;46.7292045246;4.69324571138
BISSY LA MACONNAISE;71260;46.4854125388;4.77572068002
BISSY SOUS UXELLES;71460;46.5685167956;4.72714301912
BISSY SUR FLEY;71460;46.6633352989;4.6213986546
BLANOT;71250;46.4810503908;4.74030734552
BLANZY;71450;46.7042568403;4.39315980341
BOIS STE MARIE;71800;46.3321423377;4.35330322456
BONNAY;71460;46.5495831057;4.62537710045
BOSJEAN;71330;46.7696786287;5.34727924927
BOUHANS;71330;46.7772891552;5.29235408701
BOURBON LANCY;71140;46.6204280383;3.76862021355
BOURG LE COMTE;71110;46.3102835322;3.9837558428
BOURGVILAIN;71520;46.3647474088;4.63745643185
BOUZERON;71150;46.8915695256;4.72745431658
BOYER;71700;46.5997643138;4.90335376574
BRAGNY SUR SAONE;71350;46.9213828915;5.03177576974
BRANGES;71500;46.652956978;5.16400928644
BRAY;71250;46.5037410885;4.70644057084
BRESSE SUR GROSNE;71460;46.5946563977;4.72811970624
BRIANT;71110;46.3008717665;4.15112417263
BRIENNE;71290;46.5560939784;5.02368261906
BRION;71190;46.9163069203;4.24167330561
BROYE;71190;46.888541214;4.30809477889
BRUAILLES;71500;46.5971442892;5.25884270547
BUFFIERES;71250;46.4294911714;4.53776264069
BURGY;71260;46.4641123942;4.83082154067
BURNAND;71460;46.6019325058;4.63373013891
BURZY;71460;46.5949751474;4.58580654162
BUSSIERES;71960;46.333719714;4.71047131646
BUXY;71390;46.7130408432;4.71342619185
CERON;71110;46.2805440909;3.93730889705
CERSOT;71390;46.7053648589;4.63239889903
CHAGNY;71150;46.8985800984;4.77433585145
CHAINTRE;71570;46.2582470143;4.77030455349
CHALMOUX;71140;46.5936710904;3.85215646789
CHALON SUR SAONE;71100;46.7900288793;4.85191555008
CHAMBILLY;71110;46.2825163052;3.99815426784
CHAMILLY;71510;46.8667282501;4.68139596476
CHAMPAGNAT;71480;46.4834634223;5.36915009557
CHAMPAGNY SOUS UXELLES;71460;46.5792196401;4.74765167584
CHAMPFORGEUIL;71530;46.8156309692;4.82545441016
CHAMPLECY;71120;46.4628044788;4.22805088541
CHANES;71570;46.2454748177;4.75829079989
CHANGY;71120;46.4121876754;4.2519227256
CHAPAIZE;71460;46.5529585412;4.73602422687
CHARBONNAT;71320;46.7791482329;4.11380902203
CHARBONNIERES;71260;46.3887744081;4.83162031903
CHARDONNAY;71700;46.5087214301;4.84818799475
CHARETTE VARENNES;71270;46.9006196221;5.19727816775
CHARMOY;71710;46.7692538445;4.31625377039
CHARNAY LES CHALON;71350;46.9343265104;5.08431654646
CHARNAY LES MACON;71850;46.3041852737;4.78693813476
CHAROLLES;71120;46.4476067658;4.28009429694
CHARRECEY;71510;46.8363564868;4.66839372197
CHASSELAS;71570;46.2782503008;4.71871730618
CHASSEY LE CAMP;71150;46.8874072539;4.70297479178
CHASSIGNY SOUS DUN;71170;46.2375878745;4.29248216952
CHASSY;71130;46.5832260551;4.11167998063
CHATEAU;71250;46.4222263876;4.59356497363
CHATEAUNEUF;71740;46.2104681552;4.26056533405
CHATEL MORON;71510;46.7908182989;4.637184003
CHATENAY;71800;46.2913546739;4.38266694341
CHATENOY EN BRESSE;71380;46.7936385088;4.91410813762
CHATENOY LE ROYAL;71880;46.788588171;4.8058563943
CHAUDENAY;71150;46.9154246356;4.79538440748
CHAUFFAILLES;71170;46.2065828065;4.34173989083
CHEILLY LES MARANGES;71150;46.8926365567;4.66641980553
CHENAY LE CHATEL;71340;46.228920415;3.93811744372
CHENOVES;71390;46.6662558007;4.70092580314
CHERIZET;71250;46.5171593187;4.56760616223
CHEVAGNY LES CHEVRIERES;71960;46.3358003869;4.77205661745
CHEVAGNY SUR GUYE;71220;46.5403336038;4.50069717167
CHIDDES;71220;46.4572326637;4.51390755775
CHISSEY EN MORVAN;71540;47.1217509821;4.21531030353
CHISSEY LES MACON;71460;46.5214699897;4.74430277103
CIEL;71350;46.8716291957;5.05115500472
CIRY LE NOBLE;71420;46.5966175845;4.2978619831
CLESSE;71260;46.418154831;4.82185640271
CLESSY;71130;46.5558912899;4.08579941536
CLUNY;71250;46.4303628582;4.67033276327
CLUX VILLENEUVE;71270;46.9572279729;5.16839319569
COLLONGE EN CHAROLLAIS;71460;46.6422857602;4.53104899924
COLLONGE LA MADELEINE;71360;46.9407183573;4.52621280337
COLOMBIER EN BRIONNAIS;71800;46.3479871035;4.33327603076
CONDAL;71480;46.4647126508;5.28216575914
CORDESSE;71540;47.043408177;4.33366013416
CORMATIN;71460;46.535532183;4.69561266719
CORTAMBERT;71250;46.4704137076;4.69741359705
CORTEVAIX;71460;46.5281488272;4.64137291939
COUBLANC;71170;46.1713810264;4.27380729464
COUCHES;71490;46.869155076;4.56431598435
CRECHES SUR SAONE;71680;46.2410718628;4.78718291781
CREOT;71490;46.9169195884;4.61189688029
CRESSY SUR SOMME;71760;46.7008961258;3.86729542324
CRISSEY;71530;46.8169773833;4.88423907508
CRONAT;71140;46.7204911418;3.7115602827
CRUZILLE;71260;46.5070246965;4.78675266634
CUISEAUX;71480;46.5047162667;5.36399526057
CUISERY;71290;46.5569799009;4.99361378862
CULLES LES ROCHES;71460;46.6451171565;4.65261786019
CURBIGNY;71800;46.3116932174;4.31698207413
CURDIN;71130;46.5930182243;3.99722029696
CURGY;71400;46.9886049961;4.38277730487
CURTIL SOUS BUFFIERES;71520;46.4027317458;4.52645305897
CURTIL SOUS BURNAND;71460;46.5832448679;4.6312448943
CUSSY EN MORVAN;71550;47.0930977975;4.1636345374
CUZY;71320;46.7609852867;4.03171098199
DAMEREY;71620;46.8344484396;4.99429761869
DAMPIERRE EN BRESSE;71310;46.8274117737;5.20316156952
DAVAYE;71960;46.3037816172;4.74869737883
DEMIGNY;71150;46.9145180669;4.84793098636
DENNEVY;71510;46.8656403196;4.64491140945
DETTEY;71190;46.7671010152;4.1860690251
DEVROUZE;71330;46.7614578185;5.16719023343
DEZIZE LES MARANGES;71150;46.9232421366;4.6596290959
DICONNE;71330;46.7779978405;5.11904852026
DIGOIN;71160;46.4891651235;4.02511604849
DOMMARTIN LES CUISEAUX;71480;46.4998326659;5.28977666204
DOMPIERRE LES ORMES;71520;46.354950302;4.48081055025
DOMPIERRE SOUS SANVIGNES;71420;46.6640724574;4.22501088032
DONZY LE PERTUIS;71250;46.4479607517;4.71724886753
DRACY LE FORT;71640;46.7967008104;4.77049585592
DRACY LES COUCHES;71490;46.8931291226;4.56630546473
DRACY ST LOUP;71400;47.0145624747;4.34030409282
DYO;71800;46.3638960777;4.28153745354
ECUELLES;71350;46.951371973;5.0701693
ECUISSES;71210;46.7558604047;4.52493211411
EPERTULLY;71360;46.9449937024;4.60074542788
EPERVANS;71380;46.7457712756;4.90239745895
EPINAC;71360;46.9908631777;4.51976953086
ESSERTENNE;71510;46.8109722514;4.54150474121
ETANG SUR ARROUX;71190;46.859401459;4.17913091336
ETRIGNY;71240;46.5892768003;4.79160201098
FARGES LES CHALON;71150;46.8336764432;4.80644535224
FARGES LES MACON;71700;46.5117669109;4.9115948195
FLACEY EN BRESSE;71580;46.5949707867;5.38150826754
FLAGY;71250;46.4925794198;4.63893731321
FLEURVILLE;71260;46.4420568988;4.88017715275
FLEURY LA MONTAGNE;71340;46.1997654702;4.1256489354
FLEY;71390;46.6759560566;4.63908082855
FONTAINES;71150;46.8516219974;4.78077093032
FONTENAY;71120;46.4766084028;4.29956693128
FRAGNES LA LOYERE;71530;46.8312797426;4.84940221006
FRANGY EN BRESSE;71330;46.7194233644;5.33221685118
FRETTERANS;71270;46.923240269;5.28789884271
FRONTENARD;71270;46.8991001814;5.16314384306
FRONTENAUD;71580;46.5482784948;5.29083572414
FUISSE;71960;46.2791382816;4.74647735926
GENELARD;71420;46.5798385493;4.25003029458
GENOUILLY;71460;46.6527283424;4.5689153242
GERGY;71590;46.8791801218;4.92129441098
GERMAGNY;71460;46.6733437634;4.59764029825
GERMOLLES SUR GROSNE;71520;46.2775172772;4.59556800746
GIBLES;71800;46.3179773987;4.38022998111
GIGNY SUR SAONE;71240;46.6538485126;4.93846686758
GILLY SUR LOIRE;71160;46.5480062086;3.79284988791
GIVRY;71640;46.7702122725;4.75441496992
GOURDON;71300;46.6403109594;4.4421869118
GRANDVAUX;71430;46.5059558537;4.26498354082
GRANGES;71390;46.7369347397;4.75217241831
GREVILLY;71700;46.5129383908;4.81939958218
GRURY;71760;46.6645308499;3.91335098661
GUERFAND;71620;46.782165395;5.02905971383
GUEUGNON;71130;46.5939761041;4.0493689292
HAUTEFOND;71600;46.4353617469;4.17206207978
HUILLY SUR SEILLE;71290;46.6051659343;5.053133023
HURIGNY;71870;46.3429969068;4.79636186257
IGE;71960;46.4053982627;4.73487976051
IGORNAY;71540;47.0569683621;4.37872566745
IGUERANDE;71340;46.2165272056;4.07699692762
ISSY L EVEQUE;71760;46.7135521882;4.0005402064
JALOGNY;71250;46.4126361231;4.6349159927
JAMBLES;71640;46.7734363658;4.68027991657
JONCY;71460;46.6145870121;4.55010993204
JOUDES;71480;46.4732075841;5.33948956282
JOUVENCON;71290;46.5761997548;5.05204538096
JUGY;71240;46.6044707808;4.86148307035
JUIF;71440;46.6827335674;5.16245141859
JULLY LES BUXY;71390;46.6874141273;4.72317009125
L ABERGEMENT DE CUISERY;71290;46.5775754985;4.96115611529
L ABERGEMENT STE COLOMBE;71370;46.754037733;5.0286449583
L HOPITAL LE MERCIER;71600;46.3944535195;4.00899233183
LA BOULAYE;71320;46.7373325553;4.1515013438
LA CELLE EN MORVAN;71400;47.0074409579;4.17854772292
LA CHAPELLE AU MANS;71130;46.6290281598;3.97752672203
LA CHAPELLE DE BRAGNY;71240;46.6195852003;4.75996353083
LA CHAPELLE DE GUINCHAY;71570;46.2183395706;4.76075538674
LA CHAPELLE DU MONT DE FRANCE;71520;46.3814725305;4.54090737962
LA CHAPELLE NAUDE;71500;46.5871900268;5.19349664362
LA CHAPELLE SOUS BRANCION;71700;46.5559348952;4.78706778132
LA CHAPELLE SOUS DUN;71800;46.2638539851;4.29882173643
LA CHAPELLE SOUS UCHON;71190;46.8348259179;4.24313052371
LA CHAPELLE ST SAUVEUR;71310;46.8468026106;5.26448829043
LA CHAPELLE THECLE;71470;46.5566698457;5.10211951342
LA CHARMEE;71100;46.7214775415;4.79585753439
LA CHAUX;71310;46.8226144674;5.27235831208
LA CLAYETTE;71800;46.2892944317;4.31079967145
LA COMELLE;71990;46.8809529598;4.11919829871
LA FRETTE;71440;46.6412331111;5.04960758377
LA GENETE;71290;46.549436103;5.04979591392
LA GRANDE VERRIERE;71990;46.9688875676;4.14088119017
LA GUICHE;71220;46.5288680917;4.44086956543
LA MOTTE ST JEAN;71160;46.5148078067;3.96007296995
LA PETITE VERRIERE;71400;47.044929839;4.16692654458
LA RACINEUSE;71310;46.831031386;5.16095151897
LA ROCHE VINEUSE;71960;46.3510235915;4.74854768422
LA SALLE;71260;46.4089574233;4.86086523972
LA TAGNIERE;71190;46.7963713022;4.21515248799
LA TRUCHERE;71290;46.5167546433;4.95800393539
LA VINEUSE SUR FREGANDE;71250;46.4606978689;4.60125621922
LACROST;71700;46.5693107193;4.93607004395
LAIVES;71240;46.6527155264;4.83486721421
LAIZE;71870;46.3824360235;4.80406518536
LAIZY;71190;46.9108484487;4.18328808367
LALHEUE;71240;46.650155549;4.79257635293
LANS;71380;46.7644863686;4.93208606266
LAYS SUR LE DOUBS;71270;46.9201256677;5.24330208466
LE BREUIL;71670;46.7952744773;4.49374098192
LE CREUSOT;71200;46.8068539189;4.42642301163
LE FAY;71580;46.6644310853;5.33674534745
LE MIROIR;71480;46.5431506465;5.33864320841
LE PLANOIS;71330;46.7895553787;5.32263068043
LE PULEY;71460;46.6760071385;4.56588748503
LE ROUSSET MARIZY;71220;46.5716241899;4.39993345947
LE TARTRE;71330;46.7429466505;5.35271245031
LE VILLARS;71700;46.5289774327;4.92186717271
LES BIZOTS;71710;46.7515452356;4.38270809741
LES BORDES;71350;46.8986962713;5.04813103141
LES GUERREAUX;71160;46.5400960877;3.92347814201
LESME;71140;46.6481584864;3.72120388217
LESSARD EN BRESSE;71440;46.7410862327;5.08364517208
LESSARD LE NATIONAL;71530;46.8732289132;4.84609901293
LEYNES;71570;46.2647305147;4.72937186217
LIGNY EN BRIONNAIS;71110;46.2402667832;4.20177769774
LOISY;71290;46.5904043725;5.01289765681
LONGEPIERRE;71270;46.9339285323;5.20327520847
LOUHANS;71500;46.6351883548;5.23839292789
LOURNAND;71250;46.4645640534;4.64914404204
LUCENAY L EVEQUE;71540;47.0840697933;4.26102089354
LUGNY;71260;46.4805805718;4.81912339905
LUGNY LES CHAROLLES;71120;46.4112364438;4.20394785541
LUX;71100;46.7490720688;4.86040694261
MACON;71000;46.3205511756;4.81842529639
MAILLY;71340;46.2279316064;4.11194727703
MALAY;71460;46.56639793;4.68622845385
MALTAT;71140;46.6751423253;3.80940604841
MANCEY;71240;46.5696717803;4.84535325128
MARCIGNY;71110;46.2756272512;4.039116013
MARCILLY LA GUEURCE;71120;46.395826222;4.30447472199
MARCILLY LES BUXY;71390;46.7267163499;4.59181890283
MARIGNY;71300;46.6807912321;4.46979546252
MARLY SOUS ISSY;71760;46.7292090902;3.93392160044
MARLY SUR ARROUX;71420;46.6196801412;4.13156192602
MARMAGNE;71710;46.8429753005;4.37123447631
MARNAY;71240;46.6987582427;4.92604799837
MARTAILLY LES BRANCION;71700;46.531885064;4.79714660531
MARTIGNY LE COMTE;71220;46.5367776065;4.33366674854
MARY;71300;46.6104508131;4.50041386834
MASSILLY;71250;46.4908350512;4.66945256607
MATOUR;71520;46.3110636207;4.47716868181
MAZILLE;71250;46.391550747;4.59913263178
MELAY;71340;46.1993430373;4.01334555514
MELLECEY;71640;46.8104311793;4.7565417637
MENETREUIL;71470;46.5832082014;5.12524084824
MERCUREY;71640;46.834318433;4.72413233505
MERVANS;71310;46.7945134241;5.18412548455
MESSEY SUR GROSNE;71390;46.6508093785;4.75084615409
MESVRES;71190;46.8702793384;4.25320711622
MILLY LAMARTINE;71960;46.3485783556;4.69624606174
MONT;71140;46.6315974398;3.82797477122
MONT LES SEURRE;71270;46.9529037641;5.12901997473
MONT ST VINCENT;71300;46.6461358907;4.49195438858
MONTAGNY LES BUXY;71390;46.7050483061;4.66958139328
MONTAGNY PRES LOUHANS;71500;46.6581608546;5.28366044756
MONTBELLET;71260;46.4713429723;4.8783736486
MONTCEAU LES MINES;71300;46.6762539128;4.3540960404
MONTCEAUX L ETOILE;71110;46.3564508429;4.04500323823
MONTCEAUX RAGNY;71240;46.6203875932;4.84178033117
MONTCENIS;71710;46.786245174;4.39093818161
MONTCHANIN;71210;46.7473169925;4.47424011768
MONTCONY;71500;46.6943670716;5.29800608262
MONTCOY;71620;46.7961241606;4.9981535244
MONTHELON;71400;46.9594714287;4.22119599878
MONTJAY;71310;46.8055434402;5.29985900019
MONTMELARD;71520;46.3421169485;4.41407367209
MONTMORT;71320;46.7418911079;4.09607288589
MONTPONT EN BRESSE;71470;46.541562777;5.17433501769
MONTRET;71440;46.6835248214;5.11326580543
MOREY;71510;46.7915983107;4.58680108045
MORLET;71360;46.9536543261;4.50525767382
MORNAY;71220;46.4992237373;4.38103180018
MOROGES;71390;46.7507453415;4.67430662316
MOUTHIER EN BRESSE;71270;46.8638075135;5.38060673295
MUSSY SOUS DUN;71170;46.2370094184;4.33413361908
NANTON;71240;46.6196318731;4.81580507035
NAVILLY;71270;46.9284745707;5.14455605951
NAVOUR SUR GROSNE;71520;46.3661832627;4.58968637273
NEUVY GRANDCHAMP;71130;46.5932713521;3.92778768794
NOCHIZE;71600;46.4041760827;4.16485920346
ORMES;71290;46.6333104747;4.96657248032
OSLON;71380;46.7774536923;4.94292036797
OUDRY;71420;46.5829807312;4.1661581036
OUROUX SOUS LE BOIS STE MARIE;71800;46.3611048312;4.31018617706
OUROUX SUR SAONE;71370;46.7242227229;4.95068555425
OYE;71800;46.3247162501;4.19347320106
OZENAY;71700;46.5352832941;4.84332783222
OZOLLES;71120;46.3798633225;4.3603551512
PALINGES;71430;46.547452342;4.20782928989
PALLEAU;71350;46.96578142;5.03202326419
PARAY LE MONIAL;71600;46.4431191464;4.11289928796
PARIS L HOPITAL;71150;46.9127885575;4.63958573146
PASSY;71220;46.5408746813;4.53540370263
PERONNE;71260;46.4412933211;4.8012887987
PERRECY LES FORGES;71420;46.621915608;4.22620349316
PERREUIL;71510;46.8221260373;4.56745960102
PERRIGNY SUR LOIRE;71160;46.5434949213;3.85137583197
PIERRE DE BRESSE;71270;46.8824879885;5.25265750532
PIERRECLOS;71960;46.3324202545;4.67135536115
PLOTTES;71700;46.5333799704;4.88549659587
POISSON;71600;46.3808508262;4.13353930479
PONTOUX;71270;46.9088293038;5.12123849533
POUILLOUX;71230;46.6048282453;4.35349281443
POURLANS;71270;46.9630221086;5.23663173279
PRESSY SOUS DONDIN;71220;46.4761059444;4.50397889767
PRETY;71290;46.5394977837;4.95553905201
PRISSE;71960;46.3243137138;4.74816143404
PRIZY;71800;46.3515033821;4.21820421458
PRUZILLY;71570;46.259412904;4.69749749783
RANCY;71290;46.6005131165;5.08307494584
RATENELLE;71290;46.5245517671;5.00102497581
RATTE;71500;46.6395819633;5.30552532869
RECLESNE;71540;47.0470566219;4.2846413148
REMIGNY;71150;46.9096727588;4.7242069921
RIGNY SUR ARROUX;71160;46.5421616023;4.01816532874
ROMANECHE THORINS;71570;46.1902603868;4.74347572682
ROMENAY;71470;46.5142649874;5.08147006476
ROSEY;71390;46.7400858369;4.71424499336
ROUSSILLON EN MORVAN;71550;47.0214021445;4.10448328724
ROYER;71700;46.5553154353;4.82322281115
RULLY;71150;46.8728849421;4.75062759298
SAGY;71580;46.5937236673;5.3241808449
SAILLENARD;71580;46.6974756794;5.37229340001
SAILLY;71250;46.5326888362;4.56213978811
SAISY;71360;46.9611534554;4.55629886469
SALORNAY SUR GUYE;71250;46.5174514836;4.6006444858
SAMPIGNY LES MARANGES;71150;46.9020668199;4.65271904267
SANCE;71000;46.339587047;4.83540535119
SANTILLY;71460;46.6204214776;4.70493603274
SANVIGNES LES MINES;71410;46.6680278999;4.27985342384
SARRY;71110;46.3094373531;4.10708282247
SASSANGY;71390;46.7235527398;4.64308684871
SASSENAY;71530;46.8332708433;4.91806482813
SAULES;71390;46.6559200534;4.67477291847
SAUNIERES;71350;46.9119642453;5.07167860056
SAVIANGES;71460;46.6899032737;4.60174880086
SAVIGNY EN REVERMONT;71580;46.6336562271;5.39078988387
SAVIGNY SUR GROSNE;71460;46.5810724468;4.66399210359
SAVIGNY SUR SEILLE;71440;46.6331048496;5.10253971611
SEMUR EN BRIONNAIS;71110;46.2756396728;4.09014154762
SENNECEY LE GRAND;71240;46.6369174742;4.8906553054
SENOZAN;71260;46.3967416331;4.86457842244
SENS SUR SEILLE;71330;46.7462083335;5.30794162297
SERCY;71460;46.6008137667;4.69328088717
SERLEY;71310;46.7884184366;5.24237687165
SERMESSE;71350;46.8944431554;5.09330087989
SERRIERES;71960;46.3106483119;4.66614748504
SERRIGNY EN BRESSE;71310;46.8249036808;5.12195396385
SEVREY;71100;46.7358656662;4.82878798473
SIGY LE CHATEL;71250;46.5550063126;4.57085100441
SIMANDRE;71290;46.6122739185;4.98702141498
SIMARD;71330;46.7167185165;5.18255120169
SIVIGNON;71220;46.4267420251;4.49917646039
SOLOGNY;71960;46.3708080231;4.67295100196
SOLUTRE POUILLY;71960;46.2935765949;4.72347694555
SOMMANT;71540;47.0533646393;4.20964551396
SORNAY;71500;46.6213260954;5.16979510673
ST AGNAN;71160;46.5133587412;3.88738815956
ST ALBAIN;71260;46.422400276;4.86818774017
ST AMBREUIL;71240;46.6810830382;4.81914623845
ST AMOUR BELLEVUE;71570;46.2414353911;4.74041810825
ST ANDRE EN BRESSE;71440;46.6509686442;5.08602391583
ST ANDRE LE DESERT;71220;46.4997623512;4.53459884587
ST AUBIN EN CHAROLLAIS;71430;46.5008361838;4.2089560127
ST AUBIN SUR LOIRE;71140;46.5678204278;3.76149865404
ST BERAIN SOUS SANVIGNES;71300;46.7158828922;4.29130777114
ST BERAIN SUR DHEUNE;71510;46.8165810334;4.61430858653
ST BOIL;71390;46.6416818485;4.69957680942
ST BONNET DE CRAY;71340;46.202568549;4.16340067325
ST BONNET DE JOUX;71220;46.4782854677;4.43348327243
ST BONNET DE VIEILLE VIGNE;71430;46.5304875791;4.2714393389
ST BONNET EN BRESSE;71310;46.8588763872;5.17827286067
ST CHRISTOPHE EN BRESSE;71370;46.7454161376;4.99090268478
ST CHRISTOPHE EN BRIONNAIS;71800;46.2848533492;4.19005721567
ST CLEMENT SUR GUYE;71460;46.6135549466;4.5866103902
ST CYR;71240;46.6791536677;4.90050025353
ST DENIS DE VAUX;71640;46.7925579715;4.70152860992
ST DESERT;71390;46.7571405125;4.71340832367
ST DIDIER EN BRESSE;71620;46.8507201385;5.10326207017
ST DIDIER EN BRIONNAIS;71110;46.3389618566;4.12398116722
ST DIDIER SUR ARROUX;71190;46.832913623;4.10029062388
ST EDMOND;71740;46.2038071906;4.2106213442
ST EMILAND;71490;46.8946339034;4.47301777155
ST ETIENNE EN BRESSE;71370;46.7060490635;5.06223001474
ST EUGENE;71320;46.7303096317;4.22025491336
ST EUSEBE;71210;46.7211446083;4.45443642854
ST FIRMIN;71670;46.8475771598;4.46315164519
ST FORGEOT;71400;47.0016193102;4.28632347567
ST GENGOUX DE SCISSE;71260;46.4618494936;4.77147556185
ST GENGOUX LE NATIONAL;71460;46.6134097037;4.66348657274
ST GERMAIN DU BOIS;71330;46.7400325151;5.244824313
ST GERMAIN DU PLAIN;71370;46.6944314945;4.98395008765
ST GERMAIN EN BRIONNAIS;71800;46.3465365136;4.25107234474
ST GERMAIN LES BUXY;71390;46.6961802928;4.7732570096
ST GERVAIS EN VALLIERE;71350;46.945273256;4.96240902154
ST GERVAIS SUR COUCHES;71490;46.9241932116;4.56778879306
ST GILLES;71510;46.8776228817;4.66403200389
ST HURUGE;71460;46.5787209539;4.57476760271
ST IGNY DE ROCHE;71170;46.187952521;4.30371238024
ST JEAN DE TREZY;71490;46.84298682;4.58633968997
ST JEAN DE VAUX;71640;46.8066073647;4.69575049861
ST JULIEN DE CIVRY;71800;46.3729257558;4.22118387615
ST JULIEN DE JONZY;71110;46.2465829931;4.14251158557
ST JULIEN SUR DHEUNE;71210;46.7729463186;4.54776412393
ST LAURENT D ANDENAY;71210;46.7305082565;4.51202776715
ST LAURENT EN BRIONNAIS;71800;46.2699837548;4.25673453521
ST LEGER DU BOIS;71360;47.0229494919;4.43237550476
ST LEGER LES PARAY;71600;46.4848826059;4.1163312741
ST LEGER SOUS BEUVRAY;71990;46.9191539488;4.09209757526
ST LEGER SOUS LA BUSSIERE;71520;46.3114540312;4.56276492134
ST LEGER SUR DHEUNE;71510;46.8382241352;4.64131133343
ST LOUP DE VARENNES;71240;46.7239907998;4.8521089943
ST LOUP GEANGES;71350;46.9387218362;4.90922243848
ST MARCEL;71380;46.77487928;4.88727108461
ST MARCELIN DE CRAY;71460;46.5652558244;4.52248882344
ST MARD DE VAUX;71640;46.8135328184;4.67179721319
ST MARTIN BELLE ROCHE;71118;46.3803240277;4.85450707097
ST MARTIN D AUXY;71390;46.7213262279;4.55075657116
ST MARTIN DE COMMUNE;71490;46.9025390266;4.51751488877
ST MARTIN DE LIXY;71740;46.1966932958;4.23849403953
ST MARTIN DE SALENCEY;71220;46.5186534954;4.49326886947
ST MARTIN DU LAC;71110;46.2492100309;4.05528642547
ST MARTIN DU MONT;71580;46.6200413286;5.29420271275
ST MARTIN DU TARTRE;71460;46.6484823293;4.60684665036
ST MARTIN EN BRESSE;71620;46.8045036563;5.06009460958
ST MARTIN EN GATINOIS;71350;46.9431147927;5.00729435499
ST MARTIN LA PATROUILLE;71460;46.5830730651;4.54536544004
ST MARTIN SOUS MONTAIGU;71640;46.8134978292;4.7100275215
ST MAURICE DE SATONNAY;71260;46.4057525452;4.78239224424
ST MAURICE DES CHAMPS;71460;46.6238661451;4.62609375909
ST MAURICE EN RIVIERE;71620;46.8493063168;5.02211527314
ST MAURICE LES CHATEAUNEUF;71740;46.2267056236;4.25094648512
ST MAURICE LES COUCHES;71490;46.8775473373;4.60138308306
ST MICAUD;71460;46.6923867909;4.52704929723
ST NIZIER SUR ARROUX;71190;46.8143219502;4.15821443089
ST PIERRE DE VARENNES;71670;46.84711079;4.5090273934
ST PIERRE LE VIEUX;71520;46.2871912572;4.52517734192
ST POINT;71520;46.3371050724;4.62126526251
ST PRIVE;71390;46.6996790734;4.57526174797
ST PRIX;71990;46.972172044;4.06111114828
ST RACHO;71800;46.2627274208;4.37370876485
ST REMY;71100;46.7602643306;4.82122632524
ST ROMAIN SOUS GOURDON;71230;46.6170899923;4.41147294378
ST ROMAIN SOUS VERSIGNY;71420;46.6523046046;4.18495340535
ST SERNIN DU BOIS;71200;46.8386475435;4.42378430368
ST SERNIN DU PLAIN;71510;46.892384215;4.61739889874
ST SYMPHORIEN D ANCELLES;71570;46.1956267392;4.77196064471
ST SYMPHORIEN DE MARMAGNE;71710;46.8287800978;4.31825474649
ST SYMPHORIEN DES BOIS;71800;46.3269509169;4.2853376663
ST USUGE;71500;46.690095883;5.24143476661
ST VALLERIN;71390;46.6847032271;4.66933789686
ST VALLIER;71230;46.6430898449;4.35996411381
ST VERAND;71570;46.2531843675;4.72769715807
ST VINCENT BRAGNY;71430;46.5253910915;4.12604476033
ST VINCENT DES PRES;71250;46.4748542216;4.55521519773
ST VINCENT EN BRESSE;71440;46.6714691563;5.06091030866
ST YAN;71600;46.4071746209;4.05766988687
ST YTHAIRE;71460;46.5681757144;4.60307233126
STE CECILE;71250;46.3853014921;4.6346635997
STE CROIX;71470;46.5587984571;5.23823090911
STE FOY;71110;46.2773831538;4.13207987925
STE HELENE;71390;46.7577025616;4.63460964959
STE RADEGONDE;71320;46.6939905917;4.07946252508
SUIN;71220;46.4406556558;4.45677092453
SULLY;71360;46.9880333381;4.45705111324
TAIZE;71250;46.5105515739;4.67305548074
TANCON;71740;46.2007159715;4.27045776133
TAVERNAY;71400;47.0078509175;4.23537137971
THIL SUR ARROUX;71190;46.8041058716;4.09212501715
THUREY;71440;46.7431263464;5.12562918719
TINTRY;71490;46.9318626391;4.48929085952
TORCY;71210;46.7663790814;4.44629007139
TORPES;71270;46.8390198293;5.33546436307
TOULON SUR ARROUX;71320;46.6826511645;4.14773994061
TOURNUS;71700;46.5651726015;4.90012429206
TOUTENANT;71350;46.8707263805;5.11407040024
TRAMAYES;71520;46.3056528048;4.60368110161
TRAMBLY;71520;46.3310184112;4.53251400851
TRIVY;71520;46.3907231408;4.48743569605
TRONCHY;71440;46.7273787924;5.07374136167
UCHIZY;71700;46.4985733672;4.88689760055
UCHON;71190;46.809110092;4.26277763328
UXEAU;71130;46.6565301063;4.04556319316
VAREILLES;71800;46.3003476512;4.2482812157
VARENNE L ARCONCE;71110;46.3412494667;4.15697497877
VARENNE ST GERMAIN;71600;46.4373098017;4.02659181571
VARENNES LE GRAND;71240;46.7100754692;4.87819266492
VARENNES LES MACON;71000;46.2683636158;4.8066970954
VARENNES SOUS DUN;71800;46.2783435067;4.33879272705
VARENNES ST SAUVEUR;71480;46.5013604889;5.23845010898
VAUBAN;71800;46.2639696284;4.22242971083
VAUDEBARRIER;71120;46.4165847786;4.31200605837
VAUX EN PRE;71460;46.6226496963;4.60188954425
VENDENESSE LES CHAROLLES;71120;46.4407294835;4.35671809302
VENDENESSE SUR ARROUX;71130;46.6312878987;4.06699365685
VERDUN SUR LE DOUBS;71350;46.8905762188;5.01251623413
VERGISSON;71960;46.3095589166;4.71007119393
VERISSEY;71440;46.7117151775;5.12822838879
VERJUX;71590;46.877805287;4.97685538795
VEROSVRES;71220;46.3956596645;4.44032061495
VERS;71240;46.5829437707;4.85548745852
VERSAUGUES;71110;46.3674828886;4.07047999469
VERZE;71960;46.3779055015;4.73671320238
VILLEGAUDIN;71620;46.8001182461;5.10315061501
VILLENEUVE EN MONTAGNE;71390;46.7620859327;4.58923358635
VINCELLES;71500;46.6645202679;5.22488404549
VINDECY;71110;46.3534713337;4.00762169293
VINZELLES;71680;46.2679286558;4.77751474902
VIRE;71260;46.4445923499;4.84966677485
VIREY LE GRAND;71530;46.8524193794;4.86945646379
VIRY;71120;46.4724060725;4.33771715478
VITRY EN CHAROLLAIS;71600;46.4610227833;4.0599685169
VITRY SUR LOIRE;71140;46.6796114688;3.71763389584
VOLESVRES;71600;46.4730942856;4.16777937135
