ABONDANCE;74360;46.2661080816;6.7321620538
ALBY SUR CHERAN;74540;45.8156435779;6.01581486858
ALEX;74290;45.8806920223;6.23633769093
ALLEVES;74540;45.7588655872;6.08634740225
ALLINGES;74200;46.333709028;6.46512142751
ALLONZIER LA CAILLE;74350;46.000527699;6.10482048689
AMANCY;74800;46.0728257803;6.33057376854
AMBILLY;74100;46.1961567042;6.22429975401
ANDILLY;74350;46.0702115695;6.0710017836
ANNECY;74000;45.8906432566;6.12551773598
ANNECY;74370;45.8906432566;6.12551773598
ANNECY;74600;45.8906432566;6.12551773598
ANNECY;74940;45.8906432566;6.12551773598
ANNECY;74960;45.8906432566;6.12551773598
ANNEMASSE;74100;46.1909730986;6.24250704322
ANTHY SUR LEMAN;74200;46.3530564511;6.42748586139
ARACHES LA FRASSE;74300;46.0302694516;6.66062068121
ARBUSIGNY;74930;46.086240469;6.20734603818
ARCHAMPS;74160;46.1222282115;6.13971386615
ARENTHON;74800;46.0981343308;6.3386699894
ARGONAY;74370;45.9472669174;6.14837081563
ARMOY;74200;46.3523619359;6.51159949942
ARTHAZ PONT NOTRE DAME;74380;46.1606681382;6.26878505458
AYSE;74130;46.0869924496;6.44601645014
BALLAISON;74140;46.2932587435;6.34400093687
BASSY;74910;45.9914416036;5.82815626577
BEAUMONT;74160;46.0976635697;6.12074518078
BELLEVAUX;74470;46.2276019394;6.55285416418
BERNEX;74500;46.3566554818;6.69898825662
BLOYE;74150;45.8204275493;5.94977872948
BLUFFY;74290;45.8655021029;6.22227398882
BOEGE;74420;46.2188768633;6.38530552261
BOGEVE;74250;46.194241107;6.43929186038
BONNE;74380;46.1718364348;6.31931310923
BONNEVAUX;74360;46.2948424143;6.66552754458
BONNEVILLE;74130;46.0739003968;6.40868532191
BONS EN CHABLAIS;74890;46.2631816283;6.36089776128
BOSSEY;74160;46.1500584591;6.17275446607
BOUSSY;74150;45.8509031709;5.98346432153
BRENTHONNE;74890;46.2692786912;6.39437723207
BRIZON;74130;46.0352614624;6.43415213
BURDIGNIN;74420;46.2324473826;6.42604409853
CERCIER;74350;46.021660163;6.04815697534
CERNEX;74350;46.0623077421;6.03872026675
CERVENS;74550;46.28114425;6.44750930568
CHAINAZ LES FRASSES;74540;45.7784395221;5.98960566934
CHALLONGES;74910;46.0223204278;5.82687440424
CHAMONIX MONT BLANC;74400;45.9309819111;6.92360096711
CHAMPANGES;74500;46.3715803084;6.55369978172
CHAPEIRY;74540;45.8392480283;6.03922674801
CHARVONNEX;74370;45.9825276436;6.15767160259
CHATEL;74390;46.2490325973;6.81712790779
CHATILLON SUR CLUSES;74300;46.0893520244;6.57817291187
CHAUMONT;74270;46.044949243;5.94515955142
CHAVANNAZ;74270;46.0500384099;6.01652644319
CHAVANOD;74650;45.8844744691;6.05040184575
CHENE EN SEMINE;74270;46.0499479891;5.858890983
CHENEX;74520;46.1028404412;5.9906719812
CHENS SUR LEMAN;74140;46.3104075076;6.26773142669
CHESSENAZ;74270;46.0407218951;5.90635701971
CHEVALINE;74210;45.7302662541;6.20797432213
CHEVENOZ;74500;46.3330385867;6.64071625327
CHEVRIER;74520;46.1120536918;5.91128750728
CHILLY;74270;45.9892543857;5.95663892885
CHOISY;74330;45.9970301608;6.05417234636
CLARAFOND ARCINE;74270;46.074723886;5.89580535006
CLERMONT;74270;45.9734444894;5.90937510902
CLUSES;74300;46.0631088613;6.57892080059
COLLONGES SOUS SALEVE;74160;46.1362755824;6.16071125763
COMBLOUX;74920;45.8910313929;6.63687678944
CONTAMINE SARZIN;74270;46.0216239121;5.98148486224
CONTAMINE SUR ARVE;74130;46.1334593706;6.33869457098
COPPONEX;74350;46.0442257211;6.0703860483
CORDON;74700;45.909121538;6.56940992155
CORNIER;74800;46.0897408945;6.29193924963
CRANVES SALES;74380;46.1974383697;6.30389958032
CREMPIGNY BONNEGUETE;74150;45.9467841367;5.90312519314
CRUSEILLES;74350;46.0362105004;6.11527700259
CUSY;74540;45.7584929074;6.0333103006
CUVAT;74350;45.9769889587;6.10863397469
DEMI QUARTIER;74120;45.8739226707;6.6331062739
DESINGY;74270;45.9994978895;5.88777092004
DINGY EN VUACHE;74520;46.0886545538;5.94974416216
DINGY ST CLAIR;74230;45.9289752964;6.25044685082
DOMANCY;74700;45.9071921608;6.66391720268
DOUSSARD;74210;45.7709274033;6.22183215069
DOUVAINE;74140;46.3063459721;6.29894207485
DRAILLANT;74550;46.2957245555;6.4729982985
DROISY;74270;45.961959396;5.8811939602
DUINGT;74410;45.8204516691;6.19524357933
ENTREVERNES;74410;45.7764785792;6.18131365622
EPAGNY METZ TESSY;74330;45.9440370403;6.08226977374
EPAGNY METZ TESSY;74370;45.9440370403;6.08226977374
ESSERT ROMAND;74110;46.2023206067;6.660151187
ETAUX;74800;46.060819717;6.26988707785
ETERCY;74150;45.8924317262;6.0079458329
ETREMBIERES;74100;46.1698202877;6.20839249952
EVIAN LES BAINS;74500;46.3924102379;6.58612507528
EXCENEVEX;74140;46.3467214365;6.34122172541
FAUCIGNY;74130;46.1164159018;6.36907611887
FAVERGES SEYTHENEX;74210;45.749197611;6.2852126691
FEIGERES;74160;46.1104409048;6.07310572582
FESSY;74890;46.2708634498;6.42354470529
FETERNES;74500;46.3490789194;6.5652955969
FILLIERE;74370;45.9923733891;6.28837579239
FILLIERE;74570;45.9923733891;6.28837579239
FILLINGES;74250;46.1661884948;6.35020094115
FRANCLENS;74910;46.0440349953;5.82444988041
FRANGY;74270;46.0231025542;5.92267414864
GAILLARD;74240;46.1818085953;6.20707666644
GIEZ;74210;45.7384038811;6.24575065655
GLIERES VAL DE BORNE;74130;45.9971884762;6.3914422283
GROISY;74570;46.0176333128;6.17496504174
GRUFFY;74540;45.7831959946;6.06312063481
HABERE LULLIN;74420;46.2330939582;6.462221779
HABERE POCHE;74420;46.2555235551;6.47324374853
HAUTEVILLE SUR FIER;74150;45.9053969154;5.97847450903
HERY SUR ALBY;74540;45.791943752;6.01056501234
JONZIER EPAGNY;74520;46.0765856703;5.98885636261
JUVIGNY;74100;46.2159934836;6.2901767957
LA BALME DE SILLINGY;74330;45.9698450968;6.04498278395
LA BALME DE THUY;74230;45.910029772;6.28546229311
LA BAUME;74430;46.2836072136;6.60860693452
LA CHAPELLE D ABONDANCE;74360;46.3009535709;6.79280453698
LA CHAPELLE RAMBAUD;74800;46.0732040123;6.23904981825
LA CHAPELLE ST MAURICE;74410;45.7714927901;6.15405726067
LA CLUSAZ;74220;45.9001389505;6.46031714364
LA COTE D ARBROZ;74110;46.1811051133;6.63111937923
LA FORCLAZ;74200;46.3179930768;6.61587770566
LA MURAZ;74560;46.1193345153;6.19613166236
LA RIVIERE ENVERSE;74440;46.0896743627;6.63334619957
LA ROCHE SUR FORON;74800;46.0431484138;6.30107653595
LA TOUR;74250;46.1336564558;6.43183287509
LA VERNAZ;74200;46.3073602687;6.59539098914
LARRINGES;74500;46.369808059;6.58783064485
LATHUILE;74210;45.7732607321;6.19555768621
LE BIOT;74430;46.2728593658;6.64024071432
LE BOUCHET;74230;45.8045733703;6.38410878026
LE GRAND BORNAND;74450;45.9562174482;6.47641784295
LE REPOSOIR;74950;45.9970981338;6.52628371874
LE SAPPEY;74350;46.0883274931;6.16118965479
LES CLEFS;74230;45.8448702892;6.32686437969
LES CONTAMINES MONTJOIE;74170;45.7888971555;6.73152876295
LES GETS;74260;46.1542288253;6.66014566051
LES HOUCHES;74310;45.8968732063;6.8000932715
LES VILLARDS SUR THONES;74230;45.9132702752;6.37458702668
LESCHAUX;74320;45.7750459129;6.11849070484
LOISIN;74140;46.2802184824;6.30399000794
LORNAY;74150;45.9107999793;5.88954497297
LOVAGNY;74330;45.9038439081;6.03434039234
LUCINGES;74380;46.1940296525;6.32983573974
LUGRIN;74500;46.3933090904;6.67397267401
LULLIN;74470;46.2792006557;6.51041633979
LULLY;74890;46.2927550589;6.40876638382
LYAUD;74200;46.3337086128;6.52037884691
MACHILLY;74140;46.2555120151;6.32281411543
MAGLAND;74300;46.0010482843;6.63346275001
MANIGOD;74230;45.850295364;6.40113588124
MARCELLAZ;74250;46.1452555386;6.35771780068
MARCELLAZ ALBANAIS;74150;45.8707666438;5.99966381928
MARGENCEL;74200;46.3315818048;6.42253424763
MARIGNIER;74970;46.0950289167;6.4944693169
MARIGNY ST MARCEL;74150;45.8298777839;5.98423746783
MARIN;74200;46.374432028;6.52367394025
MARLIOZ;74270;46.0270380688;6.00829884912
MARNAZ;74460;46.0518903759;6.5224156191
MASSINGY;74150;45.8267941245;5.91585359049
MASSONGY;74140;46.3230559823;6.32549950668
MAXILLY SUR LEMAN;74500;46.393993609;6.6339170176
MEGEVE;74120;45.8401573581;6.62348394015
MEGEVETTE;74490;46.208458258;6.51327068897
MEILLERIE;74500;46.4006869695;6.73172142623
MENTHON ST BERNARD;74290;45.8653434236;6.19371720419
MENTHONNEX EN BORNES;74350;46.0594628782;6.17994135372
MENTHONNEX SOUS CLERMONT;74270;45.9618992174;5.93569269941
MESIGNY;74330;45.9864538672;6.00616944554
MESSERY;74140;46.3456509574;6.29932822194
MIEUSSY;74440;46.1453438048;6.53345961052
MINZIER;74270;46.0551645606;5.99089024403
MONNETIER MORNEX;74560;46.1525800446;6.21241233878
MONT SAXONNEX;74130;46.0351333935;6.47990420928
MONTAGNY LES LANCHES;74600;45.8589669749;6.04681935916
MONTRIOND;74110;46.2066444762;6.74359316824
MORILLON;74440;46.0632390772;6.67318237741
MORZINE;74110;46.1732135057;6.74252144427
MOYE;74150;45.8711582586;5.89506512149
MURES;74540;45.8062692849;6.03921790944
MUSIEGES;74270;46.014191585;5.95578712285
NANCY SUR CLUSES;74300;46.0239034674;6.57403286211
NANGY;74380;46.1500146903;6.30645788987
NAVES PARMELAN;74370;45.9320249832;6.19716046431
NERNIER;74140;46.3615754637;6.30527066431
NEUVECELLE;74500;46.3921186949;6.60933233238
NEYDENS;74160;46.118085274;6.10360630627
NONGLARD;74330;45.9228803405;6.02730833828
NOVEL;74500;46.3613258341;6.76382065877
ONNION;74490;46.1816924284;6.49869806571
ORCIER;74550;46.3132216712;6.50123814187
PASSY;74190;45.9545838758;6.74056895873
PEILLONNEX;74250;46.1323903269;6.38235648259
PERRIGNIER;74550;46.3062097696;6.43566112571
PERS JUSSY;74930;46.1018355447;6.25852776575
POISY;74330;45.9189291023;6.06312526002
PRAZ SUR ARLY;74120;45.8273830963;6.58013212731
PRESILLY;74160;46.0850070124;6.09107599342
PUBLIER;74500;46.3896985259;6.54164965422
QUINTAL;74600;45.8329607054;6.09119171062
REIGNIER ESERY;74930;46.1353479879;6.26126122824
REYVROZ;74200;46.324542262;6.56224816436
RUMILLY;74150;45.8555126651;5.94075287432
SALES;74150;45.8821225736;5.96006746807
SALLANCHES;74700;45.9468155788;6.60711053078
SALLENOVES;74270;46.0029977511;5.99114541965
SAMOENS;74340;46.0878467821;6.74329361493
SAVIGNY;74520;46.0694979288;5.95170767195
SAXEL;74420;46.2447795601;6.40325461428
SCIENTRIER;74930;46.1202601258;6.31761155339
SCIEZ;74140;46.3247332955;6.38071834154
SCIONZIER;74950;46.0486254419;6.54669166581
SERRAVAL;74230;45.8118131571;6.33496579827
SERVOZ;74310;45.9454311308;6.78543826857
SEVRIER;74320;45.8555012829;6.13806338899
SEYSSEL;74910;45.959506245;5.8529871085
SEYTROUX;74430;46.2397817737;6.60295956835
SILLINGY;74330;45.9489088866;6.02753426428
SIXT FER A CHEVAL;74740;46.0542010133;6.81232553172
ST ANDRE DE BOEGE;74420;46.1932380604;6.3815476772
ST BLAISE;74350;46.0663582053;6.09154099437
ST CERGUES;74140;46.2308494715;6.32552147286
ST EUSEBE;74150;45.9294639513;5.96296409626
ST EUSTACHE;74410;45.7953730789;6.15214933541
ST FELIX;74540;45.8078414616;5.97720329575
ST FERREOL;74210;45.7833203062;6.30718276137
ST GERMAIN SUR RHONE;74910;46.0700297768;5.82592326437
ST GERVAIS LES BAINS;74170;45.8571864862;6.74016257718
ST GINGOLPH;74500;46.3882088835;6.77810230849
ST JEAN D AULPS;74430;46.2278739142;6.66076731793
ST JEAN DE SIXT;74450;45.9242802891;6.40961538858
ST JEAN DE THOLOME;74250;46.1107199959;6.41494686229
ST JEOIRE;74490;46.1392092512;6.46500057209
ST JORIOZ;74410;45.822898265;6.14963663908
ST JULIEN EN GENEVOIS;74160;46.139365545;6.07881171095
ST LAURENT;74800;46.0373461357;6.35335860666
ST PAUL EN CHABLAIS;74500;46.3693047939;6.63664025494
ST PIERRE EN FAUCIGNY;74800;46.063686335;6.37244945345
ST SIGISMOND;74300;46.0753265855;6.61651398785
ST SIXT;74800;46.0419013961;6.32297351763
ST SYLVESTRE;74540;45.8403822562;6.01327128168
TALLOIRES MONTMIN;74210;45.8357923857;6.23052089871
TALLOIRES MONTMIN;74290;45.8357923857;6.23052089871
TANINGES;74440;46.1265071577;6.60770716363
THOLLON LES MEMISES;74500;46.3828568354;6.7291180359
THONES;74230;45.8852613668;6.31953220709
THONON LES BAINS;74200;46.3704258049;6.48194336071
THUSY;74150;45.949872762;5.96377064209
THYEZ;74300;46.0881937629;6.53665081936
USINENS;74910;46.0141101531;5.85064952145
VACHERESSE;74360;46.3228440674;6.7065933809
VAILLY;74470;46.2936006568;6.55263148753
VAL DE CHAISE;74210;45.7653898846;6.35142628779
VALLEIRY;74520;46.1152145208;5.97022697234
VALLIERES SUR FIER;74150;45.9052695634;5.94190689609
VALLORCINE;74660;46.025877178;6.90055556449
VANZY;74270;46.0345033012;5.87850321489
VAULX;74150;45.9255788911;5.99894217943
VEIGY FONCENEX;74140;46.2703256602;6.26781250084
VERCHAIX;74440;46.1211763071;6.68814243155
VERS;74160;46.088423154;6.02493398653
VERSONNEX;74150;45.9261649892;5.92765676795
VETRAZ MONTHOUX;74100;46.1810228514;6.26266311995
VEYRIER DU LAC;74290;45.8857432709;6.17657908258
VILLARD;74420;46.2123462222;6.450248937
VILLAZ;74370;45.9532681771;6.20133049908
VILLE EN SALLAZ;74250;46.1451320833;6.42263248025
VILLE LA GRAND;74100;46.2044481273;6.26056985125
VILLY LE BOUVERET;74350;46.0442515744;6.15921118422
VILLY LE PELLOUX;74350;46.0004341516;6.13625958374
VINZIER;74500;46.3449767077;6.61043449085
VIRY;74580;46.1193528783;6.02496587452
VIUZ EN SALLAZ;74250;46.1640902035;6.4072679008
VIUZ LA CHIESAZ;74540;45.8113073621;6.07554631236
VOUGY;74130;46.066690083;6.48527967486
VOVRAY EN BORNES;74350;46.0630306503;6.14060275314
VULBENS;74520;46.1094500847;5.9361888099
YVOIRE;74140;46.3635082871;6.33214094024
