ABLEIGES;95450;49.085772994;1.97486524588
AINCOURT;95510;49.0728443021;1.77403416153
AMBLEVILLE;95420;49.1509533273;1.69495333477
AMBLEVILLE;95710;49.1509533273;1.69495333477
AMENUCOURT;95510;49.11033118;1.65004984269
ANDILLY;95580;49.0084088051;2.30277335813
ARGENTEUIL;95100;48.9511344629;2.2410409502
ARNOUVILLE;95400;48.9858270233;2.41714370822
ARRONVILLE;95810;49.1740736985;2.1128755699
ARTHIES;95420;49.0949860681;1.79726253732
ASNIERES SUR OISE;95270;49.1407338587;2.3800597257
ATTAINVILLE;95570;49.0609607975;2.35043699897
AUVERS SUR OISE;95430;49.0803858577;2.15488070885
AVERNES;95450;49.0888264241;1.87003944746
BAILLET EN FRANCE;95560;49.0587634445;2.30242390203
BANTHELU;95420;49.125635171;1.81493362014
BEAUCHAMP;95250;49.0148746005;2.19223334805
BEAUMONT SUR OISE;95260;49.1400981058;2.30021267239
BELLEFONTAINE;95270;49.0925450079;2.46955814701
BELLOY EN FRANCE;95270;49.0922395849;2.371761287
BERNES SUR OISE;95340;49.165413332;2.3012763367
BERVILLE;95810;49.1924943178;2.07091417142
BESSANCOURT;95550;49.0373082647;2.19851000707
BETHEMONT LA FORET;95840;49.0543170878;2.25114028557
BEZONS;95870;48.9259810125;2.21133387765
BOISEMONT;95000;49.0186866586;2.00384200606
BOISSY L AILLERIE;95650;49.0831174161;2.03269283542
BONNEUIL EN FRANCE;95500;48.9651461518;2.43492885419
BOUFFEMONT;95570;49.04157253;2.29838457991
BOUQUEVAL;95720;49.0223417404;2.42997422795
BRAY ET LU;95710;49.1421953145;1.66575656789
BREANCON;95640;49.1493481193;2.02307108872
BRIGNANCOURT;95640;49.1395537337;1.94352100236
BRUYERES SUR OISE;95820;49.1610125293;2.32878300621
BUHY;95770;49.1917501414;1.70277550581
BUTRY SUR OISE;95430;49.083906326;2.19184448916
CERGY;95000;49.0401131567;2.05082123731
CERGY;95800;49.0401131567;2.05082123731
CHAMPAGNE SUR OISE;95660;49.1427759123;2.22801680604
CHARMONT;95420;49.1370870263;1.78987414307
CHARS;95750;49.1576020656;1.93153133198
CHATENAY EN FRANCE;95190;49.0649154148;2.46274737647
CHAUMONTEL;95270;49.1289962967;2.43643330005
CHAUSSY;95710;49.1134565492;1.70351386398
CHAUVRY;95560;49.0530490833;2.26887039033
CHENNEVIERES LES LOUVRES;95380;49.0420924353;2.54653894777
CHERENCE;95510;49.0911714832;1.68127200467
CLERY EN VEXIN;95420;49.1319286241;1.8481642148
COMMENY;95450;49.126580535;1.88800469417
CONDECOURT;95450;49.0375647936;1.93659110857
CORMEILLES EN PARISIS;95240;48.9682249677;2.19921349468
CORMEILLES EN VEXIN;95830;49.1134329307;2.01977916637
COURCELLES SUR VIOSNE;95650;49.073025738;1.99630178022
COURDIMANCHE;95800;49.040676793;1.9994435918
DEUIL LA BARRE;95170;48.9712690171;2.32616290144
DOMONT;95330;49.0296655684;2.32290103729
EAUBONNE;95600;48.9909940165;2.27800925488
ECOUEN;95440;49.0260643173;2.38485695599
ENGHIEN LES BAINS;95880;48.97016048;2.30485955429
ENNERY;95300;49.0784386043;2.10941210454
EPIAIS LES LOUVRES;95380;49.030193287;2.54884090855
EPIAIS RHUS;95810;49.1238363223;2.07311253247
EPINAY CHAMPLATREUX;95270;49.0900262096;2.40710033598
ERAGNY;95610;49.0204587496;2.10136635847
ERMONT;95120;48.98824217;2.25662443737
EZANVILLE;95460;49.038600379;2.36269120289
FONTENAY EN PARISIS;95190;49.0501196631;2.44539371928
FOSSES;95470;49.1000437966;2.49906495383
FRANCONVILLE;95130;48.9884161105;2.2238932062
FREMAINVILLE;95450;49.0662903393;1.86961416716
FREMECOURT;95830;49.1234959164;1.99347687153
FREPILLON;95740;49.0501306912;2.20489899147
FROUVILLE;95690;49.1574870013;2.14659092833
GARGES LES GONESSE;95140;48.9701231267;2.40534038501
GENAINVILLE;95420;49.1168671395;1.75427492934
GENICOURT;95650;49.0948354012;2.06072705902
GONESSE;95500;48.9864903049;2.4569899628
GOUSSAINVILLE;95190;49.024343017;2.46619848866
GOUZANGREZ;95450;49.113864439;1.90836879616
GRISY LES PLATRES;95810;49.1332346678;2.0484611533
GROSLAY;95410;48.9849701077;2.35049057811
GUIRY EN VEXIN;95450;49.1158466771;1.85568912619
HARAVILLIERS;95640;49.1752644516;2.03713061027
HAUTE ISLE;95780;49.0827306409;1.66281760836
HEDOUVILLE;95690;49.1584963577;2.17768034545
HERBLAY SUR SEINE;95220;49.0007002763;2.14967680776
HEROUVILLE EN VEXIN;95300;49.1048939093;2.12722046859
HODENT;95420;49.1421704888;1.762430658
JAGNY SOUS BOIS;95850;49.0814278078;2.44399511411
JOUY LE MOUTIER;95280;49.0113625056;2.03408317867
L ISLE ADAM;95290;49.1072255924;2.23436241795
LA CHAPELLE EN VEXIN;95420;49.1835139361;1.72855495896
LA FRETTE SUR SEINE;95530;48.9745244717;2.17786777518
LA ROCHE GUYON;95780;49.0874855412;1.63442620986
LABBEVILLE;95690;49.1338305724;2.13502924194
LASSY;95270;49.0949281199;2.4378486193
LE BELLAY EN VEXIN;95750;49.149355833;1.87860817105
LE HEAULME;95640;49.1669918244;2.00040147185
LE MESNIL AUBRY;95720;49.0535430501;2.39230869097
LE PERCHAY;95450;49.1164053302;1.92739087092
LE PLESSIS BOUCHARD;95130;49.0032793478;2.23401999637
LE PLESSIS GASSOT;95720;49.0357861801;2.41591923278
LE PLESSIS LUZARCHES;95270;49.095729672;2.45475644312
LE THILLAY;95500;49.004277001;2.46927524969
LIVILLIERS;95300;49.1004574229;2.09462391064
LONGUESSE;95450;49.0616626709;1.92659421162
LOUVRES;95380;49.0422977702;2.50358491408
LUZARCHES;95270;49.1151211125;2.44082640954
MAFFLIERS;95560;49.083629147;2.312333333
MAGNY EN VEXIN;95420;49.158617564;1.81039322129
MAREIL EN FRANCE;95850;49.0700384798;2.41753793907
MARGENCY;95580;49.0014888466;2.28907008969
MARINES;95640;49.1480448573;1.98376019265
MARLY LA VILLE;95670;49.0815057636;2.5087179751
MAUDETOUR EN VEXIN;95420;49.1093620224;1.77708417418
MENOUVILLE;95810;49.1532355635;2.10779433987
MENUCOURT;95180;49.0275422182;1.9746848215
MERIEL;95630;49.0771587262;2.21325051405
MERY SUR OISE;95540;49.0548422566;2.17397254184
MOISSELLES;95570;49.0459598728;2.33744939306
MONTGEROULT;95650;49.0908042782;2.00787015509
MONTIGNY LES CORMEILLES;95370;48.9938035561;2.19351793046
MONTLIGNON;95680;49.0141682011;2.28900488904
MONTMAGNY;95360;48.9699195841;2.3460753179
MONTMORENCY;95160;48.9918643363;2.32119797848
MONTREUIL SUR EPTE;95770;49.1704950487;1.68615384906
MONTSOULT;95560;49.0715830247;2.30381480542
MOURS;95260;49.1303947491;2.26415088892
MOUSSY;95640;49.1349938099;1.90868035748
NERVILLE LA FORET;95590;49.0903513665;2.27625010335
NESLES LA VALLEE;95690;49.1260403898;2.17176267252
NEUILLY EN VEXIN;95640;49.1737847677;1.98023153343
NEUVILLE SUR OISE;95000;49.0173343999;2.06276656128
NOINTEL;95590;49.1288691946;2.29434375998
NOISY SUR OISE;95270;49.1346676659;2.32848304396
NUCOURT;95420;49.1595393224;1.85643409298
OMERVILLE;95420;49.1427407784;1.72224789983
OSNY;95520;49.0676589923;2.06311678451
PARMAIN;95620;49.1228699088;2.201277887
PERSAN;95340;49.1497441715;2.26978393249
PIERRELAYE;95220;49.0194444023;2.16105557777
PIERRELAYE;95480;49.0194444023;2.16105557777
PISCOP;95350;49.0165874672;2.34203473029
PONTOISE;95000;49.0513737853;2.09487928948
PONTOISE;95300;49.0513737853;2.09487928948
PRESLES;95590;49.1118569843;2.28674437908
PUISEUX EN FRANCE;95380;49.0668504076;2.48852340935
PUISEUX PONTOISE;95650;49.0637642089;2.01586749979
ROISSY EN FRANCE;95700;49.00660444;2.51417743519
RONQUEROLLES;95340;49.1677039084;2.21341666638
SAGY;95450;49.0526461167;1.96852121634
SANNOIS;95110;48.9717773111;2.25299514112
SANTEUIL;95640;49.1295034535;1.95810304373
SARCELLES;95200;48.9902250437;2.38160272749
SERAINCOURT;95450;49.0421395607;1.87866991801
SEUGY;95270;49.1230209321;2.39479551154
SOISY SOUS MONTMORENCY;95230;48.9884077875;2.30049978342
ST BRICE SOUS FORET;95350;49.0019033624;2.35030688962
ST CLAIR SUR EPTE;95770;49.2131541909;1.70318156018
ST CYR EN ARTHIES;95510;49.059130605;1.74195790474
ST GERVAIS;95420;49.1669076657;1.76166350491
ST GRATIEN;95210;48.9689724948;2.28518003438
ST LEU LA FORET;95320;49.0202164812;2.24676044206
ST MARTIN DU TERTRE;95270;49.1039330244;2.33445740142
ST OUEN L AUMONE;95310;49.0441683455;2.12861303743
ST PRIX;95390;49.0208224816;2.27015066493
ST WITZ;95470;49.0857837241;2.55227615042
SURVILLIERS;95470;49.1059736219;2.54410742752
TAVERNY;95150;49.0267316203;2.22116067166
THEMERICOURT;95450;49.0903809548;1.90532262834
THEUVILLE;95810;49.1567965357;2.0691663538
US;95450;49.1048076828;1.95764610139
VALLANGOUJARD;95810;49.1340749867;2.10393344842
VALMONDOIS;95760;49.0976500716;2.18016319535
VAUDHERLAND;95500;49.0004967295;2.48642956224
VAUREAL;95490;49.0295073382;2.02446619061
VEMARS;95470;49.0628571398;2.56723072677
VETHEUIL;95510;49.0620216513;1.70672153604
VIARMES;95270;49.1231107932;2.37799676025
VIENNE EN ARTHIES;95510;49.0664410063;1.72229012946
VIGNY;95450;49.080165557;1.92992323682
VILLAINES SOUS BOIS;95570;49.0753739915;2.35663670214
VILLERON;95380;49.060842982;2.5345109745
VILLERS EN ARTHIES;95510;49.0858999284;1.73039629888
VILLIERS ADAM;95840;49.0702888248;2.23950871871
VILLIERS LE BEL;95400;49.0084494157;2.40385604039
VILLIERS LE SEC;95720;49.0743088682;2.38688959984
WY DIT JOLI VILLAGE;95420;49.0958197758;1.82502883308
